timestamp,latitude,longitude,altitude,accuracy,bearing,speed,provider
1629104234380,52.4685376,13.3335685,109.6667303166987,16.763,70.964195,6.7032006E-4,fused
1629104236384,52.468559,13.3335774,109.67378909831932,16.906,34.654076,0.015308405,fused
1629104238390,52.4685735,13.333586,109.62212086700531,12.715,73.40491,0.0017758161,fused
1629104240386,52.4685807,13.3335906,109.62910004163112,9.765,301.23007,0.22929382,fused
1629104242391,52.4685942,13.3335856,109.68725479987667,8.438,306.73563,0.00886837,fused
1629104243388,52.4685984,13.3335894,109.7174700952327,7.802,70.23389,0.0010501237,fused
1629104244653,52.4686038,13.3335945,109.68862784492273,6.947,72.81446,0.0020291624,fused
1629104245957,52.468607,13.3335946,109.7117914302583,6.408,279.03613,0.004900951,fused
1629104247250,52.4686094,13.3335951,109.70893466704251,6.242,56.096073,0.004265257,fused
1629104248384,52.468613,13.3335973,109.73852352887452,6.095,296.7026,0.26800624,fused
1629104249755,52.4686185,13.3335921,109.75187264752392,6.142,305.3378,1.3402033,fused
1629104250781,52.4686278,13.3335771,109.73786677764537,7.006,353.5014,1.8385864,fused
1629104251929,52.4686519,13.3335609,109.7423790287751,9.181,322.89642,2.3304806,fused
1629104253383,52.4686773,13.3334949,109.69450896820595,11.035,302.35864,3.2858934,fused
1629104254386,52.4686955,13.3334409,109.65395847764141,13.772,306.0577,3.6950426,fused
1629104256276,52.4687422,13.3333134,109.6614259883624,15.476,310.79135,3.76932,fused
1629104257290,52.4687697,13.3332548,109.67354321018384,15.333,312.20502,4.0661335,fused
1629104258385,52.4687983,13.3331959,109.71748980661935,15.154,311.75656,4.0853143,fused
1629104260391,52.4688494,13.333099,109.70513041335848,14.697,328.59314,3.9959512,fused
1629104262024,52.4689075,13.3330661,109.6942238069219,14.512,347.40677,4.400385,fused
1629104263042,52.4689511,13.3330624,109.66519383138952,14.231,354.647,3.382757,fused
1629104264385,52.4689892,13.3330708,109.63558370297167,14.107,13.0472,2.5111306,fused
1629104265389,52.4690075,13.3330899,109.66154274168963,14.47,42.60302,2.3235593,fused
1629104267278,52.4690235,13.3331744,109.61064443280642,14.963,67.23349,2.7433,fused
1629104268387,52.4690354,13.333233,109.57423089847711,15.733,87.955826,3.2295418,fused
1629104270385,52.4690551,13.3334262,109.49776172797479,13.063,80.08718,5.2706437,fused
1629104271394,52.4690607,13.3335158,109.5204425403703,11.364,80.02012,5.1700196,fused
1629104272390,52.469071,13.3335978,109.50828917537764,8.089,67.56221,5.1058664,fused
1629104273389,52.46909,13.3336779,109.52249618883754,5.299,69.90622,5.579418,fused
1629104275390,52.4691162,13.3337967,109.53740071631675,10.262,281.90396,3.5180566,fused
1629104277380,52.4691332,13.3339071,109.49196171662071,12.446,64.98413,3.311328,fused
1629104278408,52.4691459,13.3339476,109.50416130720562,13.51,65.63095,2.369391,fused
1629104279377,52.469155,13.3339798,109.52184721351529,14.564,68.68402,2.8037105,fused
1629104280918,52.469164,13.3340602,109.49295427789083,13.802,78.93822,3.391155,fused
1629104282404,52.469171,13.3341441,109.49334810015715,13.841,80.38617,3.9403715,fused
1629104283773,52.4691876,13.3342594,109.47246748043715,14.224,73.23006,4.9659395,fused
1629104285408,52.4692196,13.3344187,109.4650608623894,13.503,62.348755,4.9447894,fused
1629104286385,52.469232,13.3345168,109.45244444192808,13.051,79.79426,4.565937,fused
1629104287419,52.469241,13.3345864,109.44974002075864,13.277,75.62311,4.652354,fused
1629104289386,52.4692186,13.3346813,109.41088435659913,14.02,97.96739,4.537031,fused
1629104290380,52.4692619,13.3348218,109.39464270302614,12.466,74.19146,5.2980905,fused
1629104291375,52.4692769,13.3348997,109.45578600340035,13.227,74.057976,5.0169253,fused
1629104293380,52.4693083,13.3350321,109.46031230324903,13.197,70.02988,4.8642178,fused
1629104294885,52.469321,13.3351429,109.48571082936527,12.711,77.08539,4.0688257,fused
1629104296407,52.4693294,13.3352209,109.48027870284088,13.412,70.51754,3.048181,fused
1629104298380,52.4693392,13.3352749,109.49657988280545,13.349,80.80993,1.5868177,fused
1629104299375,52.4693393,13.3352901,109.50439541274596,13.943,84.08051,1.209975,fused
1629104301375,52.4693421,13.3353152,109.51330051207736,14.871,85.173256,2.0231988,fused
1629104302876,52.4693501,13.3353705,109.48401253796509,16.061,77.86206,3.1968412,fused
1629104304205,52.4693534,13.3354445,109.4800288175035,16.498,85.980446,3.770677,fused
1629104306274,52.4693618,13.3355757,91.20925787573339,16.613,76.08157,4.5897245,fused
1629104307378,52.4693573,13.3356584,90.31141136740757,16.366,86.87219,4.4871116,fused
1629104309244,52.4693428,13.3358072,90.66782365760545,15.64,90.26403,4.6130857,fused
1629104310380,52.4693578,13.3359052,89.71342870980718,14.277,86.960785,5.1110964,fused
1629104311372,52.4693604,13.3359964,89.73801805664864,13.116,85.02363,5.770513,fused
1629104312378,52.4693646,13.3360931,89.28268997419065,11.396,83.03061,6.1683645,fused
1629104313379,52.4693701,13.3361975,89.51579886617255,9.509,84.93779,6.975032,fused
1629104315375,52.4693681,13.3364082,90.08667010098732,3.9,87.98524,6.2889676,fused
1629104317374,52.4693687,13.3366053,93.68402355340234,3.9,89.049034,5.6267333,fused
1629104318378,52.4693736,13.3366927,94.1857620538267,3.9,88.0162,5.527427,fused
1629104319411,52.4693754,13.3367735,92.38573151240394,6.658,87.73587,4.9523125,fused
1629104321388,52.4693751,13.3369236,93.49089325555165,11.604,88.44714,4.92669,fused
1629104322913,52.469377,13.3369608,93.55769235896666,14.753,83.71642,2.791149,fused
1629104324384,52.4693697,13.3370763,92.54357960323492,16.096,96.497444,4.788721,fused
1629104326007,52.4693655,13.3371977,91.84971153498282,16.686,103.29744,3.9854617,fused
1629104327036,52.4693537,13.3372581,91.02235760607745,16.183,125.10671,3.6392648,fused
1629104328145,52.4693249,13.3372963,89.42047293040706,15.29,152.00737,3.9651978,fused
1629104329384,52.4692767,13.3373121,89.55329377335426,14.798,180.45953,4.6896167,fused
1629104331380,52.4691124,13.3372806,89.59815490458507,12.405,184.93848,5.0643167,fused
1629104332389,52.4690657,13.3372732,91.36970065386652,11.721,182.50471,4.6784525,fused
1629104334372,52.4689489,13.3372683,92.15241982162117,6.523,177.99106,5.5674376,fused
1629104336408,52.4688479,13.3372727,91.73913779402187,8.068,180.79797,4.4619327,fused
1629104338040,52.4687789,13.3372617,91.66960239802536,8.823,28.722534,1.6121477,fused
1629104339413,52.4687174,13.3372602,91.13035658055473,9.891,178.85872,4.8817754,fused
1629104341380,52.4686012,13.3372711,93.37501192884042,9.831,186.96526,5.3186493,fused
1629104342380,52.4685413,13.3372646,93.87193609467589,9.305,194.83641,5.284569,fused
1629104344376,52.4684372,13.3372219,93.94840520095937,7.453,202.92616,5.387495,fused
1629104345378,52.4683869,13.3371858,95.19345638062943,3.9,212.75824,5.616811,fused
1629104347375,52.4682966,13.3370912,94.02330037901511,3.9,211.1154,5.659043,fused
1629104349373,52.4682099,13.3370069,93.70757481461244,3.9,214.99037,5.501436,fused
1629104350375,52.468169,13.3369642,93.25694260300754,3.9,215.00255,5.567453,fused
1629104352379,52.4680841,13.3368698,92.89804864517724,3.9,210.06778,5.765808,fused
1629104353372,52.4680371,13.3368216,92.96422528844548,3.9,209.04674,5.951687,fused
1629104355418,52.4679531,13.3367289,92.0274680815249,3.9,205.92929,4.8737326,fused
1629104356380,52.4679137,13.336688,93.22017020554226,3.9,209.95003,5.288204,fused
1629104358384,52.4678336,13.3365989,93.67072243905429,3.9,211.0179,5.162422,fused
1629104360373,52.467758,13.3365089,93.80491619721778,3.9,205.15564,4.5758424,fused
1629104361375,52.4677306,13.336478,93.90379159642494,4.005,214.62173,4.593096,fused
1629104363375,52.4676708,13.3363951,94.87538311791826,3.986,230.39957,4.1714606,fused
1629104364642,52.4676432,13.3363272,93.89080746064066,7.903,247.03981,4.512841,fused
1629104366372,52.4676447,13.336215,92.15721459831872,11.195,285.04285,4.2681055,fused
1629104367378,52.4676637,13.3361472,91.58564171211671,14.37,292.64914,4.807605,fused
1629104368375,52.4676838,13.3360783,91.97526593832002,16.291,294.76328,4.6628356,fused
1629104369395,52.467716,13.3359992,91.57100579836508,15.276,308.5711,5.1389127,fused
1629104370372,52.4677462,13.3359266,91.1245133381508,14.231,308.99585,5.5171347,fused
1629104372417,52.4678058,13.3357694,90.99703885839092,11.156,306.88055,5.866708,fused
1629104373377,52.4678359,13.3356937,90.83432095137002,8.356,305.07513,6.0797825,fused
1629104374380,52.4678639,13.3356156,90.8498023319185,3.9,304.9846,5.9461713,fused
1629104375385,52.4678945,13.335539,90.49300425751883,3.9,304.0477,6.3355045,fused
1629104377373,52.4679494,13.335385,90.8828813603542,3.9,303.94003,6.1461735,fused
1629104378397,52.4679791,13.3353104,90.87153295601357,3.9,303.01846,6.0233183,fused
1629104380377,52.4680381,13.335165,89.6412716359953,3.9,299.06906,5.5813503,fused
1629104381372,52.4680648,13.3350915,89.43440614693436,3.9,303.90024,6.122443,fused
1629104382381,52.4680995,13.3350209,86.90944692599413,3.9,302.0592,6.205416,fused
1629104383374,52.4681305,13.3349528,86.50088922438826,3.9,303.93307,5.9003787,fused
1629104385381,52.4682015,13.3348308,84.41509123067183,3.9,302.09558,5.9517922,fused
1629104386375,52.4682318,13.3347607,84.39370031361942,3.9,304.9175,5.8544235,fused
1629104388372,52.4682841,13.3346197,84.67195751550273,3.9,300.95673,5.6089587,fused
1629104390372,52.4683342,13.3344795,85.10662848039874,3.9,300.19437,5.575631,fused
1629104392371,52.4683791,13.3343346,84.97145531784415,3.9,303.8559,5.6866364,fused
1629104393398,52.4684067,13.3342674,83.64546239022462,3.878,303.97003,5.2919736,fused
1629104395379,52.4684612,13.3341374,83.78316381830008,3.878,299.05746,5.488899,fused
1629104396382,52.4684868,13.3340696,83.96668812260384,3.878,302.87027,5.377116,fused
1629104397369,52.4685159,13.3340039,84.08271188750854,3.878,308.73224,5.1428857,fused
1629104399372,52.4685707,13.3338962,82.91961235334817,3.9,309.87393,4.207265,fused
1629104401390,52.468616,13.3338088,82.22864324986793,3.9,311.8525,3.3634,fused
1629104403379,52.4686426,13.3337469,83.44584179377094,3.9,309.75137,2.1898904,fused
1629104404398,52.4686573,13.3337218,84.81178575247661,7.882,328.93628,1.3576814,fused
1629104405836,52.4686681,13.3336999,84.79709660973178,10.749,339.61603,0.30296376,fused
