timestamp,tracked_features
1629637697.607,44
1629637697.674,41
1629637697.707,40
1629637697.774,40
1629637697.807,41
1629637697.874,44
1629637697.907,42
1629637697.974,37
1629637698.007,38
1629637698.074,39
1629637698.107,41
1629637698.174,38
1629637698.207,38
1629637698.274,39
1629637698.307,37
1629637698.374,38
1629637698.407,38
1629637698.474,39
1629637698.507,41
1629637698.574,45
1629637698.607,44
1629637698.674,43
1629637698.707,42
1629637698.774,42
1629637698.807,42
1629637698.874,39
1629637698.907,42
1629637698.974,44
1629637699.007,42
1629637699.074,41
1629637699.107,38
1629637699.174,40
1629637699.207,42
1629637699.274,41
1629637699.307,37
1629637699.374,39
1629637699.407,40
1629637699.474,39
1629637699.507,39
1629637699.574,41
1629637699.607,43
1629637699.674,43
1629637699.707,42
1629637699.774,41
1629637699.807,40
1629637699.874,42
1629637699.907,45
1629637699.974,44
1629637700.007,45
1629637700.074,42
1629637700.107,42
1629637700.174,41
1629637700.207,42
1629637700.274,40
1629637700.307,40
1629637700.373,40
1629637700.407,40
1629637700.473,43
1629637700.507,44
1629637700.573,43
1629637700.607,41
1629637700.673,47
1629637700.707,47
1629637700.773,43
1629637700.807,40
1629637700.873,37
1629637700.907,38
1629637700.973,41
1629637701.007,39
1629637701.073,39
1629637701.107,39
1629637701.173,42
1629637701.207,42
1629637701.273,38
1629637701.307,40
1629637701.373,38
1629637701.407,39
1629637701.473,38
1629637701.507,37
1629637701.573,39
1629637701.607,38
1629637701.673,38
1629637701.707,42
1629637701.773,42
1629637701.807,39
1629637701.873,40
1629637701.907,43
1629637701.973,42
1629637702.007,39
1629637702.073,41
1629637702.107,40
1629637702.173,39
1629637702.207,40
1629637702.273,37
1629637702.307,37
1629637702.373,36
1629637702.407,36
1629637702.473,35
1629637702.507,35
1629637702.573,32
1629637702.607,33
1629637702.673,32
1629637702.707,32
1629637702.773,35
1629637702.806,40
1629637702.873,40
1629637702.906,38
1629637702.973,38
1629637703.006,39
1629637703.073,40
1629637703.106,40
1629637703.173,41
1629637703.206,41
1629637703.273,39
1629637703.306,38
1629637703.373,39
1629637703.406,41
1629637703.473,39
1629637703.506,38
1629637703.573,37
1629637703.606,37
1629637703.673,40
1629637703.706,40
1629637703.773,36
1629637703.806,38
1629637703.873,37
1629637703.906,38
1629637703.973,41
1629637704.006,42
1629637704.073,41
1629637704.106,42
1629637704.173,40
1629637704.206,37
1629637704.273,38
1629637704.306,36
1629637704.373,36
1629637704.406,37
1629637704.473,37
1629637704.506,38
1629637704.573,36
1629637704.606,36
1629637704.673,35
1629637704.706,38
1629637704.773,37
1629637704.806,38
1629637704.873,37
1629637704.906,35
1629637704.973,37
1629637705.006,37
1629637705.073,35
1629637705.106,37
1629637705.173,40
1629637705.206,38
1629637705.273,37
1629637705.306,34
1629637705.373,39
1629637705.406,39
1629637705.473,35
1629637705.506,35
1629637705.573,38
1629637705.606,39
1629637705.673,35
1629637705.706,35
1629637705.773,38
1629637705.806,38
1629637705.873,39
1629637705.906,41
1629637705.973,41
1629637706.006,40
1629637706.073,39
1629637706.106,40
1629637706.173,40
1629637706.206,38
1629637706.273,41
1629637706.306,39
1629637706.373,39
1629637706.406,40
1629637706.473,38
1629637706.506,40
1629637706.573,37
1629637706.606,39
1629637706.673,38
1629637706.706,38
1629637706.773,35
1629637706.806,37
1629637706.873,37
1629637706.906,37
1629637706.973,38
1629637707.006,35
1629637707.073,31
1629637707.106,34
1629637707.173,34
1629637707.206,32
1629637707.273,32
1629637707.306,32
1629637707.373,32
1629637707.406,35
1629637707.473,35
1629637707.506,34
1629637707.573,32
1629637707.606,34
1629637707.673,37
1629637707.706,36
1629637707.773,35
1629637707.806,38
1629637707.873,36
1629637707.906,36
1629637707.973,33
1629637708.006,32
1629637708.073,33
1629637708.106,31
1629637708.172,34
1629637708.206,36
1629637708.273,35
1629637708.306,32
1629637708.373,32
1629637708.406,33
1629637708.473,32
1629637708.506,32
1629637708.573,35
1629637708.606,38
1629637708.672,35
1629637708.706,35
1629637708.773,35
1629637708.806,33
1629637708.872,30
1629637708.906,28
1629637708.972,31
1629637709.006,31
1629637709.073,26
1629637709.106,21
1629637709.173,25
1629637709.206,25
1629637709.273,27
1629637709.306,25
1629637709.373,26
1629637709.406,28
1629637709.473,29
1629637709.506,27
1629637709.573,29
1629637709.606,32
1629637709.673,30
1629637709.706,34
1629637709.773,32
1629637709.806,34
1629637709.873,37
1629637709.906,39
1629637709.973,36
1629637710.006,41
1629637710.072,41
1629637710.106,40
1629637710.172,40
1629637710.206,37
1629637710.272,37
1629637710.306,33
1629637710.372,37
1629637710.406,35
1629637710.472,34
1629637710.506,34
1629637710.572,34
1629637710.606,30
1629637710.672,32
1629637710.706,34
1629637710.772,38
1629637710.806,38
1629637710.872,39
1629637710.906,36
1629637710.972,38
1629637711.006,35
1629637711.072,32
1629637711.106,35
1629637711.172,36
1629637711.206,36
1629637711.272,35
1629637711.306,34
1629637711.372,34
1629637711.406,33
1629637711.472,30
1629637711.506,32
1629637711.572,30
1629637711.606,32
1629637711.672,34
1629637711.706,36
1629637711.772,31
1629637711.806,32
1629637711.872,36
1629637711.905,39
1629637711.972,39
1629637712.005,41
1629637712.072,40
1629637712.105,38
1629637712.172,39
1629637712.205,39
1629637712.272,38
1629637712.305,40
1629637712.372,39
1629637712.405,38
1629637712.472,34
1629637712.505,38
1629637712.572,38
1629637712.605,40
1629637712.672,36
1629637712.705,39
1629637712.772,37
1629637712.805,37
1629637712.872,40
1629637712.905,40
1629637712.972,37
1629637713.005,38
1629637713.072,41
1629637713.105,42
1629637713.172,42
1629637713.205,41
1629637713.272,43
1629637713.305,41
1629637713.372,39
1629637713.405,43
1629637713.472,41
1629637713.505,42
1629637713.572,45
1629637713.605,42
1629637713.672,41
1629637713.705,40
1629637713.772,41
1629637713.805,39
1629637713.872,39
1629637713.905,39
1629637713.972,44
1629637714.005,41
1629637714.072,43
1629637714.105,44
1629637714.172,44
1629637714.205,45
1629637714.272,44
1629637714.305,45
1629637714.372,44
1629637714.405,44
1629637714.472,45
1629637714.505,44
1629637714.572,44
1629637714.605,42
1629637714.672,45
1629637714.705,46
1629637714.772,44
1629637714.805,44
1629637714.872,43
1629637714.905,41
1629637714.972,43
1629637715.005,45
1629637715.072,43
1629637715.105,40
1629637715.172,40
1629637715.205,37
1629637715.272,41
1629637715.305,45
1629637715.372,41
1629637715.405,39
1629637715.472,39
1629637715.505,40
1629637715.572,43
1629637715.605,43
1629637715.672,43
1629637715.705,41
1629637715.772,41
1629637715.805,41
1629637715.872,45
1629637715.905,43
1629637715.972,40
1629637716.005,40
1629637716.072,43
1629637716.105,45
1629637716.172,45
1629637716.205,45
1629637716.272,44
1629637716.305,44
1629637716.372,42
1629637716.405,43
1629637716.472,42
1629637716.505,41
1629637716.572,41
1629637716.605,43
1629637716.672,47
1629637716.705,45
1629637716.772,45
1629637716.805,45
1629637716.872,41
1629637716.905,42
1629637716.972,44
1629637717.005,44
1629637717.071,45
1629637717.105,47
1629637717.171,44
1629637717.205,46
1629637717.271,47
1629637717.305,45
1629637717.371,44
1629637717.405,45
1629637717.471,44
1629637717.505,44
1629637717.571,44
1629637717.605,43
1629637717.671,42
1629637717.705,42
1629637717.771,41
1629637717.805,42
1629637717.871,40
1629637717.905,40
1629637717.971,45
1629637718.005,45
1629637718.071,46
1629637718.105,45
1629637718.171,43
1629637718.205,43
1629637718.271,44
1629637718.305,43
1629637718.371,43
1629637718.405,44
1629637718.471,43
1629637718.505,44
1629637718.571,45
1629637718.605,46
1629637718.671,45
1629637718.705,41
1629637718.771,43
1629637718.805,44
1629637718.871,44
1629637718.905,41
1629637718.971,41
1629637719.004,38
1629637719.071,40
1629637719.104,42
1629637719.171,41
1629637719.204,42
1629637719.271,38
1629637719.304,38
1629637719.371,38
1629637719.404,41
1629637719.471,41
1629637719.504,43
1629637719.571,43
1629637719.604,44
1629637719.671,44
1629637719.704,43
1629637719.771,43
1629637719.804,42
1629637719.871,42
1629637719.904,43
1629637719.971,43
1629637720.004,41
1629637720.071,42
1629637720.104,41
1629637720.171,42
1629637720.204,43
1629637720.271,42
1629637720.304,43
1629637720.371,42
1629637720.404,42
1629637720.471,42
1629637720.504,40
1629637720.571,40
1629637720.604,40
1629637720.671,40
1629637720.704,37
1629637720.771,40
1629637720.804,41
1629637720.871,41
1629637720.904,41
1629637720.971,42
1629637721.004,42
1629637721.071,41
1629637721.104,39
1629637721.171,38
1629637721.204,38
1629637721.271,36
1629637721.304,36
1629637721.371,33
1629637721.404,33
1629637721.471,36
1629637721.504,34
1629637721.571,35
1629637721.604,35
1629637721.671,37
1629637721.704,35
1629637721.771,36
1629637721.804,37
1629637721.871,34
1629637721.904,33
1629637721.971,34
1629637722.004,36
1629637722.071,34
1629637722.104,34
1629637722.171,31
1629637722.204,32
1629637722.271,34
1629637722.304,35
1629637722.371,33
1629637722.404,35
1629637722.471,39
1629637722.504,38
1629637722.571,40
1629637722.604,39
1629637722.671,38
1629637722.704,36
1629637722.771,37
1629637722.804,43
1629637722.871,39
1629637722.904,37
1629637722.971,33
1629637723.004,36
1629637723.071,37
1629637723.104,41
1629637723.171,41
1629637723.204,40
1629637723.271,36
1629637723.304,34
1629637723.371,32
1629637723.404,35
1629637723.471,37
1629637723.504,40
1629637723.571,40
1629637723.604,39
1629637723.671,38
1629637723.704,39
1629637723.771,35
1629637723.804,32
1629637723.871,35
1629637723.904,36
1629637723.971,36
1629637724.004,35
1629637724.071,34
1629637724.104,38
1629637724.171,35
1629637724.204,33
1629637724.271,33
1629637724.304,31
1629637724.371,33
1629637724.404,33
1629637724.471,36
1629637724.504,35
1629637724.571,33
1629637724.604,36
1629637724.671,41
1629637724.704,39
1629637724.771,35
1629637724.804,32
1629637724.87,31
1629637724.904,32
1629637724.97,31
1629637725.004,28
1629637725.07,30
1629637725.104,33
1629637725.17,31
1629637725.204,27
1629637725.27,22
1629637725.304,21
1629637725.37,26
1629637725.404,22
1629637725.47,23
1629637725.504,26
1629637725.57,25
1629637725.604,25
1629637725.67,28
1629637725.704,28
1629637725.77,31
1629637725.804,30
1629637725.87,29
1629637725.904,30
1629637725.97,25
1629637726.004,28
1629637726.07,32
1629637726.104,32
1629637726.17,30
1629637726.204,32
1629637726.27,34
1629637726.304,32
1629637726.37,28
1629637726.404,31
1629637726.47,32
1629637726.504,33
1629637726.57,35
1629637726.604,35
1629637726.67,35
1629637726.704,35
1629637726.77,36
1629637726.804,36
1629637726.87,34
1629637726.904,34
1629637726.97,36
1629637727.004,41
1629637727.07,39
1629637727.104,40
1629637727.17,38
1629637727.204,41
1629637727.27,39
1629637727.304,42
1629637727.37,38
1629637727.404,38
1629637727.47,37
1629637727.504,37
1629637727.57,37
1629637727.604,40
1629637727.67,37
1629637727.703,36
1629637727.77,39
1629637727.803,36
1629637727.87,36
1629637727.903,36
1629637727.97,36
1629637728.003,38
1629637728.07,36
1629637728.103,36
1629637728.17,36
1629637728.203,38
1629637728.27,38
1629637728.303,38
1629637728.37,38
1629637728.403,39
1629637728.47,39
1629637728.503,38
1629637728.57,39
1629637728.603,41
1629637728.67,40
1629637728.703,39
1629637728.77,43
1629637728.803,46
1629637728.87,42
1629637728.903,40
1629637728.97,38
1629637729.003,35
1629637729.07,38
1629637729.103,38
1629637729.17,36
1629637729.203,36
1629637729.27,34
1629637729.303,29
1629637729.37,29
1629637729.403,31
1629637729.47,37
1629637729.503,39
1629637729.57,38
1629637729.603,37
1629637729.67,37
1629637729.703,38
1629637729.77,37
1629637729.803,37
1629637729.87,34
1629637729.903,38
1629637729.97,34
1629637730.003,33
1629637730.07,34
1629637730.103,37
1629637730.17,38
1629637730.203,37
1629637730.27,39
1629637730.303,39
1629637730.37,36
1629637730.403,33
1629637730.47,37
1629637730.503,35
1629637730.57,36
1629637730.603,33
1629637730.67,36
1629637730.703,36
1629637730.77,38
1629637730.803,33
1629637730.87,32
1629637730.903,36
1629637730.97,38
1629637731.003,36
1629637731.07,34
1629637731.103,32
1629637731.17,35
1629637731.203,34
1629637731.27,38
1629637731.303,34
1629637731.37,38
1629637731.403,43
1629637731.47,38
1629637731.503,35
1629637731.57,37
1629637731.603,37
1629637731.67,42
1629637731.703,36
1629637731.77,34
1629637731.803,35
1629637731.87,38
1629637731.903,38
1629637731.97,37
1629637732.003,33
1629637732.07,35
1629637732.103,36
1629637732.17,33
1629637732.203,34
1629637732.27,38
1629637732.303,36
1629637732.37,36
1629637732.403,37
1629637732.47,36
1629637732.503,39
1629637732.57,38
1629637732.603,40
1629637732.67,41
1629637732.703,42
1629637732.769,45
1629637732.803,43
1629637732.869,42
1629637732.903,39
1629637732.969,43
1629637733.003,30
1629637733.069,31
1629637733.103,32
1629637733.169,30
1629637733.203,33
1629637733.269,26
1629637733.303,24
1629637733.369,25
1629637733.403,29
1629637733.469,27
1629637733.503,25
1629637733.569,30
1629637733.603,29
1629637733.669,29
1629637733.703,31
1629637733.769,27
1629637733.803,30
1629637733.869,31
1629637733.903,32
1629637733.969,36
1629637734.003,35
1629637734.069,34
1629637734.103,34
1629637734.169,33
1629637734.203,35
1629637734.269,35
1629637734.303,34
1629637734.369,33
1629637734.403,32
1629637734.469,34
1629637734.503,39
1629637734.569,37
1629637734.603,38
1629637734.669,35
1629637734.703,36
1629637734.769,40
1629637734.803,37
1629637734.869,35
1629637734.903,34
1629637734.969,37
1629637735.003,38
1629637735.069,39
1629637735.103,40
1629637735.169,36
1629637735.203,30
1629637735.269,30
1629637735.303,34
1629637735.369,33
1629637735.403,34
1629637735.469,30
1629637735.503,29
1629637735.569,30
1629637735.603,36
1629637735.669,39
1629637735.702,40
1629637735.769,37
1629637735.802,38
1629637735.869,40
1629637735.902,41
1629637735.969,35
1629637736.002,36
1629637736.069,38
1629637736.102,37
1629637736.169,33
1629637736.202,34
1629637736.269,34
1629637736.302,37
1629637736.369,36
1629637736.402,34
1629637736.469,34
1629637736.502,40
1629637736.569,41
1629637736.602,39
1629637736.669,36
1629637736.702,37
1629637736.769,41
1629637736.802,37
1629637736.869,36
1629637736.902,38
1629637736.969,40
1629637737.002,38
1629637737.069,39
1629637737.102,39
1629637737.169,38
1629637737.202,39
1629637737.269,39
1629637737.302,36
1629637737.369,31
1629637737.402,31
1629637737.469,29
1629637737.502,31
1629637737.569,33
1629637737.602,30
1629637737.669,24
1629637737.702,23
1629637737.769,31
1629637737.802,36
1629637737.869,38
1629637737.902,37
1629637737.969,34
1629637738.002,34
1629637738.069,34
1629637738.102,35
1629637738.169,32
1629637738.202,31
1629637738.269,34
1629637738.302,34
1629637738.369,32
1629637738.402,34
1629637738.469,31
1629637738.502,33
1629637738.569,35
1629637738.602,36
1629637738.669,35
1629637738.702,31
1629637738.769,32
1629637738.802,36
1629637738.869,36
1629637738.902,34
1629637738.969,33
1629637739.002,34
1629637739.069,33
1629637739.102,32
1629637739.169,36
1629637739.202,37
1629637739.269,34
1629637739.302,33
1629637739.369,37
1629637739.402,38
1629637739.469,35
1629637739.502,36
1629637739.569,32
1629637739.602,33
1629637739.669,34
1629637739.702,36
1629637739.769,40
1629637739.802,37
1629637739.869,34
1629637739.902,33
1629637739.969,33
1629637740.002,33
1629637740.069,34
1629637740.102,31
1629637740.169,30
1629637740.202,32
1629637740.269,29
1629637740.302,30
1629637740.369,29
1629637740.402,32
1629637740.469,31
1629637740.502,34
1629637740.569,36
1629637740.602,38
1629637740.669,38
1629637740.702,37
1629637740.769,36
1629637740.802,34
1629637740.869,33
1629637740.902,33
1629637740.969,32
1629637741.002,35
1629637741.069,32
1629637741.102,38
1629637741.169,40
1629637741.202,40
1629637741.269,37
1629637741.302,36
1629637741.369,33
1629637741.402,38
1629637741.469,39
1629637741.502,40
1629637741.569,41
1629637741.602,40
1629637741.668,41
1629637741.702,40
1629637741.768,42
1629637741.802,44
1629637741.868,45
1629637741.902,42
1629637741.968,40
1629637742.002,42
1629637742.068,43
1629637742.102,44
1629637742.168,47
1629637742.202,44
1629637742.268,40
1629637742.302,40
1629637742.368,40
1629637742.402,40
1629637742.468,39
1629637742.502,40
1629637742.568,41
1629637742.602,39
1629637742.668,36
1629637742.702,40
1629637742.768,40
1629637742.802,40
1629637742.868,36
1629637742.902,35
1629637742.968,35
1629637743.002,39
1629637743.068,38
1629637743.102,40
1629637743.168,38
1629637743.202,36
1629637743.268,37
1629637743.302,37
1629637743.368,38
1629637743.402,38
1629637743.468,38
1629637743.502,38
1629637743.568,38
1629637743.602,35
1629637743.668,35
1629637743.702,40
1629637743.768,37
1629637743.802,36
1629637743.868,35
1629637743.902,37
1629637743.968,39
1629637744.002,40
1629637744.068,41
1629637744.102,36
1629637744.168,35
1629637744.202,38
1629637744.268,41
1629637744.302,41
1629637744.368,39
1629637744.402,38
1629637744.468,35
1629637744.501,36
1629637744.568,38
1629637744.601,37
1629637744.668,38
1629637744.701,38
1629637744.768,36
1629637744.801,38
1629637744.868,39
1629637744.901,35
1629637744.968,37
1629637745.001,37
1629637745.068,40
1629637745.101,42
1629637745.168,40
1629637745.201,40
1629637745.268,40
1629637745.301,39
1629637745.368,38
1629637745.401,37
1629637745.468,37
1629637745.501,39
1629637745.568,34
1629637745.601,32
1629637745.668,35
1629637745.701,39
1629637745.768,38
1629637745.801,39
1629637745.868,38
1629637745.901,36
1629637745.968,39
1629637746.001,41
1629637746.068,39
1629637746.101,40
1629637746.168,38
1629637746.201,36
1629637746.268,35
1629637746.301,38
1629637746.368,37
1629637746.401,38
1629637746.468,39
1629637746.501,37
1629637746.568,39
1629637746.601,39
1629637746.668,40
1629637746.701,39
1629637746.768,40
1629637746.801,37
1629637746.868,38
1629637746.901,38
1629637746.968,37
1629637747.001,37
1629637747.068,38
1629637747.101,38
1629637747.168,42
1629637747.201,37
1629637747.268,35
1629637747.301,35
1629637747.368,38
1629637747.401,40
1629637747.468,40
1629637747.501,39
1629637747.568,36
1629637747.601,36
1629637747.668,36
1629637747.701,32
1629637747.768,33
1629637747.801,36
1629637747.868,34
1629637747.901,28
1629637747.968,31
1629637748.001,31
1629637748.068,34
1629637748.101,33
1629637748.168,33
1629637748.201,31
1629637748.268,36
1629637748.301,32
1629637748.368,30
1629637748.401,32
1629637748.468,31
1629637748.501,30
1629637748.568,31
1629637748.601,30
1629637748.668,30
1629637748.701,32
1629637748.768,36
1629637748.801,37
1629637748.868,33
1629637748.901,34
1629637748.968,34
1629637749.001,36
1629637749.068,35
1629637749.101,40
1629637749.168,38
1629637749.201,40
1629637749.268,38
1629637749.301,36
1629637749.368,36
1629637749.401,38
1629637749.468,34
1629637749.501,33
1629637749.568,35
1629637749.601,36
1629637749.668,41
1629637749.701,37
1629637749.768,36
1629637749.801,37
1629637749.868,36
1629637749.901,35
1629637749.968,35
1629637750.001,36
1629637750.068,36
1629637750.101,40
1629637750.168,39
1629637750.201,41
1629637750.268,36
1629637750.301,36
1629637750.368,40
1629637750.401,37
1629637750.467,33
1629637750.501,32
1629637750.567,32
1629637750.601,34
1629637750.667,31
1629637750.701,33
1629637750.767,31
1629637750.801,36
1629637750.867,39
1629637750.901,39
1629637750.967,37
1629637751.001,35
1629637751.067,30
1629637751.101,37
1629637751.167,30
1629637751.201,32
1629637751.267,33
1629637751.301,33
1629637751.367,31
1629637751.401,29
1629637751.467,32
1629637751.501,32
1629637751.567,29
1629637751.601,32
1629637751.667,36
1629637751.701,37
1629637751.767,33
1629637751.801,36
1629637751.867,31
1629637751.901,30
1629637751.967,29
1629637752.001,30
1629637752.067,29
1629637752.101,30
1629637752.167,30
1629637752.201,32
1629637752.267,32
1629637752.301,34
1629637752.367,36
1629637752.401,37
1629637752.467,35
1629637752.501,37
1629637752.567,36
1629637752.601,34
1629637752.667,34
1629637752.701,33
1629637752.767,34
1629637752.801,35
1629637752.867,37
1629637752.901,36
1629637752.967,36
1629637753.001,39
1629637753.067,39
1629637753.101,37
1629637753.167,34
1629637753.2,36
1629637753.267,39
1629637753.3,38
1629637753.367,41
1629637753.4,40
1629637753.467,38
1629637753.5,39
1629637753.567,39
1629637753.6,38
1629637753.667,40
1629637753.7,41
1629637753.767,41
1629637753.8,40
1629637753.867,41
1629637753.9,39
1629637753.967,41
1629637754.0,41
1629637754.067,42
1629637754.1,37
1629637754.167,42
1629637754.2,44
1629637754.267,43
1629637754.3,39
1629637754.367,35
1629637754.4,40
1629637754.467,43
1629637754.5,40
1629637754.567,40
1629637754.6,38
1629637754.667,38
1629637754.7,38
1629637754.767,41
1629637754.8,40
1629637754.867,40
1629637754.9,41
1629637754.967,46
1629637755.0,45
1629637755.067,42
1629637755.1,40
1629637755.167,39
1629637755.2,40
1629637755.267,44
1629637755.3,39
1629637755.367,37
1629637755.4,40
1629637755.467,42
1629637755.5,39
1629637755.567,40
1629637755.6,38
1629637755.667,38
1629637755.7,38
1629637755.767,38
1629637755.8,36
1629637755.867,34
1629637755.9,37
1629637755.967,36
1629637756.0,36
1629637756.067,40
1629637756.1,36
1629637756.167,38
1629637756.2,40
1629637756.267,38
1629637756.3,34
1629637756.367,34
1629637756.4,39
1629637756.467,31
1629637756.5,32
1629637756.567,34
1629637756.6,36
1629637756.667,36
1629637756.7,37
1629637756.767,37
1629637756.8,40
1629637756.867,43
1629637756.9,42
1629637756.967,42
1629637757.0,39
1629637757.067,37
1629637757.1,35
1629637757.167,37
1629637757.2,39
1629637757.267,39
1629637757.3,39
1629637757.367,37
1629637757.4,36
1629637757.467,36
1629637757.5,38
1629637757.567,37
1629637757.6,40
1629637757.667,43
1629637757.7,46
1629637757.767,46
1629637757.8,43
1629637757.867,44
1629637757.9,46
1629637757.967,43
1629637758.0,41
1629637758.067,39
1629637758.1,39
1629637758.167,37
1629637758.2,43
1629637758.267,42
1629637758.3,41
1629637758.367,42
1629637758.4,40
1629637758.467,39
1629637758.5,42
1629637758.567,40
1629637758.6,38
1629637758.667,37
1629637758.7,40
1629637758.767,37
1629637758.8,36
1629637758.867,40
1629637758.9,39
1629637758.967,35
1629637759.0,35
1629637759.067,34
1629637759.1,37
1629637759.167,35
1629637759.2,35
1629637759.267,31
1629637759.3,34
1629637759.367,34
1629637759.4,40
1629637759.467,42
1629637759.5,40
1629637759.567,38
1629637759.6,36
1629637759.667,33
1629637759.7,37
1629637759.766,35
1629637759.8,37
1629637759.866,38
1629637759.9,39
1629637759.966,41
1629637760.0,40
1629637760.066,40
1629637760.1,39
1629637760.166,39
1629637760.2,40
1629637760.266,42
1629637760.3,43
1629637760.366,44
1629637760.4,42
1629637760.466,40
1629637760.5,38
1629637760.566,37
1629637760.6,38
1629637760.666,38
1629637760.7,38
1629637760.766,40
1629637760.8,40
1629637760.866,44
1629637760.9,41
1629637760.966,38
1629637761.0,38
1629637761.066,40
1629637761.1,38
1629637761.166,37
1629637761.2,38
1629637761.266,42
1629637761.3,41
1629637761.366,42
1629637761.4,40
1629637761.466,40
1629637761.5,39
1629637761.566,41
1629637761.6,39
1629637761.666,38
1629637761.7,34
1629637761.766,33
1629637761.8,32
1629637761.866,33
1629637761.9,31
1629637761.966,35
1629637761.999,35
1629637762.066,38
1629637762.099,36
1629637762.166,33
1629637762.199,33
1629637762.266,35
1629637762.299,38
1629637762.366,40
1629637762.399,39
1629637762.466,39
1629637762.499,39
1629637762.566,39
1629637762.599,37
1629637762.666,35
1629637762.699,34
1629637762.766,34
1629637762.799,34
1629637762.866,37
1629637762.899,36
1629637762.966,37
1629637762.999,34
1629637763.066,33
1629637763.099,30
1629637763.166,32
1629637763.199,33
1629637763.266,34
1629637763.299,35
1629637763.366,34
1629637763.399,33
1629637763.466,33
1629637763.499,39
1629637763.566,39
1629637763.599,41
1629637763.666,37
1629637763.699,36
1629637763.766,41
1629637763.799,43
1629637763.866,38
1629637763.899,39
1629637763.966,40
1629637763.999,39
1629637764.066,38
1629637764.099,40
1629637764.166,37
1629637764.199,37
1629637764.266,42
1629637764.299,42
1629637764.366,40
1629637764.399,38
1629637764.466,38
1629637764.499,37
1629637764.566,37
1629637764.599,39
1629637764.666,36
1629637764.699,38
1629637764.766,37
1629637764.799,37
1629637764.866,38
1629637764.899,38
1629637764.966,37
1629637764.999,38
1629637765.066,42
1629637765.099,40
1629637765.166,40
1629637765.199,36
1629637765.266,27
1629637765.299,26
1629637765.366,29
1629637765.399,32
1629637765.466,31
1629637765.499,29
1629637765.566,26
1629637765.599,26
1629637765.666,25
1629637765.699,28
1629637765.766,29
1629637765.799,28
1629637765.866,30
1629637765.899,30
1629637765.966,28
1629637765.999,26
1629637766.066,26
1629637766.099,27
1629637766.166,30
1629637766.199,33
1629637766.266,28
1629637766.299,35
1629637766.366,35
1629637766.399,36
1629637766.466,38
1629637766.499,36
1629637766.566,36
1629637766.599,36
1629637766.666,36
1629637766.699,40
1629637766.766,37
1629637766.799,37
1629637766.866,38
1629637766.899,40
1629637766.966,38
1629637766.999,35
1629637767.066,39
1629637767.099,37
1629637767.166,39
1629637767.199,40
1629637767.266,41
1629637767.299,39
1629637767.366,36
1629637767.399,39
1629637767.466,38
1629637767.499,39
1629637767.566,39
1629637767.599,41
1629637767.666,37
1629637767.699,36
1629637767.766,37
1629637767.799,39
1629637767.866,40
1629637767.899,41
1629637767.966,38
1629637767.999,38
1629637768.066,39
1629637768.099,38
1629637768.166,39
1629637768.199,42
1629637768.266,42
1629637768.299,40
1629637768.366,36
1629637768.399,36
1629637768.466,37
1629637768.499,32
1629637768.566,31
1629637768.599,33
1629637768.666,34
1629637768.699,34
1629637768.766,34
1629637768.799,36
1629637768.865,35
1629637768.899,29
1629637768.965,34
1629637768.999,34
1629637769.065,38
1629637769.099,31
1629637769.165,33
1629637769.199,32
1629637769.265,32
1629637769.299,33
1629637769.365,30
1629637769.399,29
1629637769.465,28
1629637769.499,31
1629637769.565,36
1629637769.599,36
1629637769.665,33
1629637769.699,33
1629637769.765,37
1629637769.799,36
1629637769.865,39
1629637769.899,37
1629637769.965,37
1629637769.999,38
1629637770.065,38
1629637770.099,37
1629637770.165,40
1629637770.199,37
1629637770.265,34
1629637770.299,39
1629637770.365,38
1629637770.399,37
1629637770.465,41
1629637770.499,40
1629637770.565,39
1629637770.599,38
1629637770.665,37
1629637770.699,39
1629637770.765,39
1629637770.799,39
1629637770.865,39
1629637770.899,38
1629637770.965,37
1629637770.999,38
1629637771.065,39
1629637771.099,38
1629637771.165,38
1629637771.199,35
1629637771.265,36
1629637771.299,34
1629637771.365,39
1629637771.399,36
1629637771.465,38
1629637771.499,37
1629637771.565,37
1629637771.599,37
1629637771.665,40
1629637771.699,36
1629637771.765,39
1629637771.799,40
1629637771.865,39
1629637771.899,39
1629637771.965,31
1629637771.999,31
1629637772.065,34
1629637772.099,31
1629637772.165,29
1629637772.199,29
1629637772.265,32
1629637772.299,36
1629637772.365,32
1629637772.399,31
1629637772.465,35
1629637772.499,32
1629637772.565,31
1629637772.599,29
1629637772.665,29
1629637772.699,31
1629637772.765,29
1629637772.799,28
1629637772.865,29
1629637772.899,30
1629637772.965,30
1629637772.999,31
1629637773.065,32
1629637773.099,36
1629637773.165,36
1629637773.199,36
1629637773.265,34
1629637773.299,35
1629637773.365,33
1629637773.399,39
1629637773.465,36
1629637773.499,34
1629637773.565,33
1629637773.599,31
1629637773.665,31
1629637773.699,31
1629637773.765,34
1629637773.799,36
1629637773.865,33
1629637773.899,34
1629637773.965,32
1629637773.999,34
1629637774.065,34
1629637774.099,32
1629637774.165,30
1629637774.199,36
1629637774.265,35
1629637774.299,36
1629637774.365,39
1629637774.399,39
1629637774.465,39
1629637774.499,39
1629637774.565,40
1629637774.599,41
1629637774.665,35
1629637774.699,34
1629637774.765,34
1629637774.799,37
1629637774.865,36
1629637774.899,39
1629637774.965,36
1629637774.999,37
1629637775.065,39
1629637775.099,42
1629637775.165,41
1629637775.198,43
1629637775.265,42
1629637775.298,40
1629637775.365,41
1629637775.398,42
1629637775.465,40
1629637775.498,41
1629637775.565,38
1629637775.598,39
1629637775.665,41
1629637775.698,41
1629637775.765,38
1629637775.798,38
1629637775.865,40
1629637775.898,40
1629637775.965,41
1629637775.998,39
1629637776.065,37
1629637776.098,31
1629637776.165,30
1629637776.198,27
1629637776.265,28
1629637776.298,28
1629637776.365,23
1629637776.398,25
1629637776.465,27
1629637776.498,28
1629637776.565,32
1629637776.598,33
1629637776.665,31
1629637776.698,31
1629637776.765,35
1629637776.798,35
1629637776.865,35
1629637776.898,36
1629637776.965,31
1629637776.998,21
1629637777.065,21
1629637777.098,23
1629637777.165,30
1629637777.198,36
1629637777.265,33
1629637777.298,34
1629637777.365,29
1629637777.398,29
1629637777.465,29
1629637777.498,30
1629637777.565,34
1629637777.598,37
1629637777.665,34
1629637777.698,35
1629637777.765,38
1629637777.798,34
1629637777.865,37
1629637777.898,37
1629637777.965,35
1629637777.998,36
1629637778.065,36
1629637778.098,25
1629637778.165,17
1629637778.198,28
1629637778.265,28
1629637778.298,25
1629637778.365,26
1629637778.398,27
1629637778.465,31
1629637778.498,31
1629637778.565,29
1629637778.598,29
1629637778.665,36
1629637778.698,37
1629637778.765,37
1629637778.798,34
1629637778.865,35
1629637778.898,32
1629637778.965,34
1629637778.998,33
1629637779.065,32
1629637779.098,33
1629637779.165,33
1629637779.198,33
1629637779.265,35
1629637779.298,36
1629637779.365,38
1629637779.398,42
1629637779.465,37
1629637779.498,38
1629637779.565,32
1629637779.598,40
1629637779.665,39
1629637779.698,38
1629637779.765,36
1629637779.798,39
1629637779.865,38
1629637779.898,39
1629637779.965,38
1629637779.998,39
1629637780.065,41
1629637780.098,41
1629637780.165,40
1629637780.198,35
1629637780.265,41
1629637780.298,41
1629637780.365,38
1629637780.398,38
1629637780.465,40
1629637780.498,38
1629637780.565,41
1629637780.598,32
1629637780.665,35
1629637780.698,35
1629637780.765,35
1629637780.798,33
1629637780.865,30
1629637780.898,34
1629637780.965,36
1629637780.998,40
1629637781.065,36
1629637781.098,30
1629637781.165,30
1629637781.198,31
1629637781.265,36
1629637781.298,34
1629637781.365,34
1629637781.398,33
1629637781.465,35
1629637781.498,37
1629637781.565,38
1629637781.598,35
1629637781.664,36
1629637781.698,39
1629637781.764,36
1629637781.798,34
1629637781.864,38
1629637781.898,36
1629637781.964,39
1629637781.998,41
1629637782.064,38
1629637782.098,38
1629637782.164,37
1629637782.198,40
1629637782.264,44
1629637782.298,39
1629637782.364,37
1629637782.398,37
1629637782.464,41
1629637782.498,39
1629637782.564,38
1629637782.598,37
1629637782.664,32
1629637782.698,34
1629637782.764,36
1629637782.798,37
1629637782.864,37
1629637782.898,39
1629637782.964,38
1629637782.998,33
1629637783.064,31
1629637783.098,36
1629637783.164,39
1629637783.198,43
1629637783.264,40
1629637783.298,38
1629637783.364,37
1629637783.398,35
1629637783.464,37
1629637783.498,36
1629637783.564,36
1629637783.598,38
1629637783.664,39
1629637783.698,37
1629637783.764,39
1629637783.798,39
1629637783.864,39
1629637783.898,39
1629637783.964,40
1629637783.998,40
1629637784.064,35
1629637784.098,38
1629637784.164,40
1629637784.198,39
1629637784.264,40
1629637784.298,38
1629637784.364,37
1629637784.398,38
1629637784.464,36
1629637784.498,34
1629637784.564,32
1629637784.598,35
1629637784.664,37
1629637784.698,36
1629637784.764,33
1629637784.797,34
1629637784.864,34
1629637784.897,35
1629637784.964,34
1629637784.997,33
1629637785.064,32
1629637785.097,32
1629637785.164,26
1629637785.197,27
1629637785.264,30
1629637785.297,24
1629637785.364,29
1629637785.397,31
1629637785.464,31
1629637785.497,28
1629637785.564,27
1629637785.597,27
1629637785.664,31
1629637785.697,35
1629637785.764,37
1629637785.797,35
1629637785.864,34
1629637785.897,38
1629637785.964,32
1629637785.997,29
1629637786.064,32
1629637786.097,33
1629637786.164,33
1629637786.197,30
1629637786.264,28
1629637786.297,29
1629637786.364,28
1629637786.397,30
1629637786.464,28
1629637786.497,30
1629637786.564,31
1629637786.597,31
1629637786.664,28
1629637786.697,31
1629637786.764,32
1629637786.797,26
1629637786.864,26
1629637786.897,25
1629637786.964,26
1629637786.997,26
1629637787.064,26
1629637787.097,33
1629637787.164,32
1629637787.197,35
1629637787.264,36
1629637787.297,34
1629637787.364,31
1629637787.397,28
1629637787.464,31
1629637787.497,31
1629637787.563,29
1629637787.597,25
1629637787.663,25
1629637787.697,29
1629637787.763,31
1629637787.797,28
1629637787.863,24
1629637787.897,24
1629637787.963,29
1629637787.997,25
1629637788.064,24
1629637788.097,25
1629637788.164,31
1629637788.197,30
1629637788.264,30
1629637788.297,31
1629637788.364,34
1629637788.397,36
1629637788.464,38
1629637788.497,36
1629637788.564,33
1629637788.597,30
1629637788.664,29
1629637788.697,31
1629637788.764,34
1629637788.797,35
1629637788.863,39
1629637788.897,35
1629637788.963,32
1629637788.997,30
1629637789.063,30
1629637789.097,30
1629637789.163,24
1629637789.197,27
1629637789.263,28
1629637789.297,25
1629637789.363,31
1629637789.397,29
1629637789.463,31
1629637789.497,29
1629637789.564,31
1629637789.597,30
1629637789.664,34
1629637789.697,33
1629637789.764,33
1629637789.797,33
1629637789.864,37
1629637789.897,36
1629637789.964,37
1629637789.997,38
1629637790.064,42
1629637790.097,43
1629637790.164,45
1629637790.197,39
1629637790.264,32
1629637790.297,32
1629637790.363,34
1629637790.397,36
1629637790.463,36
1629637790.497,33
1629637790.563,30
1629637790.597,32
1629637790.663,35
1629637790.697,31
1629637790.763,25
1629637790.797,26
1629637790.863,32
1629637790.897,31
1629637790.963,28
1629637790.997,30
1629637791.063,30
1629637791.097,29
1629637791.163,34
1629637791.197,33
1629637791.263,32
1629637791.297,30
1629637791.363,30
1629637791.397,33
1629637791.463,38
1629637791.497,38
1629637791.563,34
1629637791.597,31
1629637791.663,30
1629637791.697,32
1629637791.763,31
1629637791.797,33
1629637791.863,37
1629637791.897,38
1629637791.963,34
1629637791.997,35
1629637792.063,37
1629637792.097,34
1629637792.163,31
1629637792.197,31
1629637792.263,39
1629637792.297,41
1629637792.363,36
1629637792.397,39
1629637792.463,36
1629637792.497,34
1629637792.563,35
1629637792.597,35
1629637792.663,35
1629637792.697,39
1629637792.763,40
1629637792.797,39
1629637792.863,39
1629637792.897,38
1629637792.963,39
1629637792.997,37
1629637793.063,40
1629637793.097,40
1629637793.163,38
1629637793.197,36
1629637793.263,41
1629637793.297,39
1629637793.363,42
1629637793.397,42
1629637793.463,41
1629637793.497,39
1629637793.563,42
1629637793.596,41
1629637793.663,38
1629637793.696,37
1629637793.763,40
1629637793.796,41
1629637793.863,44
1629637793.896,45
1629637793.963,43
1629637793.996,42
1629637794.063,44
1629637794.096,45
1629637794.163,46
1629637794.196,44
1629637794.263,43
1629637794.296,46
1629637794.363,48
1629637794.396,31
1629637794.463,26
1629637794.496,32
1629637794.563,36
1629637794.596,37
1629637794.663,39
1629637794.696,40
1629637794.763,45
1629637794.796,46
1629637794.863,46
1629637794.896,45
1629637794.963,43
1629637794.996,40
1629637795.063,43
1629637795.096,44
1629637795.163,42
1629637795.196,42
1629637795.263,41
1629637795.296,40
1629637795.363,40
1629637795.396,41
1629637795.463,38
1629637795.496,43
1629637795.563,48
1629637795.596,43
1629637795.663,40
1629637795.696,42
1629637795.763,40
1629637795.796,40
1629637795.863,40
1629637795.896,41
1629637795.963,45
1629637795.996,45
1629637796.063,43
1629637796.096,39
1629637796.163,38
1629637796.196,36
1629637796.263,37
1629637796.296,38
1629637796.363,41
1629637796.396,38
1629637796.463,43
1629637796.496,42
1629637796.563,41
1629637796.596,43
1629637796.663,44
1629637796.696,42
1629637796.763,39
1629637796.796,40
1629637796.863,38
1629637796.896,42
1629637796.963,41
1629637796.996,38
1629637797.063,41
1629637797.096,41
1629637797.163,43
1629637797.196,43
1629637797.263,45
1629637797.296,44
1629637797.363,44
1629637797.396,46
1629637797.463,45
1629637797.496,44
1629637797.563,45
1629637797.596,43
1629637797.663,47
1629637797.696,48
1629637797.763,45
1629637797.796,46
1629637797.863,45
1629637797.896,44
1629637797.963,44
1629637797.996,45
1629637798.063,46
1629637798.096,44
1629637798.163,45
1629637798.196,45
1629637798.263,47
1629637798.296,46
1629637798.363,45
1629637798.396,45
1629637798.463,44
1629637798.496,44
1629637798.563,46
1629637798.596,46
1629637798.663,48
1629637798.696,46
1629637798.763,41
1629637798.796,48
1629637798.863,44
1629637798.896,47
1629637798.963,46
1629637798.996,44
1629637799.063,42
1629637799.096,44
1629637799.163,42
1629637799.196,43
1629637799.263,38
1629637799.296,39
1629637799.363,38
1629637799.396,40
1629637799.463,41
1629637799.496,35
1629637799.563,39
1629637799.596,36
1629637799.663,39
1629637799.696,36
1629637799.763,33
1629637799.796,28
1629637799.863,39
1629637799.896,38
1629637799.962,41
1629637799.996,40
1629637800.062,40
1629637800.096,32
1629637800.162,40
1629637800.196,38
1629637800.262,40
1629637800.296,37
1629637800.362,36
1629637800.396,23
1629637800.462,36
1629637800.496,35
1629637800.562,38
1629637800.596,31
1629637800.662,35
1629637800.696,39
1629637800.762,40
1629637800.796,43
1629637800.862,40
1629637800.896,40
1629637800.962,41
1629637800.996,38
1629637801.062,41
1629637801.096,39
1629637801.162,40
1629637801.196,35
1629637801.262,43
1629637801.296,44
1629637801.362,44
1629637801.396,42
1629637801.462,47
1629637801.496,48
1629637801.562,41
1629637801.596,45
1629637801.662,43
1629637801.696,42
1629637801.762,47
1629637801.796,43
1629637801.862,42
1629637801.896,41
1629637801.962,43
1629637801.995,47
1629637802.062,46
1629637802.095,45
1629637802.162,47
1629637802.195,45
1629637802.262,45
1629637802.295,43
1629637802.362,43
1629637802.395,44
1629637802.462,41
1629637802.495,42
1629637802.562,45
1629637802.595,44
1629637802.662,40
1629637802.695,40
1629637802.762,42
1629637802.795,42
1629637802.862,41
1629637802.895,44
1629637802.962,40
1629637802.995,40
1629637803.062,40
1629637803.095,41
1629637803.162,39
1629637803.195,39
1629637803.262,41
1629637803.295,42
1629637803.362,44
1629637803.395,45
1629637803.462,41
1629637803.495,39
1629637803.562,38
1629637803.595,39
1629637803.662,40
1629637803.695,42
1629637803.762,37
1629637803.795,39
1629637803.862,39
1629637803.895,38
1629637803.962,37
1629637803.995,41
1629637804.062,43
1629637804.095,41
1629637804.162,44
1629637804.195,40
1629637804.262,37
1629637804.295,37
1629637804.362,38
1629637804.395,38
1629637804.462,40
1629637804.495,40
1629637804.562,37
1629637804.595,39
1629637804.662,41
1629637804.695,41
1629637804.762,42
1629637804.795,42
1629637804.862,41
1629637804.895,39
1629637804.962,35
1629637804.995,34
1629637805.062,36
1629637805.095,41
1629637805.162,44
1629637805.195,43
1629637805.262,44
1629637805.295,42
1629637805.362,42
1629637805.395,43
1629637805.462,40
1629637805.495,42
1629637805.562,42
1629637805.595,41
1629637805.662,42
1629637805.695,43
1629637805.762,41
1629637805.795,42
1629637805.862,42
1629637805.895,41
1629637805.962,41
1629637805.995,44
1629637806.062,44
1629637806.095,42
1629637806.162,42
1629637806.195,43
1629637806.262,44
1629637806.295,43
1629637806.362,44
1629637806.395,46
1629637806.462,43
1629637806.495,45
1629637806.562,45
1629637806.595,44
1629637806.662,46
1629637806.695,47
1629637806.762,48
1629637806.795,47
1629637806.862,47
1629637806.895,40
1629637806.962,44
1629637806.995,43
1629637807.062,41
1629637807.095,45
1629637807.162,46
1629637807.195,47
1629637807.262,44
1629637807.295,45
1629637807.362,46
1629637807.395,46
1629637807.462,46
1629637807.495,45
1629637807.562,39
1629637807.595,39
1629637807.661,41
1629637807.695,44
1629637807.761,44
1629637807.795,46
1629637807.861,46
1629637807.895,46
1629637807.961,47
1629637807.995,46
1629637808.061,45
1629637808.095,43
1629637808.161,46
1629637808.195,45
1629637808.261,47
1629637808.295,42
1629637808.361,43
1629637808.395,44
1629637808.461,43
1629637808.495,45
1629637808.561,45
1629637808.595,44
1629637808.661,46
1629637808.695,45
1629637808.761,44
1629637808.795,40
1629637808.861,37
1629637808.895,35
1629637808.961,38
1629637808.995,39
1629637809.061,38
1629637809.095,38
1629637809.161,36
1629637809.195,39
1629637809.261,41
1629637809.295,45
1629637809.361,40
1629637809.395,41
1629637809.461,38
1629637809.495,41
1629637809.561,40
1629637809.595,39
1629637809.661,44
1629637809.695,45
1629637809.761,44
1629637809.795,44
1629637809.861,40
1629637809.895,45
1629637809.961,44
1629637809.995,40
1629637810.061,37
1629637810.095,44
1629637810.161,42
1629637810.195,44
1629637810.261,44
1629637810.294,43
1629637810.361,46
1629637810.394,45
1629637810.461,41
1629637810.494,41
1629637810.561,42
1629637810.594,41
1629637810.661,38
1629637810.694,36
1629637810.761,40
1629637810.794,40
1629637810.861,37
1629637810.894,36
1629637810.961,38
1629637810.994,39
1629637811.061,40
1629637811.094,39
1629637811.161,40
1629637811.194,44
1629637811.261,43
1629637811.294,42
1629637811.361,37
1629637811.394,35
1629637811.461,34
1629637811.494,31
1629637811.561,34
1629637811.594,41
1629637811.661,42
1629637811.694,42
1629637811.761,44
1629637811.794,36
1629637811.861,37
1629637811.894,44
1629637811.961,39
1629637811.994,40
1629637812.061,40
1629637812.094,42
1629637812.161,41
1629637812.194,41
1629637812.261,42
1629637812.294,43
1629637812.361,40
1629637812.394,39
1629637812.461,40
1629637812.494,42
1629637812.561,39
1629637812.594,36
1629637812.661,36
1629637812.694,37
1629637812.761,41
1629637812.794,41
1629637812.861,43
1629637812.894,42
1629637812.961,42
1629637812.994,41
1629637813.061,43
1629637813.094,44
1629637813.161,44
1629637813.194,36
1629637813.261,37
1629637813.294,44
1629637813.361,45
1629637813.394,46
1629637813.461,46
1629637813.494,43
1629637813.561,44
1629637813.594,43
1629637813.661,44
1629637813.694,37
1629637813.761,41
1629637813.794,40
1629637813.861,40
1629637813.894,41
1629637813.961,40
1629637813.994,43
1629637814.061,45
1629637814.094,45
1629637814.161,42
1629637814.194,43
1629637814.261,42
1629637814.294,42
1629637814.361,44
1629637814.394,46
1629637814.461,46
1629637814.494,44
1629637814.561,39
1629637814.594,40
1629637814.661,37
1629637814.694,40
1629637814.761,42
1629637814.794,44
1629637814.861,44
1629637814.894,43
1629637814.961,46
1629637814.994,44
1629637815.061,40
1629637815.094,43
1629637815.161,43
1629637815.194,41
1629637815.261,45
1629637815.294,46
1629637815.361,45
1629637815.394,43
1629637815.461,45
1629637815.494,44
1629637815.561,46
1629637815.594,43
1629637815.661,44
1629637815.694,42
1629637815.761,37
1629637815.794,43
1629637815.861,42
1629637815.894,41
1629637815.96,41
1629637815.994,41
1629637816.06,42
1629637816.094,42
1629637816.16,43
1629637816.194,42
1629637816.26,42
1629637816.294,43
1629637816.36,39
1629637816.394,42
1629637816.46,42
1629637816.494,43
1629637816.56,39
1629637816.594,39
1629637816.66,45
1629637816.694,42
1629637816.76,39
1629637816.794,41
1629637816.86,41
1629637816.894,43
1629637816.96,41
1629637816.994,43
1629637817.06,44
1629637817.094,42
1629637817.16,40
1629637817.194,41
1629637817.26,42
1629637817.294,42
1629637817.36,42
1629637817.394,36
1629637817.46,38
1629637817.494,40
1629637817.56,39
1629637817.594,40
1629637817.66,41
1629637817.694,41
1629637817.76,40
1629637817.794,43
1629637817.86,43
1629637817.894,42
1629637817.96,43
1629637817.994,42
1629637818.06,42
1629637818.094,42
1629637818.16,42
1629637818.194,40
1629637818.26,41
1629637818.294,40
1629637818.36,45
1629637818.394,44
1629637818.46,43
1629637818.494,46
1629637818.56,44
1629637818.593,42
1629637818.66,40
1629637818.693,43
1629637818.76,46
1629637818.793,43
1629637818.86,42
1629637818.893,45
1629637818.96,46
1629637818.993,41
1629637819.06,42
1629637819.093,45
1629637819.16,41
1629637819.193,42
1629637819.26,45
1629637819.293,46
1629637819.36,46
1629637819.393,44
1629637819.46,43
1629637819.493,40
1629637819.56,43
1629637819.593,41
1629637819.66,38
1629637819.693,40
1629637819.76,40
1629637819.793,39
1629637819.86,40
1629637819.893,41
1629637819.96,40
1629637819.993,36
1629637820.06,37
1629637820.093,42
1629637820.16,41
1629637820.193,38
1629637820.26,38
1629637820.293,36
1629637820.36,37
1629637820.393,33
1629637820.46,36
1629637820.493,38
1629637820.56,33
1629637820.593,36
1629637820.66,39
1629637820.693,38
1629637820.76,38
1629637820.793,39
1629637820.86,40
1629637820.893,39
1629637820.96,37
1629637820.993,35
1629637821.06,24
1629637821.093,21
1629637821.16,28
1629637821.193,32
1629637821.26,34
1629637821.293,36
1629637821.36,34
1629637821.393,31
1629637821.46,34
1629637821.493,36
1629637821.56,37
1629637821.593,36
1629637821.66,32
1629637821.693,31
1629637821.76,32
1629637821.793,28
1629637821.86,33
1629637821.893,32
1629637821.96,29
1629637821.993,30
1629637822.06,32
1629637822.093,28
1629637822.16,32
1629637822.193,29
1629637822.26,29
1629637822.293,31
1629637822.36,37
1629637822.393,38
1629637822.46,38
1629637822.493,40
1629637822.56,39
1629637822.593,40
1629637822.66,39
1629637822.693,38
1629637822.76,37
1629637822.793,38
1629637822.86,40
1629637822.893,42
1629637822.96,37
1629637822.993,32
1629637823.06,35
1629637823.093,35
1629637823.16,35
1629637823.193,35
1629637823.26,35
1629637823.293,36
1629637823.359,38
1629637823.393,36
1629637823.459,34
1629637823.493,37
1629637823.559,36
1629637823.593,36
1629637823.659,31
1629637823.693,31
1629637823.759,38
1629637823.793,37
1629637823.859,35
1629637823.893,35
1629637823.959,33
1629637823.993,32
1629637824.059,30
1629637824.093,25
1629637824.159,33
1629637824.193,31
1629637824.259,30
1629637824.293,35
1629637824.359,32
1629637824.393,32
1629637824.459,34
1629637824.493,33
1629637824.559,36
1629637824.593,34
1629637824.659,31
1629637824.693,32
1629637824.759,30
1629637824.793,31
1629637824.859,34
1629637824.893,37
1629637824.959,39
1629637824.993,39
1629637825.059,41
1629637825.093,41
1629637825.159,36
1629637825.193,34
1629637825.259,32
1629637825.293,32
1629637825.359,32
1629637825.392,36
1629637825.459,37
1629637825.492,40
1629637825.559,38
1629637825.593,36
1629637825.659,37
1629637825.693,36
1629637825.759,37
1629637825.793,34
1629637825.859,35
1629637825.892,36
1629637825.959,38
1629637825.992,39
1629637826.059,40
1629637826.092,39
1629637826.159,36
1629637826.192,37
1629637826.259,41
1629637826.292,39
1629637826.359,43
1629637826.392,41
1629637826.459,41
1629637826.492,44
1629637826.559,44
1629637826.592,44
1629637826.659,41
1629637826.692,41
1629637826.759,37
1629637826.792,36
1629637826.859,36
1629637826.892,37
1629637826.959,38
1629637826.992,39
1629637827.059,41
1629637827.092,41
1629637827.159,39
1629637827.192,37
1629637827.259,41
1629637827.292,41
1629637827.359,41
1629637827.392,42
1629637827.459,39
1629637827.492,38
1629637827.559,37
1629637827.592,39
1629637827.659,43
1629637827.692,42
1629637827.759,44
1629637827.792,46
1629637827.859,44
1629637827.892,40
1629637827.959,42
1629637827.992,41
1629637828.059,43
1629637828.092,42
1629637828.159,43
1629637828.192,41
1629637828.259,36
1629637828.292,35
1629637828.359,37
1629637828.392,39
1629637828.459,39
1629637828.492,43
1629637828.559,42
1629637828.592,40
1629637828.659,42
1629637828.692,43
1629637828.759,41
1629637828.792,38
1629637828.859,39
1629637828.892,39
1629637828.959,43
1629637828.992,44
1629637829.059,42
1629637829.092,45
1629637829.159,47
1629637829.192,45
1629637829.259,48
1629637829.292,49
1629637829.359,48
1629637829.392,48
1629637829.458,46
1629637829.492,46
1629637829.558,41
1629637829.592,42
1629637829.658,47
1629637829.692,46
1629637829.758,47
1629637829.792,47
1629637829.858,45
1629637829.892,46
1629637829.958,48
1629637829.992,47
1629637830.058,47
1629637830.092,47
1629637830.158,44
1629637830.192,45
1629637830.258,45
1629637830.292,43
1629637830.358,37
1629637830.392,39
1629637830.458,44
1629637830.492,42
1629637830.558,33
1629637830.592,27
1629637830.658,27
1629637830.692,24
1629637830.759,24
1629637830.792,26
1629637830.859,35
1629637830.892,33
1629637830.959,32
1629637830.992,30
1629637831.059,33
1629637831.092,31
1629637831.159,32
1629637831.192,31
1629637831.259,36
1629637831.292,36
1629637831.359,38
1629637831.392,36
1629637831.459,37
1629637831.492,37
1629637831.559,35
1629637831.592,36
1629637831.659,37
1629637831.692,38
1629637831.759,34
1629637831.792,36
1629637831.859,35
1629637831.892,36
1629637831.958,37
1629637831.992,42
1629637832.059,44
1629637832.092,42
1629637832.159,41
1629637832.192,40
1629637832.259,42
1629637832.292,40
1629637832.359,42
1629637832.392,41
1629637832.459,38
1629637832.492,37
1629637832.559,40
1629637832.592,39
1629637832.658,44
1629637832.692,41
1629637832.758,35
1629637832.792,38
1629637832.858,38
1629637832.892,36
1629637832.958,39
1629637832.992,42
1629637833.058,35
1629637833.092,35
1629637833.158,36
1629637833.192,37
1629637833.258,37
1629637833.292,39
1629637833.358,39
1629637833.392,36
1629637833.458,34
1629637833.492,36
1629637833.558,39
1629637833.592,38
1629637833.658,42
1629637833.692,41
1629637833.758,39
1629637833.792,37
1629637833.858,39
1629637833.892,40
1629637833.958,37
1629637833.992,40
1629637834.058,41
1629637834.092,41
1629637834.158,42
1629637834.192,41
1629637834.258,40
1629637834.292,42
1629637834.358,39
1629637834.392,38
1629637834.458,36
1629637834.492,33
1629637834.558,38
1629637834.592,38
1629637834.658,39
1629637834.692,39
1629637834.758,35
1629637834.792,34
1629637834.858,36
1629637834.892,34
1629637834.958,35
1629637834.992,34
1629637835.058,38
1629637835.092,34
1629637835.158,35
1629637835.192,39
1629637835.258,36
1629637835.292,34
1629637835.358,38
1629637835.392,41
1629637835.458,41
1629637835.492,39
1629637835.558,44
1629637835.592,44
1629637835.658,42
1629637835.691,38
1629637835.758,41
1629637835.791,43
1629637835.858,39
1629637835.891,39
1629637835.958,36
1629637835.991,36
1629637836.058,37
1629637836.091,34
1629637836.158,34
1629637836.191,34
1629637836.258,29
1629637836.291,30
1629637836.358,32
1629637836.391,31
1629637836.458,34
1629637836.491,32
1629637836.558,34
1629637836.591,39
1629637836.658,40
1629637836.691,34
1629637836.758,33
1629637836.791,26
1629637836.858,32
1629637836.891,36
1629637836.958,39
1629637836.991,35
1629637837.058,37
1629637837.091,34
1629637837.158,35
1629637837.191,38
1629637837.258,40
1629637837.291,36
1629637837.358,35
1629637837.391,38
1629637837.458,35
1629637837.491,37
1629637837.558,39
1629637837.591,37
1629637837.658,35
1629637837.691,34
1629637837.758,32
1629637837.791,28
1629637837.858,31
1629637837.891,35
1629637837.958,35
1629637837.991,37
1629637838.058,34
1629637838.091,34
1629637838.158,31
1629637838.191,30
1629637838.258,31
1629637838.291,37
1629637838.358,31
1629637838.391,33
1629637838.458,37
1629637838.491,38
1629637838.558,37
1629637838.591,35
1629637838.658,35
1629637838.691,38
1629637838.758,41
1629637838.791,39
1629637838.858,37
1629637838.891,34
1629637838.958,39
1629637838.991,40
1629637839.058,38
1629637839.091,40
1629637839.158,37
1629637839.191,39
1629637839.258,40
1629637839.291,38
1629637839.358,42
1629637839.391,43
1629637839.458,42
1629637839.491,44
1629637839.558,41
1629637839.591,43
1629637839.658,42
1629637839.691,35
1629637839.758,38
1629637839.791,39
1629637839.858,34
1629637839.891,34
1629637839.958,36
1629637839.991,35
1629637840.058,37
1629637840.091,36
1629637840.158,36
1629637840.191,39
1629637840.258,31
1629637840.291,38
1629637840.358,36
1629637840.391,41
1629637840.458,40
1629637840.491,37
1629637840.558,39
1629637840.591,40
1629637840.658,40
1629637840.691,42
1629637840.758,40
1629637840.791,40
1629637840.858,40
1629637840.891,39
1629637840.958,42
1629637840.991,43
1629637841.058,43
1629637841.091,41
1629637841.158,40
1629637841.191,40
1629637841.258,39
1629637841.291,41
1629637841.358,39
1629637841.391,41
1629637841.457,43
1629637841.491,40
1629637841.557,35
1629637841.591,33
1629637841.657,38
1629637841.691,35
1629637841.757,32
1629637841.791,32
1629637841.857,41
1629637841.891,40
1629637841.957,40
1629637841.991,38
1629637842.057,38
1629637842.091,37
1629637842.157,37
1629637842.191,34
1629637842.257,34
1629637842.291,36
1629637842.357,38
1629637842.391,37
1629637842.457,36
1629637842.491,35
1629637842.557,35
1629637842.591,36
1629637842.657,35
1629637842.691,34
1629637842.757,34
1629637842.791,35
1629637842.857,28
1629637842.891,37
1629637842.957,36
1629637842.991,43
1629637843.057,42
1629637843.091,35
1629637843.157,34
1629637843.191,32
1629637843.257,35
1629637843.291,38
1629637843.357,38
1629637843.391,36
1629637843.457,37
1629637843.491,42
1629637843.557,42
1629637843.591,40
1629637843.657,41
1629637843.691,39
1629637843.757,37
1629637843.791,37
1629637843.857,39
1629637843.891,36
1629637843.957,37
1629637843.99,41
1629637844.057,38
1629637844.09,37
1629637844.157,35
1629637844.19,34
1629637844.257,36
1629637844.29,35
1629637844.357,36
1629637844.39,37
1629637844.457,36
1629637844.49,37
1629637844.557,39
1629637844.59,35
1629637844.657,37
1629637844.69,37
1629637844.757,39
1629637844.79,38
1629637844.857,39
1629637844.89,40
1629637844.957,41
1629637844.99,35
1629637845.057,39
1629637845.09,39
1629637845.157,39
1629637845.19,39
1629637845.257,37
1629637845.29,39
1629637845.357,38
1629637845.39,42
1629637845.457,38
1629637845.49,44
1629637845.557,40
1629637845.59,40
1629637845.657,45
1629637845.69,45
1629637845.757,44
1629637845.79,39
1629637845.857,42
1629637845.89,42
1629637845.957,41
1629637845.99,41
1629637846.057,43
1629637846.09,42
1629637846.157,41
1629637846.19,39
1629637846.257,38
1629637846.29,39
1629637846.357,41
1629637846.39,41
1629637846.457,38
1629637846.49,39
1629637846.557,43
1629637846.59,46
1629637846.657,41
1629637846.69,35
1629637846.757,37
1629637846.79,39
1629637846.857,36
1629637846.89,29
1629637846.957,29
1629637846.99,30
1629637847.057,40
1629637847.09,42
1629637847.157,39
1629637847.19,40
1629637847.257,43
1629637847.29,42
1629637847.357,45
1629637847.39,42
1629637847.457,35
1629637847.49,39
1629637847.557,41
1629637847.59,42
1629637847.657,44
1629637847.69,41
1629637847.757,40
1629637847.79,41
1629637847.857,41
1629637847.89,41
1629637847.957,40
1629637847.99,42
1629637848.057,45
1629637848.09,46
1629637848.157,41
1629637848.19,40
1629637848.257,44
1629637848.29,41
1629637848.357,43
1629637848.39,40
1629637848.457,41
1629637848.49,42
1629637848.557,40
1629637848.59,42
1629637848.657,45
1629637848.69,46
1629637848.757,45
1629637848.79,40
1629637848.857,44
1629637848.89,43
1629637848.957,43
1629637848.99,38
1629637849.057,41
1629637849.09,43
1629637849.157,43
1629637849.19,41
1629637849.257,41
1629637849.29,45
1629637849.357,43
1629637849.39,42
1629637849.457,42
1629637849.49,42
1629637849.557,45
1629637849.59,40
1629637849.657,38
1629637849.69,41
1629637849.757,42
1629637849.79,45
1629637849.857,41
1629637849.89,40
1629637849.957,43
1629637849.99,43
1629637850.057,39
1629637850.09,38
1629637850.156,38
1629637850.19,39
1629637850.256,39
1629637850.29,38
1629637850.356,39
1629637850.39,39
1629637850.456,36
1629637850.49,37
1629637850.556,39
1629637850.59,36
1629637850.656,38
1629637850.69,40
1629637850.756,45
1629637850.79,39
1629637850.856,40
1629637850.89,37
1629637850.956,32
1629637850.99,32
1629637851.056,27
1629637851.09,29
1629637851.156,38
1629637851.19,34
1629637851.256,41
1629637851.29,38
1629637851.356,37
1629637851.39,39
1629637851.456,37
1629637851.49,34
1629637851.556,39
1629637851.59,40
1629637851.656,38
1629637851.69,37
1629637851.756,39
1629637851.79,35
1629637851.856,40
1629637851.89,41
1629637851.956,41
1629637851.99,40
1629637852.056,38
1629637852.09,35
1629637852.156,37
1629637852.19,40
1629637852.256,47
1629637852.29,44
1629637852.356,45
1629637852.39,40
1629637852.456,45
1629637852.49,44
1629637852.556,44
1629637852.59,45
1629637852.656,43
1629637852.69,42
1629637852.756,40
1629637852.79,39
1629637852.856,40
1629637852.89,45
1629637852.956,39
1629637852.99,36
1629637853.056,37
1629637853.09,44
1629637853.156,44
1629637853.189,44
1629637853.256,42
1629637853.289,41
1629637853.356,42
1629637853.389,43
1629637853.456,42
1629637853.489,43
1629637853.556,42
1629637853.589,42
1629637853.656,42
1629637853.689,42
1629637853.756,44
1629637853.789,46
1629637853.856,46
1629637853.889,44
1629637853.956,42
1629637853.989,39
1629637854.056,41
1629637854.089,44
1629637854.156,41
1629637854.189,44
1629637854.256,45
1629637854.289,45
1629637854.356,45
1629637854.389,47
1629637854.456,45
1629637854.489,45
1629637854.556,46
1629637854.589,47
1629637854.656,45
1629637854.689,44
1629637854.756,43
1629637854.789,46
1629637854.856,46
1629637854.889,43
1629637854.956,44
1629637854.989,46
1629637855.056,42
1629637855.089,43
1629637855.156,46
1629637855.189,44
1629637855.256,46
1629637855.289,48
1629637855.356,49
1629637855.389,50
1629637855.456,44
1629637855.489,41
1629637855.556,44
1629637855.589,44
1629637855.656,46
1629637855.689,45
1629637855.756,46
1629637855.789,45
1629637855.856,41
1629637855.889,41
1629637855.956,41
1629637855.989,41
1629637856.056,43
1629637856.089,42
1629637856.156,46
1629637856.189,43
1629637856.256,39
1629637856.289,38
1629637856.356,39
1629637856.389,42
1629637856.456,40
1629637856.489,37
1629637856.556,38
1629637856.589,33
1629637856.656,34
1629637856.689,34
1629637856.756,35
1629637856.789,33
1629637856.856,36
1629637856.889,36
1629637856.956,37
1629637856.989,39
1629637857.056,41
1629637857.089,38
1629637857.156,38
1629637857.189,34
1629637857.255,40
1629637857.289,36
1629637857.355,35
1629637857.389,33
1629637857.455,35
1629637857.489,34
1629637857.555,37
1629637857.589,35
1629637857.655,36
1629637857.689,36
1629637857.755,39
1629637857.789,38
1629637857.855,38
1629637857.889,42
1629637857.955,39
1629637857.989,38
1629637858.055,38
1629637858.088,40
1629637858.155,38
1629637858.188,39
1629637858.255,38
1629637858.288,42
1629637858.355,40
1629637858.388,39
1629637858.455,41
1629637858.488,37
1629637858.555,40
1629637858.588,39
1629637858.655,41
1629637858.688,43
1629637858.755,43
1629637858.788,43
1629637858.855,44
1629637858.888,45
1629637858.955,41
1629637858.988,40
1629637859.055,43
1629637859.088,42
1629637859.155,46
1629637859.188,43
1629637859.255,42
1629637859.288,46
1629637859.355,40
1629637859.388,37
1629637859.455,38
1629637859.488,38
1629637859.555,41
1629637859.588,40
1629637859.655,39
1629637859.688,39
1629637859.755,41
1629637859.788,37
1629637859.855,27
1629637859.888,26
1629637859.955,36
1629637859.988,38
1629637860.055,36
1629637860.088,38
1629637860.155,39
1629637860.188,41
1629637860.255,42
1629637860.288,39
1629637860.355,41
1629637860.388,43
1629637860.455,42
1629637860.488,44
1629637860.555,44
1629637860.588,42
1629637860.655,42
1629637860.688,41
1629637860.755,43
1629637860.788,39
1629637860.855,39
1629637860.888,46
1629637860.955,44
1629637860.988,43
1629637861.055,36
1629637861.088,36
1629637861.155,39
1629637861.188,40
1629637861.255,37
1629637861.288,35
1629637861.355,38
1629637861.388,39
1629637861.455,39
1629637861.488,36
1629637861.555,40
1629637861.588,40
1629637861.655,36
1629637861.688,38
1629637861.754,36
1629637861.788,34
1629637861.854,35
1629637861.888,37
1629637861.954,36
1629637861.988,33
1629637862.054,34
1629637862.088,36
1629637862.154,32
1629637862.188,30
1629637862.255,30
1629637862.288,32
1629637862.354,37
1629637862.388,37
1629637862.454,32
1629637862.488,29
1629637862.554,32
1629637862.588,35
1629637862.654,34
1629637862.688,36
1629637862.754,33
1629637862.788,30
1629637862.854,30
1629637862.888,27
1629637862.954,27
1629637862.988,33
1629637863.054,31
1629637863.088,28
1629637863.154,30
1629637863.188,25
1629637863.254,27
1629637863.288,28
1629637863.354,31
1629637863.388,31
1629637863.454,30
1629637863.488,33
1629637863.554,34
1629637863.588,33
1629637863.654,33
1629637863.688,30
1629637863.754,28
1629637863.788,31
1629637863.854,34
1629637863.888,33
1629637863.954,32
1629637863.988,31
1629637864.054,31
1629637864.088,28
1629637864.154,27
1629637864.188,29
1629637864.254,28
1629637864.288,23
1629637864.354,27
1629637864.388,28
1629637864.454,31
1629637864.488,33
1629637864.554,33
1629637864.588,33
1629637864.654,31
1629637864.688,33
1629637864.754,30
1629637864.788,32
1629637864.854,35
1629637864.888,33
1629637864.954,29
1629637864.988,27
1629637865.054,28
1629637865.088,31
1629637865.154,29
1629637865.188,30
1629637865.254,28
1629637865.288,23
1629637865.354,26
1629637865.388,29
1629637865.454,29
1629637865.488,32
1629637865.554,28
1629637865.588,24
1629637865.654,27
1629637865.687,27
1629637865.754,28
1629637865.787,27
1629637865.854,27
1629637865.887,31
1629637865.954,31
1629637865.987,29
1629637866.054,27
1629637866.087,30
1629637866.154,28
1629637866.187,26
1629637866.254,30
1629637866.287,29
1629637866.354,29
1629637866.387,29
1629637866.454,30
1629637866.487,31
1629637866.554,29
1629637866.587,28
1629637866.654,28
1629637866.687,32
1629637866.754,30
1629637866.787,34
1629637866.854,32
1629637866.887,30
1629637866.954,30
1629637866.987,29
1629637867.054,28
1629637867.087,25
1629637867.154,26
1629637867.187,25
1629637867.254,23
1629637867.287,22
1629637867.354,27
1629637867.387,29
1629637867.454,24
1629637867.487,29
1629637867.554,29
1629637867.587,27
1629637867.654,32
1629637867.687,30
1629637867.754,31
1629637867.787,28
1629637867.854,32
1629637867.887,37
1629637867.954,34
1629637867.987,35
1629637868.054,38
1629637868.087,40
1629637868.154,37
1629637868.187,38
1629637868.254,37
1629637868.287,36
1629637868.354,35
1629637868.387,35
1629637868.454,37
1629637868.487,36
1629637868.554,33
1629637868.587,35
1629637868.654,35
1629637868.687,37
1629637868.754,38
1629637868.787,39
1629637868.854,37
1629637868.887,37
1629637868.954,36
1629637868.987,35
1629637869.054,34
1629637869.087,35
1629637869.154,34
1629637869.187,35
1629637869.254,35
1629637869.287,36
1629637869.354,34
1629637869.387,36
1629637869.454,39
1629637869.487,34
1629637869.554,36
1629637869.587,36
1629637869.654,34
1629637869.687,36
1629637869.754,37
1629637869.787,39
1629637869.854,38
1629637869.887,36
1629637869.954,34
1629637869.987,35
1629637870.054,36
1629637870.087,37
1629637870.153,37
1629637870.187,36
1629637870.253,35
1629637870.287,36
1629637870.353,35
1629637870.387,31
1629637870.453,31
1629637870.487,28
1629637870.553,32
1629637870.587,33
1629637870.653,36
1629637870.687,36
1629637870.753,34
1629637870.787,37
1629637870.853,36
1629637870.887,35
1629637870.953,35
