timestamp,tracked_features
1629637698.14,43
1629637698.207,37
1629637698.24,41
1629637698.307,41
1629637698.34,41
1629637698.407,40
1629637698.44,42
1629637698.507,41
1629637698.54,41
1629637698.607,40
1629637698.64,38
1629637698.707,42
1629637698.74,41
1629637698.807,41
1629637698.84,40
1629637698.907,39
1629637698.94,40
1629637699.007,39
1629637699.04,40
1629637699.107,39
1629637699.14,36
1629637699.207,35
1629637699.24,39
1629637699.307,39
1629637699.34,43
1629637699.407,41
1629637699.44,41
1629637699.507,41
1629637699.54,40
1629637699.607,41
1629637699.64,45
1629637699.707,43
1629637699.74,43
1629637699.807,43
1629637699.84,43
1629637699.907,43
1629637699.94,40
1629637700.007,42
1629637700.04,45
1629637700.107,39
1629637700.14,42
1629637700.207,43
1629637700.24,42
1629637700.307,42
1629637700.34,44
1629637700.407,43
1629637700.44,43
1629637700.507,44
1629637700.54,43
1629637700.607,41
1629637700.64,43
1629637700.707,42
1629637700.74,42
1629637700.807,42
1629637700.84,40
1629637700.907,39
1629637700.94,38
1629637701.007,38
1629637701.04,37
1629637701.107,40
1629637701.14,40
1629637701.207,43
1629637701.24,43
1629637701.307,38
1629637701.34,38
1629637701.407,38
1629637701.44,40
1629637701.507,41
1629637701.54,41
1629637701.607,39
1629637701.64,39
1629637701.707,42
1629637701.74,42
1629637701.807,41
1629637701.84,38
1629637701.907,41
1629637701.94,39
1629637702.007,39
1629637702.04,39
1629637702.107,40
1629637702.14,37
1629637702.207,35
1629637702.24,38
1629637702.307,34
1629637702.34,35
1629637702.407,34
1629637702.44,35
1629637702.507,36
1629637702.54,38
1629637702.607,35
1629637702.64,30
1629637702.707,34
1629637702.74,37
1629637702.806,41
1629637702.84,42
1629637702.906,45
1629637702.94,41
1629637703.006,39
1629637703.04,43
1629637703.106,43
1629637703.14,44
1629637703.206,45
1629637703.24,45
1629637703.306,41
1629637703.34,38
1629637703.406,39
1629637703.44,38
1629637703.506,40
1629637703.54,40
1629637703.606,38
1629637703.64,38
1629637703.706,38
1629637703.74,39
1629637703.806,37
1629637703.84,39
1629637703.906,36
1629637703.94,36
1629637704.006,45
1629637704.04,44
1629637704.106,43
1629637704.14,42
1629637704.206,42
1629637704.24,37
1629637704.306,40
1629637704.34,37
1629637704.406,38
1629637704.44,35
1629637704.506,37
1629637704.54,35
1629637704.606,35
1629637704.64,37
1629637704.706,37
1629637704.74,39
1629637704.806,40
1629637704.84,38
1629637704.906,34
1629637704.94,33
1629637705.006,34
1629637705.04,33
1629637705.106,37
1629637705.14,35
1629637705.206,36
1629637705.24,38
1629637705.306,34
1629637705.34,34
1629637705.406,35
1629637705.44,34
1629637705.506,36
1629637705.54,35
1629637705.606,38
1629637705.639,36
1629637705.706,36
1629637705.739,35
1629637705.806,39
1629637705.839,36
1629637705.906,36
1629637705.939,37
1629637706.006,36
1629637706.039,37
1629637706.106,41
1629637706.139,42
1629637706.206,40
1629637706.239,38
1629637706.306,39
1629637706.339,37
1629637706.406,39
1629637706.439,41
1629637706.506,39
1629637706.539,40
1629637706.606,41
1629637706.639,41
1629637706.706,37
1629637706.739,35
1629637706.806,36
1629637706.839,37
1629637706.906,39
1629637706.939,38
1629637707.006,36
1629637707.039,35
1629637707.106,35
1629637707.139,33
1629637707.206,31
1629637707.239,34
1629637707.306,29
1629637707.339,30
1629637707.406,34
1629637707.439,35
1629637707.506,36
1629637707.539,32
1629637707.606,36
1629637707.639,36
1629637707.706,38
1629637707.739,33
1629637707.806,34
1629637707.839,34
1629637707.906,32
1629637707.939,34
1629637708.006,32
1629637708.039,31
1629637708.106,28
1629637708.139,35
1629637708.206,32
1629637708.239,32
1629637708.306,32
1629637708.339,36
1629637708.406,32
1629637708.439,37
1629637708.506,37
1629637708.539,38
1629637708.606,38
1629637708.639,36
1629637708.706,35
1629637708.739,36
1629637708.806,33
1629637708.839,33
1629637708.906,32
1629637708.939,28
1629637709.006,26
1629637709.039,26
1629637709.106,27
1629637709.139,26
1629637709.206,28
1629637709.239,31
1629637709.306,30
1629637709.339,35
1629637709.406,30
1629637709.439,29
1629637709.506,26
1629637709.539,26
1629637709.606,31
1629637709.639,33
1629637709.706,32
1629637709.739,31
1629637709.806,33
1629637709.839,38
1629637709.906,35
1629637709.939,34
1629637710.006,38
1629637710.039,38
1629637710.106,37
1629637710.139,38
1629637710.206,42
1629637710.239,40
1629637710.306,35
1629637710.339,40
1629637710.406,37
1629637710.439,37
1629637710.506,34
1629637710.539,35
1629637710.606,36
1629637710.639,33
1629637710.706,30
1629637710.739,33
1629637710.806,34
1629637710.839,30
1629637710.906,35
1629637710.939,34
1629637711.006,33
1629637711.039,31
1629637711.106,30
1629637711.139,31
1629637711.206,34
1629637711.239,34
1629637711.306,30
1629637711.339,29
1629637711.406,32
1629637711.439,35
1629637711.506,33
1629637711.539,29
1629637711.606,31
1629637711.639,32
1629637711.706,36
1629637711.739,33
1629637711.806,33
1629637711.839,38
1629637711.905,36
1629637711.939,37
1629637712.005,40
1629637712.039,40
1629637712.105,39
1629637712.139,40
1629637712.205,39
1629637712.239,39
1629637712.305,38
1629637712.339,39
1629637712.405,40
1629637712.439,38
1629637712.505,35
1629637712.539,39
1629637712.605,38
1629637712.639,35
1629637712.705,34
1629637712.739,38
1629637712.805,37
1629637712.839,38
1629637712.905,38
1629637712.939,41
1629637713.005,38
1629637713.039,39
1629637713.105,42
1629637713.139,43
1629637713.205,41
1629637713.239,40
1629637713.305,43
1629637713.339,44
1629637713.405,43
1629637713.439,40
1629637713.505,38
1629637713.539,39
1629637713.605,43
1629637713.639,44
1629637713.705,43
1629637713.739,42
1629637713.805,42
1629637713.838,41
1629637713.905,40
1629637713.938,41
1629637714.005,43
1629637714.038,44
1629637714.105,41
1629637714.138,41
1629637714.205,43
1629637714.238,42
1629637714.305,45
1629637714.338,44
1629637714.405,43
1629637714.438,42
1629637714.505,43
1629637714.538,47
1629637714.605,44
1629637714.638,43
1629637714.705,46
1629637714.738,43
1629637714.805,45
1629637714.838,46
1629637714.905,44
1629637714.938,45
1629637715.005,43
1629637715.038,43
1629637715.105,43
1629637715.138,40
1629637715.205,40
1629637715.238,42
1629637715.305,41
1629637715.338,39
1629637715.405,43
1629637715.438,41
1629637715.505,42
1629637715.538,44
1629637715.605,41
1629637715.638,42
1629637715.705,41
1629637715.738,41
1629637715.805,41
1629637715.838,43
1629637715.905,43
1629637715.938,43
1629637716.005,45
1629637716.038,46
1629637716.105,44
1629637716.138,43
1629637716.205,42
1629637716.238,44
1629637716.305,42
1629637716.338,43
1629637716.405,45
1629637716.438,45
1629637716.505,44
1629637716.538,43
1629637716.605,40
1629637716.638,40
1629637716.705,42
1629637716.738,40
1629637716.805,40
1629637716.838,42
1629637716.905,43
1629637716.938,42
1629637717.005,43
1629637717.038,42
1629637717.105,45
1629637717.138,47
1629637717.205,47
1629637717.238,48
1629637717.305,48
1629637717.338,47
1629637717.405,46
1629637717.438,44
1629637717.505,45
1629637717.538,44
1629637717.605,43
1629637717.638,43
1629637717.705,42
1629637717.738,44
1629637717.805,44
1629637717.838,43
1629637717.905,43
1629637717.938,44
1629637718.005,45
1629637718.038,45
1629637718.105,44
1629637718.138,45
1629637718.205,46
1629637718.238,46
1629637718.305,44
1629637718.338,45
1629637718.405,43
1629637718.438,41
1629637718.505,38
1629637718.538,39
1629637718.605,42
1629637718.638,42
1629637718.705,44
1629637718.738,44
1629637718.805,44
1629637718.838,44
1629637718.905,41
1629637718.938,43
1629637719.004,40
1629637719.038,40
1629637719.104,41
1629637719.138,40
1629637719.204,42
1629637719.238,44
1629637719.304,40
1629637719.338,40
1629637719.404,41
1629637719.438,41
1629637719.504,39
1629637719.538,39
1629637719.604,42
1629637719.638,42
1629637719.704,40
1629637719.738,40
1629637719.804,37
1629637719.838,42
1629637719.904,40
1629637719.938,37
1629637720.004,43
1629637720.038,42
1629637720.104,44
1629637720.138,42
1629637720.204,39
1629637720.238,42
1629637720.304,42
1629637720.338,42
1629637720.404,43
1629637720.438,43
1629637720.504,43
1629637720.538,41
1629637720.604,42
1629637720.638,41
1629637720.704,38
1629637720.738,38
1629637720.804,40
1629637720.838,39
1629637720.904,41
1629637720.938,41
1629637721.004,39
1629637721.038,37
1629637721.104,40
1629637721.138,39
1629637721.204,35
1629637721.238,38
1629637721.304,37
1629637721.338,35
1629637721.404,34
1629637721.438,35
1629637721.504,33
1629637721.538,33
1629637721.604,34
1629637721.638,37
1629637721.704,34
1629637721.737,36
1629637721.804,37
1629637721.837,38
1629637721.904,39
1629637721.937,37
1629637722.004,35
1629637722.037,35
1629637722.104,38
1629637722.137,39
1629637722.204,37
1629637722.237,36
1629637722.304,36
1629637722.337,34
1629637722.404,33
1629637722.437,34
1629637722.504,36
1629637722.537,32
1629637722.604,34
1629637722.637,35
1629637722.704,34
1629637722.737,30
1629637722.804,37
1629637722.837,42
1629637722.904,39
1629637722.937,38
1629637723.004,38
1629637723.037,40
1629637723.104,37
1629637723.137,36
1629637723.204,37
1629637723.237,36
1629637723.304,33
1629637723.337,33
1629637723.404,30
1629637723.437,30
1629637723.504,35
1629637723.537,38
1629637723.604,36
1629637723.637,37
1629637723.704,35
1629637723.737,34
1629637723.804,35
1629637723.837,35
1629637723.904,36
1629637723.937,34
1629637724.004,35
1629637724.037,35
1629637724.104,36
1629637724.137,35
1629637724.204,35
1629637724.237,36
1629637724.304,31
1629637724.337,35
1629637724.404,34
1629637724.437,33
1629637724.504,38
1629637724.537,30
1629637724.604,35
1629637724.637,37
1629637724.704,38
1629637724.737,33
1629637724.804,35
1629637724.837,31
1629637724.904,31
1629637724.937,33
1629637725.004,31
1629637725.037,30
1629637725.104,28
1629637725.137,31
1629637725.204,32
1629637725.237,34
1629637725.304,27
1629637725.337,22
1629637725.404,24
1629637725.437,26
1629637725.504,31
1629637725.537,30
1629637725.604,26
1629637725.637,26
1629637725.704,28
1629637725.737,30
1629637725.804,29
1629637725.837,31
1629637725.904,28
1629637725.937,31
1629637726.004,31
1629637726.037,31
1629637726.104,32
1629637726.137,32
1629637726.204,33
1629637726.237,34
1629637726.304,27
1629637726.337,29
1629637726.404,34
1629637726.437,30
1629637726.504,31
1629637726.537,31
1629637726.604,30
1629637726.637,30
1629637726.704,32
1629637726.737,35
1629637726.804,33
1629637726.837,34
1629637726.904,35
1629637726.937,39
1629637727.004,37
1629637727.037,37
1629637727.104,37
1629637727.137,38
1629637727.204,38
1629637727.237,37
1629637727.304,36
1629637727.337,37
1629637727.404,41
1629637727.437,39
1629637727.504,35
1629637727.537,37
1629637727.604,37
1629637727.637,36
1629637727.703,37
1629637727.737,40
1629637727.803,36
1629637727.837,36
1629637727.903,37
1629637727.937,38
1629637728.003,37
1629637728.037,39
1629637728.103,37
1629637728.137,33
1629637728.203,37
1629637728.237,36
1629637728.303,39
1629637728.337,39
1629637728.403,41
1629637728.437,35
1629637728.503,36
1629637728.537,35
1629637728.603,38
1629637728.637,38
1629637728.703,39
1629637728.737,38
1629637728.803,40
1629637728.837,44
1629637728.903,40
1629637728.937,36
1629637729.003,35
1629637729.037,35
1629637729.103,37
1629637729.137,35
1629637729.203,32
1629637729.237,33
1629637729.303,30
1629637729.337,29
1629637729.403,31
1629637729.437,33
1629637729.503,34
1629637729.537,38
1629637729.603,36
1629637729.637,36
1629637729.703,41
1629637729.737,39
1629637729.803,38
1629637729.837,35
1629637729.903,39
1629637729.937,35
1629637730.003,36
1629637730.036,36
1629637730.103,36
1629637730.136,36
1629637730.203,36
1629637730.236,39
1629637730.303,38
1629637730.336,36
1629637730.403,39
1629637730.436,38
1629637730.503,36
1629637730.536,31
1629637730.603,37
1629637730.636,40
1629637730.703,39
1629637730.736,39
1629637730.803,38
1629637730.836,35
1629637730.903,37
1629637730.936,39
1629637731.003,35
1629637731.037,34
1629637731.103,35
1629637731.136,34
1629637731.203,36
1629637731.236,35
1629637731.303,40
1629637731.336,40
1629637731.403,39
1629637731.436,38
1629637731.503,39
1629637731.536,40
1629637731.603,34
1629637731.636,38
1629637731.703,38
1629637731.736,35
1629637731.803,36
1629637731.836,33
1629637731.903,37
1629637731.936,35
1629637732.003,34
1629637732.036,32
1629637732.103,37
1629637732.136,37
1629637732.203,32
1629637732.236,33
1629637732.303,34
1629637732.336,36
1629637732.403,35
1629637732.436,36
1629637732.503,35
1629637732.536,34
1629637732.603,40
1629637732.636,39
1629637732.703,42
1629637732.736,41
1629637732.803,36
1629637732.836,34
1629637732.903,39
1629637732.936,40
1629637733.003,33
1629637733.036,30
1629637733.103,31
1629637733.136,35
1629637733.203,35
1629637733.236,31
1629637733.303,26
1629637733.336,25
1629637733.403,26
1629637733.436,23
1629637733.503,23
1629637733.536,29
1629637733.603,24
1629637733.636,31
1629637733.703,33
1629637733.736,29
1629637733.803,33
1629637733.836,34
1629637733.903,33
1629637733.936,32
1629637734.003,35
1629637734.036,36
1629637734.103,35
1629637734.136,35
1629637734.203,33
1629637734.236,38
1629637734.303,36
1629637734.336,31
1629637734.403,33
1629637734.436,33
1629637734.503,35
1629637734.536,34
1629637734.603,36
1629637734.636,35
1629637734.703,38
1629637734.736,34
1629637734.803,37
1629637734.836,37
1629637734.903,35
1629637734.936,33
1629637735.003,36
1629637735.036,34
1629637735.103,36
1629637735.136,37
1629637735.203,35
1629637735.236,32
1629637735.303,33
1629637735.336,33
1629637735.403,34
1629637735.436,28
1629637735.503,30
1629637735.536,33
1629637735.603,34
1629637735.636,34
1629637735.702,38
1629637735.736,39
1629637735.802,38
1629637735.836,37
1629637735.902,36
1629637735.936,39
1629637736.002,33
1629637736.036,35
1629637736.102,38
1629637736.136,36
1629637736.202,35
1629637736.236,33
1629637736.302,31
1629637736.336,32
1629637736.402,34
1629637736.436,36
1629637736.502,39
1629637736.536,36
1629637736.602,37
1629637736.636,36
1629637736.702,37
1629637736.736,38
1629637736.802,40
1629637736.836,41
1629637736.902,40
1629637736.936,40
1629637737.002,37
1629637737.036,38
1629637737.102,40
1629637737.136,39
1629637737.202,37
1629637737.236,39
1629637737.302,41
1629637737.336,35
1629637737.402,35
1629637737.436,38
1629637737.502,30
1629637737.536,32
1629637737.602,30
1629637737.636,30
1629637737.702,30
1629637737.736,32
1629637737.802,39
1629637737.836,38
1629637737.902,41
1629637737.936,39
1629637738.002,34
1629637738.036,35
1629637738.102,35
1629637738.136,34
1629637738.202,34
1629637738.236,31
1629637738.302,32
1629637738.336,33
1629637738.402,32
1629637738.436,32
1629637738.502,36
1629637738.536,37
1629637738.602,36
1629637738.636,37
1629637738.702,34
1629637738.736,33
1629637738.802,33
1629637738.835,33
1629637738.902,35
1629637738.935,37
1629637739.002,36
1629637739.035,36
1629637739.102,35
1629637739.135,35
1629637739.202,37
1629637739.235,41
1629637739.302,36
1629637739.335,37
1629637739.402,40
1629637739.435,37
1629637739.502,38
1629637739.535,36
1629637739.602,34
1629637739.635,35
1629637739.702,31
1629637739.735,34
1629637739.802,36
1629637739.835,36
1629637739.902,35
1629637739.935,37
1629637740.002,34
1629637740.035,35
1629637740.102,33
1629637740.135,34
1629637740.202,32
1629637740.235,32
1629637740.302,33
1629637740.335,34
1629637740.402,31
1629637740.435,33
1629637740.502,38
1629637740.535,42
1629637740.602,37
1629637740.635,34
1629637740.702,34
1629637740.735,32
1629637740.802,33
1629637740.835,37
1629637740.902,35
1629637740.935,38
1629637741.002,30
1629637741.035,28
1629637741.102,30
1629637741.135,33
1629637741.202,37
1629637741.235,35
1629637741.302,36
1629637741.335,35
1629637741.402,36
1629637741.435,36
1629637741.502,38
1629637741.535,37
1629637741.602,39
1629637741.635,38
1629637741.702,39
1629637741.735,41
1629637741.802,40
1629637741.835,40
1629637741.902,42
1629637741.935,40
1629637742.002,40
1629637742.035,41
1629637742.102,41
1629637742.135,42
1629637742.202,41
1629637742.235,39
1629637742.302,39
1629637742.335,42
1629637742.402,39
1629637742.435,37
1629637742.502,39
1629637742.535,36
1629637742.602,39
1629637742.635,42
1629637742.702,39
1629637742.735,41
1629637742.802,41
1629637742.835,38
1629637742.902,40
1629637742.935,37
1629637743.002,39
1629637743.035,38
1629637743.102,40
1629637743.135,39
1629637743.202,38
1629637743.235,39
1629637743.302,39
1629637743.335,37
1629637743.402,41
1629637743.435,40
1629637743.502,39
1629637743.535,37
1629637743.602,36
1629637743.635,36
1629637743.702,36
1629637743.735,33
1629637743.802,33
1629637743.835,34
1629637743.902,34
1629637743.935,35
1629637744.002,35
1629637744.035,36
1629637744.102,37
1629637744.135,39
1629637744.202,38
1629637744.235,41
1629637744.302,39
1629637744.335,38
1629637744.402,39
1629637744.435,35
1629637744.501,37
1629637744.535,37
1629637744.601,38
1629637744.635,39
1629637744.701,41
1629637744.735,40
1629637744.801,39
1629637744.835,41
1629637744.901,42
1629637744.935,40
1629637745.001,38
1629637745.035,36
1629637745.101,39
1629637745.135,39
1629637745.201,41
1629637745.235,41
1629637745.301,39
1629637745.335,35
1629637745.401,35
1629637745.435,38
1629637745.501,39
1629637745.535,38
1629637745.601,37
1629637745.635,37
1629637745.701,39
1629637745.735,37
1629637745.801,39
1629637745.835,40
1629637745.901,39
1629637745.935,37
1629637746.001,42
1629637746.035,41
1629637746.101,38
1629637746.135,37
1629637746.201,35
1629637746.235,36
1629637746.301,39
1629637746.335,36
1629637746.401,36
1629637746.435,36
1629637746.501,33
1629637746.535,33
1629637746.601,37
1629637746.635,40
1629637746.701,40
1629637746.735,41
1629637746.801,39
1629637746.835,39
1629637746.901,40
1629637746.935,37
1629637747.001,33
1629637747.035,35
1629637747.101,36
1629637747.135,37
1629637747.201,32
1629637747.235,33
1629637747.301,37
1629637747.334,39
1629637747.401,39
1629637747.434,37
1629637747.501,36
1629637747.534,37
1629637747.601,38
1629637747.634,35
1629637747.701,37
1629637747.734,35
1629637747.801,35
1629637747.834,36
1629637747.901,34
1629637747.934,33
1629637748.001,30
1629637748.034,29
1629637748.101,27
1629637748.134,28
1629637748.201,31
1629637748.234,29
1629637748.301,30
1629637748.334,29
1629637748.401,32
1629637748.434,35
1629637748.501,36
1629637748.534,33
1629637748.601,34
1629637748.634,34
1629637748.701,33
1629637748.734,37
1629637748.801,33
1629637748.834,29
1629637748.901,37
1629637748.934,36
1629637749.001,38
1629637749.034,37
1629637749.101,38
1629637749.134,37
1629637749.201,39
1629637749.234,37
1629637749.301,38
1629637749.334,37
1629637749.401,35
1629637749.434,33
1629637749.501,35
1629637749.534,36
1629637749.601,35
1629637749.634,32
1629637749.701,36
1629637749.734,34
1629637749.801,34
1629637749.834,37
1629637749.901,35
1629637749.934,37
1629637750.001,39
1629637750.034,36
1629637750.101,38
1629637750.134,39
1629637750.201,40
1629637750.234,42
1629637750.301,39
1629637750.334,37
1629637750.401,33
1629637750.434,30
1629637750.501,30
1629637750.534,33
1629637750.601,36
1629637750.634,35
1629637750.701,38
1629637750.734,37
1629637750.801,37
1629637750.834,38
1629637750.901,32
1629637750.934,32
1629637751.001,30
1629637751.034,33
1629637751.101,36
1629637751.134,35
1629637751.201,33
1629637751.234,31
1629637751.301,32
1629637751.334,36
1629637751.401,37
1629637751.434,39
1629637751.501,38
1629637751.534,36
1629637751.601,33
1629637751.634,33
1629637751.701,33
1629637751.734,32
1629637751.801,36
1629637751.834,35
1629637751.901,36
1629637751.934,31
1629637752.001,32
1629637752.034,33
1629637752.101,34
1629637752.134,39
1629637752.201,43
1629637752.234,41
1629637752.301,35
1629637752.334,41
1629637752.401,38
1629637752.434,36
1629637752.501,37
1629637752.534,37
1629637752.601,33
1629637752.634,35
1629637752.701,37
1629637752.734,38
1629637752.801,39
1629637752.834,36
1629637752.901,37
1629637752.934,42
1629637753.001,40
1629637753.034,39
1629637753.101,38
1629637753.134,36
1629637753.2,36
1629637753.234,36
1629637753.3,38
1629637753.334,40
1629637753.4,41
1629637753.434,40
1629637753.5,39
1629637753.534,37
1629637753.6,38
1629637753.634,40
1629637753.7,37
1629637753.734,40
1629637753.8,39
1629637753.834,38
1629637753.9,39
1629637753.934,37
1629637754.0,39
1629637754.034,39
1629637754.1,36
1629637754.134,38
1629637754.2,42
1629637754.234,43
1629637754.3,42
1629637754.334,43
1629637754.4,45
1629637754.434,44
1629637754.5,40
1629637754.534,36
1629637754.6,39
1629637754.634,40
1629637754.7,42
1629637754.734,41
1629637754.8,39
1629637754.834,39
1629637754.9,42
1629637754.934,40
1629637755.0,45
1629637755.034,43
1629637755.1,42
1629637755.134,42
1629637755.2,42
1629637755.234,40
1629637755.3,38
1629637755.334,38
1629637755.4,40
1629637755.434,42
1629637755.5,42
1629637755.534,40
1629637755.6,40
1629637755.634,38
1629637755.7,37
1629637755.734,36
1629637755.8,39
1629637755.834,34
1629637755.9,37
1629637755.934,38
1629637756.0,37
1629637756.034,37
1629637756.1,37
1629637756.134,34
1629637756.2,35
1629637756.234,37
1629637756.3,35
1629637756.334,37
1629637756.4,38
1629637756.434,34
1629637756.5,37
1629637756.534,38
1629637756.6,37
1629637756.634,34
1629637756.7,39
1629637756.734,38
1629637756.8,39
1629637756.833,39
1629637756.9,39
1629637756.933,43
1629637757.0,37
1629637757.033,35
1629637757.1,40
1629637757.133,41
1629637757.2,39
1629637757.233,43
1629637757.3,42
1629637757.333,42
1629637757.4,38
1629637757.433,38
1629637757.5,39
1629637757.533,41
1629637757.6,40
1629637757.633,41
1629637757.7,39
1629637757.733,39
1629637757.8,37
1629637757.833,40
1629637757.9,43
1629637757.933,44
1629637758.0,42
1629637758.033,42
1629637758.1,40
1629637758.133,42
1629637758.2,43
1629637758.233,43
1629637758.3,42
1629637758.333,39
1629637758.4,40
1629637758.433,36
1629637758.5,36
1629637758.533,36
1629637758.6,36
1629637758.633,34
1629637758.7,34
1629637758.733,37
1629637758.8,36
1629637758.833,37
1629637758.9,36
1629637758.933,36
1629637759.0,38
1629637759.033,38
1629637759.1,34
1629637759.133,34
1629637759.2,34
1629637759.233,33
1629637759.3,34
1629637759.333,34
1629637759.4,33
1629637759.433,39
1629637759.5,36
1629637759.533,35
1629637759.6,37
1629637759.633,36
1629637759.7,36
1629637759.733,37
1629637759.8,37
1629637759.833,38
1629637759.9,38
1629637759.933,40
1629637760.0,42
1629637760.033,41
1629637760.1,38
1629637760.133,35
1629637760.2,42
1629637760.233,42
1629637760.3,43
1629637760.333,40
1629637760.4,37
1629637760.433,37
1629637760.5,38
1629637760.533,39
1629637760.6,40
1629637760.633,41
1629637760.7,44
1629637760.733,44
1629637760.8,41
1629637760.833,37
1629637760.9,41
1629637760.933,42
1629637761.0,40
1629637761.033,37
1629637761.1,39
1629637761.133,34
1629637761.2,41
1629637761.233,38
1629637761.3,40
1629637761.333,39
1629637761.4,38
1629637761.433,41
1629637761.5,39
1629637761.533,40
1629637761.6,38
1629637761.633,38
1629637761.7,37
1629637761.733,37
1629637761.8,33
1629637761.833,31
1629637761.9,37
1629637761.933,34
1629637761.999,38
1629637762.033,37
1629637762.099,35
1629637762.133,34
1629637762.199,35
1629637762.233,37
1629637762.299,37
1629637762.333,39
1629637762.399,39
1629637762.433,40
1629637762.499,36
1629637762.533,38
1629637762.599,38
1629637762.633,39
1629637762.699,36
1629637762.733,33
1629637762.799,32
1629637762.833,35
1629637762.899,37
1629637762.933,35
1629637762.999,35
1629637763.033,36
1629637763.099,33
1629637763.133,34
1629637763.199,32
1629637763.233,36
1629637763.299,37
1629637763.333,38
1629637763.399,38
1629637763.433,41
1629637763.499,39
1629637763.533,42
1629637763.599,41
1629637763.633,41
1629637763.699,41
1629637763.733,39
1629637763.799,38
1629637763.833,37
1629637763.899,39
1629637763.933,39
1629637763.999,40
1629637764.033,40
1629637764.099,39
1629637764.133,36
1629637764.199,36
1629637764.233,39
1629637764.299,39
1629637764.333,41
1629637764.399,38
1629637764.433,36
1629637764.499,36
1629637764.533,38
1629637764.599,38
1629637764.633,38
1629637764.699,37
1629637764.733,38
1629637764.799,37
1629637764.833,37
1629637764.899,40
1629637764.933,40
1629637764.999,41
1629637765.032,42
1629637765.099,45
1629637765.132,44
1629637765.199,36
1629637765.232,29
1629637765.299,30
1629637765.332,28
1629637765.399,31
1629637765.432,31
1629637765.499,26
1629637765.532,23
1629637765.599,25
1629637765.632,28
1629637765.699,31
1629637765.732,32
1629637765.799,29
1629637765.832,26
1629637765.899,31
1629637765.932,29
1629637765.999,28
1629637766.032,27
1629637766.099,28
1629637766.132,29
1629637766.199,32
1629637766.232,30
1629637766.299,33
1629637766.332,32
1629637766.399,34
1629637766.432,36
1629637766.499,36
1629637766.532,39
1629637766.599,42
1629637766.632,38
1629637766.699,38
1629637766.732,37
1629637766.799,39
1629637766.832,40
1629637766.899,36
1629637766.932,35
1629637766.999,36
1629637767.032,39
1629637767.099,39
1629637767.132,40
1629637767.199,40
1629637767.232,38
1629637767.299,37
1629637767.332,37
1629637767.399,36
1629637767.432,36
1629637767.499,36
1629637767.532,39
1629637767.599,39
1629637767.632,37
1629637767.699,35
1629637767.732,34
1629637767.799,37
1629637767.832,37
1629637767.899,36
1629637767.932,37
1629637767.999,37
1629637768.032,39
1629637768.099,35
1629637768.132,34
1629637768.199,36
1629637768.232,33
1629637768.299,32
1629637768.332,39
1629637768.399,37
1629637768.432,33
1629637768.499,35
1629637768.532,32
1629637768.599,34
1629637768.632,31
1629637768.699,32
1629637768.732,34
1629637768.799,35
1629637768.832,35
1629637768.899,31
1629637768.932,32
1629637768.999,35
1629637769.032,34
1629637769.099,29
1629637769.132,33
1629637769.199,31
1629637769.232,33
1629637769.299,30
1629637769.332,35
1629637769.399,30
1629637769.432,31
1629637769.499,34
1629637769.532,33
1629637769.599,37
1629637769.632,35
1629637769.699,30
1629637769.732,31
1629637769.799,33
1629637769.832,35
1629637769.899,35
1629637769.932,31
1629637769.999,35
1629637770.032,40
1629637770.099,35
1629637770.132,34
1629637770.199,36
1629637770.232,35
1629637770.299,34
1629637770.332,36
1629637770.399,37
1629637770.432,34
1629637770.499,35
1629637770.532,38
1629637770.599,40
1629637770.632,38
1629637770.699,37
1629637770.732,34
1629637770.799,39
1629637770.832,38
1629637770.899,41
1629637770.932,38
1629637770.999,35
1629637771.032,38
1629637771.099,37
1629637771.132,35
1629637771.199,36
1629637771.232,34
1629637771.299,36
1629637771.332,39
1629637771.399,40
1629637771.432,38
1629637771.499,38
1629637771.532,36
1629637771.599,37
1629637771.632,37
1629637771.699,34
1629637771.732,34
1629637771.799,35
1629637771.832,38
1629637771.899,36
1629637771.932,35
1629637771.999,35
1629637772.032,36
1629637772.099,30
1629637772.132,31
1629637772.199,32
1629637772.232,35
1629637772.299,36
1629637772.332,35
1629637772.399,30
1629637772.432,29
1629637772.499,31
1629637772.532,28
1629637772.599,32
1629637772.632,35
1629637772.699,30
1629637772.732,29
1629637772.799,27
1629637772.832,23
1629637772.899,36
1629637772.932,36
1629637772.999,35
1629637773.032,37
1629637773.099,34
1629637773.132,33
1629637773.199,35
1629637773.232,35
1629637773.299,36
1629637773.332,37
1629637773.399,39
1629637773.432,36
1629637773.499,34
1629637773.532,35
1629637773.599,35
1629637773.632,29
1629637773.699,30
1629637773.732,35
1629637773.799,38
1629637773.832,37
1629637773.899,39
1629637773.932,37
1629637773.999,36
1629637774.032,41
1629637774.099,37
1629637774.132,33
1629637774.199,38
1629637774.232,37
1629637774.299,37
1629637774.332,39
1629637774.399,45
1629637774.432,40
1629637774.499,34
1629637774.532,36
1629637774.599,34
1629637774.632,33
1629637774.699,34
1629637774.732,35
1629637774.799,39
1629637774.832,38
1629637774.899,35
1629637774.932,39
1629637774.999,39
1629637775.032,41
1629637775.099,41
1629637775.132,35
1629637775.198,35
1629637775.232,31
1629637775.298,35
1629637775.332,35
1629637775.398,37
1629637775.432,39
1629637775.498,39
1629637775.532,37
1629637775.598,37
1629637775.632,38
1629637775.698,41
1629637775.732,37
1629637775.798,40
1629637775.832,42
1629637775.898,41
1629637775.932,39
1629637775.998,40
1629637776.032,37
1629637776.098,36
1629637776.132,33
1629637776.198,26
1629637776.232,31
1629637776.298,30
1629637776.332,30
1629637776.398,26
1629637776.432,27
1629637776.498,32
1629637776.532,30
1629637776.598,36
1629637776.632,39
1629637776.698,39
1629637776.732,38
1629637776.798,39
1629637776.832,32
1629637776.898,39
1629637776.932,32
1629637776.998,26
1629637777.032,22
1629637777.098,27
1629637777.132,31
1629637777.198,30
1629637777.232,32
1629637777.298,32
1629637777.332,29
1629637777.398,30
1629637777.432,26
1629637777.498,30
1629637777.532,34
1629637777.598,38
1629637777.632,35
1629637777.698,35
1629637777.732,38
1629637777.798,41
1629637777.832,37
1629637777.898,37
1629637777.932,34
1629637777.998,34
1629637778.031,41
1629637778.098,25
1629637778.131,18
1629637778.198,24
1629637778.231,25
1629637778.298,29
1629637778.331,27
1629637778.398,30
1629637778.431,29
1629637778.498,26
1629637778.531,29
1629637778.598,24
1629637778.631,31
1629637778.698,35
1629637778.731,33
1629637778.798,33
1629637778.831,38
1629637778.898,35
1629637778.931,30
1629637778.998,30
1629637779.031,34
1629637779.098,27
1629637779.131,26
1629637779.198,26
1629637779.231,28
1629637779.298,32
1629637779.331,32
1629637779.398,32
1629637779.431,34
1629637779.498,38
1629637779.531,38
1629637779.598,37
1629637779.631,37
1629637779.698,35
1629637779.731,37
1629637779.798,32
1629637779.831,37
1629637779.898,37
1629637779.931,37
1629637779.998,33
1629637780.031,39
1629637780.098,37
1629637780.131,37
1629637780.198,38
1629637780.231,41
1629637780.298,38
1629637780.331,42
1629637780.398,39
1629637780.431,35
1629637780.498,35
1629637780.531,34
1629637780.598,37
1629637780.631,31
1629637780.698,36
1629637780.731,38
1629637780.798,36
1629637780.831,36
1629637780.898,36
1629637780.931,34
1629637780.998,28
1629637781.031,33
1629637781.098,32
1629637781.131,37
1629637781.198,33
1629637781.231,31
1629637781.298,34
1629637781.331,35
1629637781.398,32
1629637781.431,36
1629637781.498,34
1629637781.531,35
1629637781.598,37
1629637781.631,37
1629637781.698,38
1629637781.731,41
1629637781.798,38
1629637781.831,38
1629637781.898,40
1629637781.931,41
1629637781.998,44
1629637782.031,42
1629637782.098,34
1629637782.131,40
1629637782.198,39
1629637782.231,40
1629637782.298,41
1629637782.331,42
1629637782.398,39
1629637782.431,41
1629637782.498,34
1629637782.531,37
1629637782.598,41
1629637782.631,37
1629637782.698,36
1629637782.731,33
1629637782.798,38
1629637782.831,38
1629637782.898,37
1629637782.931,35
1629637782.998,38
1629637783.031,40
1629637783.098,37
1629637783.131,36
1629637783.198,39
1629637783.231,37
1629637783.298,39
1629637783.331,38
1629637783.398,38
1629637783.431,35
1629637783.498,38
1629637783.531,38
1629637783.598,38
1629637783.631,37
1629637783.698,37
1629637783.731,40
1629637783.798,38
1629637783.831,33
1629637783.898,36
1629637783.931,40
1629637783.998,42
1629637784.031,42
1629637784.098,39
1629637784.131,38
1629637784.198,41
1629637784.231,43
1629637784.298,38
1629637784.331,36
1629637784.398,39
1629637784.431,40
1629637784.498,37
1629637784.531,38
1629637784.598,40
1629637784.631,39
1629637784.698,35
1629637784.731,33
1629637784.797,33
1629637784.831,32
1629637784.897,32
1629637784.931,33
1629637784.997,33
1629637785.031,34
1629637785.097,33
1629637785.131,29
1629637785.197,23
1629637785.231,28
1629637785.297,26
1629637785.33,26
1629637785.397,32
1629637785.431,31
1629637785.497,25
1629637785.531,23
1629637785.597,26
1629637785.631,29
1629637785.697,35
1629637785.731,32
1629637785.797,32
1629637785.831,30
1629637785.897,37
1629637785.931,34
1629637785.997,30
1629637786.03,33
1629637786.097,30
1629637786.13,30
1629637786.197,27
1629637786.23,27
1629637786.297,25
1629637786.33,26
1629637786.397,27
1629637786.43,27
1629637786.497,29
1629637786.53,27
1629637786.597,27
1629637786.63,30
1629637786.697,29
1629637786.73,27
1629637786.797,25
1629637786.83,28
1629637786.897,27
1629637786.93,27
1629637786.997,31
1629637787.03,29
1629637787.097,34
1629637787.131,30
1629637787.197,33
1629637787.231,39
1629637787.297,37
1629637787.33,34
1629637787.397,29
1629637787.43,29
1629637787.497,30
1629637787.53,31
1629637787.597,33
1629637787.63,31
1629637787.697,30
1629637787.73,29
1629637787.797,23
1629637787.83,21
1629637787.897,26
1629637787.93,28
1629637787.997,25
1629637788.03,22
1629637788.097,24
1629637788.13,21
1629637788.197,30
1629637788.23,33
1629637788.297,35
1629637788.33,31
1629637788.397,34
1629637788.43,36
1629637788.497,36
1629637788.53,32
1629637788.597,33
1629637788.63,33
1629637788.697,32
1629637788.73,33
1629637788.797,34
1629637788.83,34
1629637788.897,34
1629637788.93,35
1629637788.997,33
1629637789.03,31
1629637789.097,30
1629637789.13,33
1629637789.197,29
1629637789.23,27
1629637789.297,28
1629637789.33,32
1629637789.397,27
1629637789.43,28
1629637789.497,26
1629637789.53,29
1629637789.597,29
1629637789.63,30
1629637789.697,28
1629637789.73,30
1629637789.797,34
1629637789.83,32
1629637789.897,32
1629637789.93,36
1629637789.997,42
1629637790.03,41
1629637790.097,40
1629637790.13,39
1629637790.197,38
1629637790.23,39
1629637790.297,37
1629637790.33,34
1629637790.397,39
1629637790.43,35
1629637790.497,35
1629637790.53,34
1629637790.597,35
1629637790.63,37
1629637790.697,32
1629637790.73,30
1629637790.797,32
1629637790.83,35
1629637790.897,34
1629637790.93,29
1629637790.997,29
1629637791.03,30
1629637791.097,33
1629637791.13,34
1629637791.197,31
1629637791.23,31
1629637791.297,32
1629637791.33,33
1629637791.397,34
1629637791.43,33
1629637791.497,32
1629637791.53,32
1629637791.597,31
1629637791.63,31
1629637791.697,31
1629637791.73,32
1629637791.797,31
1629637791.83,37
1629637791.897,38
1629637791.93,35
1629637791.997,35
1629637792.03,37
1629637792.097,34
1629637792.13,36
1629637792.197,37
1629637792.23,34
1629637792.297,35
1629637792.33,35
1629637792.397,37
1629637792.43,36
1629637792.497,34
1629637792.53,34
1629637792.597,35
1629637792.63,34
1629637792.697,35
1629637792.73,35
1629637792.797,35
1629637792.83,37
1629637792.897,39
1629637792.93,38
1629637792.997,36
1629637793.03,38
1629637793.097,41
1629637793.13,38
1629637793.197,41
1629637793.23,41
1629637793.297,40
1629637793.33,40
1629637793.397,40
1629637793.43,42
1629637793.497,44
1629637793.53,41
1629637793.596,39
1629637793.63,38
1629637793.696,38
1629637793.73,42
1629637793.796,40
1629637793.83,39
1629637793.896,42
1629637793.93,42
1629637793.996,42
1629637794.03,39
1629637794.096,41
1629637794.13,38
1629637794.196,40
1629637794.23,45
1629637794.296,45
1629637794.33,44
1629637794.396,36
1629637794.43,29
1629637794.496,32
1629637794.53,38
1629637794.596,36
1629637794.63,39
1629637794.696,36
1629637794.73,41
1629637794.796,42
1629637794.83,42
1629637794.896,45
1629637794.93,43
1629637794.996,42
1629637795.03,41
1629637795.096,41
1629637795.13,42
1629637795.196,44
1629637795.23,42
1629637795.296,38
1629637795.33,42
1629637795.396,46
1629637795.43,44
1629637795.496,43
1629637795.53,42
1629637795.596,42
1629637795.63,42
1629637795.696,42
1629637795.73,44
1629637795.796,43
1629637795.83,44
1629637795.896,42
1629637795.93,41
1629637795.996,43
1629637796.03,42
1629637796.096,40
1629637796.13,41
1629637796.196,41
1629637796.23,39
1629637796.296,39
1629637796.33,41
1629637796.396,39
1629637796.429,37
1629637796.496,37
1629637796.529,39
1629637796.596,40
1629637796.629,40
1629637796.696,38
1629637796.729,37
1629637796.796,39
1629637796.829,40
1629637796.896,42
1629637796.929,43
1629637796.996,43
1629637797.029,43
1629637797.096,41
1629637797.129,40
1629637797.196,43
1629637797.229,42
1629637797.296,42
1629637797.329,44
1629637797.396,44
1629637797.429,43
1629637797.496,45
1629637797.529,46
1629637797.596,46
1629637797.629,46
1629637797.696,46
1629637797.729,45
1629637797.796,46
1629637797.829,42
1629637797.896,45
1629637797.929,45
1629637797.996,47
1629637798.029,43
1629637798.096,46
1629637798.129,47
1629637798.196,45
1629637798.229,40
1629637798.296,42
1629637798.329,43
1629637798.396,43
1629637798.429,49
1629637798.496,44
1629637798.529,45
1629637798.596,48
1629637798.629,48
1629637798.696,47
1629637798.729,44
1629637798.796,46
1629637798.829,43
1629637798.896,46
1629637798.929,44
1629637798.996,44
1629637799.029,43
1629637799.096,42
1629637799.129,44
1629637799.196,43
1629637799.229,44
1629637799.296,40
1629637799.329,38
1629637799.396,40
1629637799.429,36
1629637799.496,35
1629637799.529,34
1629637799.596,36
1629637799.629,31
1629637799.696,38
1629637799.729,38
1629637799.796,36
1629637799.829,34
1629637799.896,40
1629637799.929,35
1629637799.996,38
1629637800.029,38
1629637800.096,40
1629637800.129,38
1629637800.196,41
1629637800.229,40
1629637800.296,40
1629637800.329,32
1629637800.396,36
1629637800.429,30
1629637800.496,35
1629637800.529,35
1629637800.596,33
1629637800.629,30
1629637800.696,38
1629637800.729,40
1629637800.796,36
1629637800.829,35
1629637800.896,41
1629637800.929,39
1629637800.996,42
1629637801.029,38
1629637801.096,42
1629637801.129,38
1629637801.196,36
1629637801.229,35
1629637801.296,46
1629637801.329,43
1629637801.396,46
1629637801.429,45
1629637801.496,42
1629637801.529,43
1629637801.596,42
1629637801.629,44
1629637801.696,39
1629637801.729,39
1629637801.796,47
1629637801.829,46
1629637801.896,43
1629637801.929,42
1629637801.995,41
1629637802.029,43
1629637802.095,45
1629637802.129,45
1629637802.195,45
1629637802.229,43
1629637802.295,43
1629637802.329,46
1629637802.395,43
1629637802.429,39
1629637802.495,41
1629637802.529,39
1629637802.595,39
1629637802.629,44
1629637802.695,46
1629637802.729,43
1629637802.795,41
1629637802.829,41
1629637802.895,43
1629637802.929,44
1629637802.995,42
1629637803.029,41
1629637803.095,44
1629637803.129,44
1629637803.195,42
1629637803.229,42
1629637803.295,41
1629637803.329,39
1629637803.395,42
1629637803.429,42
1629637803.495,39
1629637803.529,41
1629637803.595,42
1629637803.629,44
1629637803.695,45
1629637803.729,45
1629637803.795,42
1629637803.829,41
1629637803.895,40
1629637803.929,37
1629637803.995,42
1629637804.029,42
1629637804.095,43
1629637804.129,43
1629637804.195,44
1629637804.229,40
1629637804.295,41
1629637804.329,42
1629637804.395,42
1629637804.429,40
1629637804.495,39
1629637804.529,42
1629637804.595,41
1629637804.629,43
1629637804.695,42
1629637804.728,41
1629637804.795,44
1629637804.828,45
1629637804.895,44
1629637804.928,40
1629637804.995,35
1629637805.028,38
1629637805.095,38
1629637805.128,41
1629637805.195,42
1629637805.228,42
1629637805.295,44
1629637805.328,42
1629637805.395,42
1629637805.428,40
1629637805.495,35
1629637805.528,39
1629637805.595,42
1629637805.628,44
1629637805.695,43
1629637805.728,41
1629637805.795,42
1629637805.828,41
1629637805.895,42
1629637805.928,43
1629637805.995,46
1629637806.028,44
1629637806.095,46
1629637806.128,42
1629637806.195,44
1629637806.228,41
1629637806.295,44
1629637806.328,45
1629637806.395,45
1629637806.428,42
1629637806.495,46
1629637806.528,45
1629637806.595,44
1629637806.628,45
1629637806.695,46
1629637806.728,46
1629637806.795,43
1629637806.828,46
1629637806.895,44
1629637806.928,41
1629637806.995,46
1629637807.028,46
1629637807.095,47
1629637807.128,47
1629637807.195,48
1629637807.228,43
1629637807.295,40
1629637807.328,45
1629637807.395,47
1629637807.428,46
1629637807.495,46
1629637807.528,39
1629637807.595,37
1629637807.628,37
1629637807.695,43
1629637807.728,46
1629637807.795,47
1629637807.828,48
1629637807.895,45
1629637807.928,47
1629637807.995,47
1629637808.028,48
1629637808.095,46
1629637808.128,46
1629637808.195,47
1629637808.228,37
1629637808.295,42
1629637808.328,38
1629637808.395,42
1629637808.428,45
1629637808.495,47
1629637808.528,43
1629637808.595,45
1629637808.628,46
1629637808.695,45
1629637808.728,45
1629637808.795,44
1629637808.828,44
1629637808.895,43
1629637808.928,40
1629637808.995,38
1629637809.028,40
1629637809.095,42
1629637809.128,38
1629637809.195,41
1629637809.228,44
1629637809.295,45
1629637809.328,45
1629637809.395,43
1629637809.428,47
1629637809.495,43
1629637809.528,42
1629637809.595,45
1629637809.628,47
1629637809.695,42
1629637809.728,40
1629637809.795,44
1629637809.828,46
1629637809.895,46
1629637809.928,46
1629637809.995,42
1629637810.028,43
1629637810.095,47
1629637810.128,45
1629637810.195,45
1629637810.228,42
1629637810.294,42
1629637810.328,42
1629637810.394,43
1629637810.428,41
1629637810.494,42
1629637810.528,43
1629637810.594,45
1629637810.628,46
1629637810.694,43
1629637810.728,39
1629637810.794,40
1629637810.828,39
1629637810.894,40
1629637810.928,39
1629637810.994,40
1629637811.028,43
1629637811.094,41
1629637811.128,42
1629637811.194,45
1629637811.228,44
1629637811.294,44
1629637811.328,42
1629637811.394,35
1629637811.428,35
1629637811.494,36
1629637811.528,38
1629637811.594,41
1629637811.628,41
1629637811.694,45
1629637811.728,44
1629637811.794,43
1629637811.828,40
1629637811.894,43
1629637811.928,43
1629637811.994,38
1629637812.028,40
1629637812.094,40
1629637812.128,42
1629637812.194,39
1629637812.228,43
1629637812.294,43
1629637812.328,39
1629637812.394,44
1629637812.428,45
1629637812.494,39
1629637812.528,37
1629637812.594,38
1629637812.628,37
1629637812.694,43
1629637812.728,42
1629637812.794,41
1629637812.828,40
1629637812.894,41
1629637812.928,43
1629637812.994,43
1629637813.028,41
1629637813.094,43
1629637813.127,42
1629637813.194,40
1629637813.227,39
1629637813.294,39
1629637813.327,40
1629637813.394,45
1629637813.427,43
1629637813.494,43
1629637813.527,39
1629637813.594,40
1629637813.627,43
1629637813.694,43
1629637813.727,41
1629637813.794,38
1629637813.827,36
1629637813.894,43
1629637813.927,44
1629637813.994,43
1629637814.027,41
1629637814.094,37
1629637814.127,38
1629637814.194,41
1629637814.227,42
1629637814.294,42
1629637814.327,42
1629637814.394,43
1629637814.427,35
1629637814.494,38
1629637814.527,43
1629637814.594,39
1629637814.627,42
1629637814.694,43
1629637814.727,37
1629637814.794,41
1629637814.827,41
1629637814.894,41
1629637814.927,40
1629637814.994,43
1629637815.027,42
1629637815.094,41
1629637815.127,43
1629637815.194,40
1629637815.227,42
1629637815.294,45
1629637815.327,44
1629637815.394,42
1629637815.427,41
1629637815.494,45
1629637815.527,43
1629637815.594,42
1629637815.627,44
1629637815.694,45
1629637815.727,43
1629637815.794,41
1629637815.827,43
1629637815.894,42
1629637815.927,40
1629637815.994,42
1629637816.027,41
1629637816.094,40
1629637816.127,41
1629637816.194,41
1629637816.227,40
1629637816.294,40
1629637816.327,40
1629637816.394,42
1629637816.427,40
1629637816.494,38
1629637816.527,36
1629637816.594,40
1629637816.627,40
1629637816.694,37
1629637816.727,38
1629637816.794,39
1629637816.827,38
1629637816.894,39
1629637816.927,41
1629637816.994,41
1629637817.027,44
1629637817.094,43
1629637817.127,41
1629637817.194,42
1629637817.227,43
1629637817.294,42
1629637817.327,38
1629637817.394,43
1629637817.427,41
1629637817.494,38
1629637817.527,40
1629637817.594,41
1629637817.627,38
1629637817.694,40
1629637817.727,43
1629637817.794,43
1629637817.827,44
1629637817.894,43
1629637817.927,40
1629637817.994,45
1629637818.027,41
1629637818.094,39
1629637818.127,41
1629637818.194,40
1629637818.227,39
1629637818.294,39
1629637818.327,42
1629637818.394,45
1629637818.427,45
1629637818.494,45
1629637818.527,42
1629637818.593,40
1629637818.627,38
1629637818.693,39
1629637818.727,41
1629637818.793,40
1629637818.827,41
1629637818.893,45
1629637818.927,46
1629637818.993,44
1629637819.027,41
1629637819.093,43
1629637819.127,46
1629637819.193,44
1629637819.227,45
1629637819.293,46
1629637819.327,47
1629637819.393,46
1629637819.427,47
1629637819.493,43
1629637819.527,43
1629637819.593,43
1629637819.627,41
1629637819.693,44
1629637819.727,44
1629637819.793,39
1629637819.827,38
1629637819.893,43
1629637819.927,42
1629637819.993,38
1629637820.027,35
1629637820.093,36
1629637820.127,41
1629637820.193,38
1629637820.227,39
1629637820.293,42
1629637820.327,41
1629637820.393,38
1629637820.427,36
1629637820.493,37
1629637820.527,36
1629637820.593,38
1629637820.627,41
1629637820.693,41
1629637820.726,39
1629637820.793,42
1629637820.826,36
1629637820.893,31
1629637820.926,33
1629637820.993,35
1629637821.026,33
1629637821.093,26
1629637821.126,28
1629637821.193,28
1629637821.226,34
1629637821.293,36
1629637821.326,36
1629637821.393,32
1629637821.426,34
1629637821.493,34
1629637821.526,32
1629637821.593,35
1629637821.626,32
1629637821.693,31
1629637821.726,31
1629637821.793,31
1629637821.826,28
1629637821.893,30
1629637821.926,33
1629637821.993,33
1629637822.026,29
1629637822.093,29
1629637822.126,30
1629637822.193,30
1629637822.226,26
1629637822.293,32
1629637822.326,33
1629637822.393,34
1629637822.426,39
1629637822.493,40
1629637822.526,41
1629637822.593,38
1629637822.626,38
1629637822.693,38
1629637822.726,40
1629637822.793,36
1629637822.826,37
1629637822.893,39
1629637822.926,39
1629637822.993,40
1629637823.026,40
1629637823.093,39
1629637823.126,39
1629637823.193,41
1629637823.226,38
1629637823.293,39
1629637823.326,39
1629637823.393,40
1629637823.426,42
1629637823.493,37
1629637823.526,37
1629637823.593,40
1629637823.626,40
1629637823.693,37
1629637823.726,37
1629637823.793,33
1629637823.826,39
1629637823.893,39
1629637823.926,35
1629637823.993,32
1629637824.026,27
1629637824.093,31
1629637824.126,31
1629637824.193,32
1629637824.226,32
1629637824.293,34
1629637824.326,32
1629637824.393,33
1629637824.426,32
1629637824.493,34
1629637824.526,33
1629637824.593,33
1629637824.626,31
1629637824.693,35
1629637824.726,35
1629637824.793,36
1629637824.826,35
1629637824.893,37
1629637824.926,41
1629637824.993,36
1629637825.026,36
1629637825.093,40
1629637825.126,40
1629637825.193,36
1629637825.226,34
1629637825.293,31
1629637825.326,27
1629637825.392,31
1629637825.426,33
1629637825.492,34
1629637825.526,34
1629637825.593,32
1629637825.626,32
1629637825.693,37
1629637825.726,38
1629637825.793,39
1629637825.826,38
1629637825.892,39
1629637825.926,41
1629637825.992,41
1629637826.026,41
1629637826.092,41
1629637826.126,40
1629637826.192,38
1629637826.226,37
1629637826.292,38
1629637826.326,38
1629637826.392,36
1629637826.426,42
1629637826.492,40
1629637826.526,40
1629637826.592,43
1629637826.626,43
1629637826.692,40
1629637826.726,39
1629637826.792,36
1629637826.826,38
1629637826.892,40
1629637826.926,39
1629637826.992,37
1629637827.026,41
1629637827.092,41
1629637827.126,42
1629637827.192,37
1629637827.226,40
1629637827.292,37
1629637827.326,40
1629637827.392,38
1629637827.426,37
1629637827.492,38
1629637827.526,34
1629637827.592,40
1629637827.626,39
1629637827.692,40
1629637827.726,37
1629637827.792,40
1629637827.826,40
1629637827.892,42
1629637827.926,39
1629637827.992,39
1629637828.025,39
1629637828.092,38
1629637828.125,38
1629637828.192,40
1629637828.225,39
1629637828.292,38
1629637828.325,37
1629637828.392,39
1629637828.425,37
1629637828.492,41
1629637828.525,42
1629637828.592,43
1629637828.625,41
1629637828.692,39
1629637828.725,44
1629637828.792,43
1629637828.825,43
1629637828.892,43
1629637828.925,40
1629637828.992,43
1629637829.025,44
1629637829.092,44
1629637829.125,45
1629637829.192,45
1629637829.225,46
1629637829.292,42
1629637829.325,42
1629637829.392,44
1629637829.425,44
1629637829.492,47
1629637829.525,46
1629637829.592,42
1629637829.625,41
1629637829.692,45
1629637829.725,45
1629637829.792,42
1629637829.825,43
1629637829.892,43
1629637829.925,46
1629637829.992,42
1629637830.025,44
1629637830.092,46
1629637830.125,43
1629637830.192,44
1629637830.225,47
1629637830.292,43
1629637830.325,41
1629637830.392,40
1629637830.425,41
1629637830.492,42
1629637830.525,43
1629637830.592,37
1629637830.625,27
1629637830.692,22
1629637830.725,23
1629637830.792,25
1629637830.825,27
1629637830.892,27
1629637830.925,30
1629637830.992,24
1629637831.025,29
1629637831.092,35
1629637831.125,35
1629637831.192,37
1629637831.225,35
1629637831.292,35
1629637831.325,37
1629637831.392,33
1629637831.425,33
1629637831.492,36
1629637831.525,33
1629637831.592,39
1629637831.625,34
1629637831.692,34
1629637831.725,40
1629637831.792,39
1629637831.825,40
1629637831.892,37
1629637831.925,36
1629637831.992,41
1629637832.025,40
1629637832.092,41
1629637832.125,39
1629637832.192,41
1629637832.225,41
1629637832.292,39
1629637832.325,36
1629637832.392,35
1629637832.425,38
1629637832.492,42
1629637832.525,42
1629637832.592,40
1629637832.625,40
1629637832.692,38
1629637832.725,36
1629637832.792,40
1629637832.825,40
1629637832.892,38
1629637832.925,38
1629637832.992,38
1629637833.025,37
1629637833.092,34
1629637833.125,34
1629637833.192,34
1629637833.225,35
1629637833.292,36
1629637833.325,37
1629637833.392,41
1629637833.425,39
1629637833.492,37
1629637833.525,38
1629637833.592,41
1629637833.625,40
1629637833.692,39
1629637833.725,35
1629637833.792,36
1629637833.825,39
1629637833.892,39
1629637833.925,41
1629637833.992,39
1629637834.025,38
1629637834.092,38
1629637834.125,41
1629637834.192,40
1629637834.225,39
1629637834.292,40
1629637834.325,36
1629637834.392,39
1629637834.425,38
1629637834.492,36
1629637834.525,35
1629637834.592,37
1629637834.625,34
1629637834.692,34
1629637834.725,35
1629637834.792,37
1629637834.825,33
1629637834.892,31
1629637834.925,36
1629637834.992,32
1629637835.025,31
1629637835.092,33
1629637835.125,40
1629637835.192,38
1629637835.225,39
1629637835.292,41
1629637835.325,40
1629637835.392,40
1629637835.425,42
1629637835.492,38
1629637835.525,41
1629637835.592,44
1629637835.625,44
1629637835.691,43
1629637835.725,40
1629637835.791,39
1629637835.825,41
1629637835.891,40
1629637835.925,39
1629637835.991,33
1629637836.025,34
1629637836.091,35
1629637836.125,37
1629637836.191,39
1629637836.225,36
1629637836.291,31
1629637836.325,32
1629637836.391,34
1629637836.425,36
1629637836.491,33
1629637836.525,29
1629637836.591,34
1629637836.625,36
1629637836.691,35
1629637836.725,30
1629637836.791,32
1629637836.825,29
1629637836.891,34
1629637836.925,41
1629637836.991,38
1629637837.025,38
1629637837.091,39
1629637837.125,35
1629637837.191,37
1629637837.225,32
1629637837.291,32
1629637837.325,36
1629637837.391,37
1629637837.425,37
1629637837.491,37
1629637837.525,38
1629637837.591,35
1629637837.625,33
1629637837.691,25
1629637837.725,29
1629637837.791,33
1629637837.825,39
1629637837.891,35
1629637837.925,36
1629637837.991,36
1629637838.025,38
1629637838.091,37
1629637838.125,35
1629637838.191,32
1629637838.224,35
1629637838.291,35
1629637838.324,36
1629637838.391,37
1629637838.424,36
1629637838.491,35
1629637838.524,37
1629637838.591,36
1629637838.624,34
1629637838.691,38
1629637838.724,37
1629637838.791,39
1629637838.824,41
1629637838.891,37
1629637838.924,38
1629637838.991,40
1629637839.024,39
1629637839.091,42
1629637839.124,41
1629637839.191,36
1629637839.224,37
1629637839.291,38
1629637839.324,39
1629637839.391,40
1629637839.424,39
1629637839.491,39
1629637839.524,41
1629637839.591,42
1629637839.624,39
1629637839.691,41
1629637839.724,40
1629637839.791,40
1629637839.824,38
1629637839.891,38
1629637839.924,34
1629637839.991,38
1629637840.024,35
1629637840.091,34
1629637840.124,35
1629637840.191,37
1629637840.224,39
1629637840.291,34
1629637840.324,38
1629637840.391,41
1629637840.424,41
1629637840.491,42
1629637840.524,42
1629637840.591,39
1629637840.624,39
1629637840.691,38
1629637840.724,39
1629637840.791,37
1629637840.824,35
1629637840.891,35
1629637840.924,35
1629637840.991,37
1629637841.024,38
1629637841.091,38
1629637841.124,36
1629637841.191,39
1629637841.224,42
1629637841.291,39
1629637841.324,37
1629637841.391,39
1629637841.424,34
1629637841.491,39
1629637841.524,41
1629637841.591,42
1629637841.624,41
1629637841.691,35
1629637841.724,29
1629637841.791,35
1629637841.824,42
1629637841.891,44
1629637841.924,41
1629637841.991,40
1629637842.024,34
1629637842.091,38
1629637842.124,41
1629637842.191,38
1629637842.224,38
1629637842.291,35
1629637842.324,37
1629637842.391,34
1629637842.424,33
1629637842.491,30
1629637842.524,33
1629637842.591,32
1629637842.624,32
1629637842.691,33
1629637842.724,32
1629637842.791,33
1629637842.824,36
1629637842.891,34
1629637842.924,32
1629637842.991,39
1629637843.024,39
1629637843.091,34
1629637843.124,30
1629637843.191,33
1629637843.224,32
1629637843.291,34
1629637843.324,36
1629637843.391,35
1629637843.424,37
1629637843.491,39
1629637843.524,37
1629637843.591,40
1629637843.624,32
1629637843.691,35
1629637843.724,40
1629637843.791,39
1629637843.824,39
1629637843.891,36
1629637843.924,36
1629637843.99,37
1629637844.024,32
1629637844.09,38
1629637844.124,40
1629637844.19,36
1629637844.224,31
1629637844.29,30
1629637844.324,35
1629637844.39,34
1629637844.424,37
1629637844.49,40
1629637844.524,40
1629637844.59,37
1629637844.624,38
1629637844.69,37
1629637844.724,40
1629637844.79,42
1629637844.824,41
1629637844.89,41
1629637844.924,39
1629637844.99,37
1629637845.024,33
1629637845.09,38
1629637845.124,33
1629637845.19,32
1629637845.224,34
1629637845.29,37
1629637845.324,37
1629637845.39,45
1629637845.424,46
1629637845.49,38
1629637845.524,39
1629637845.59,41
1629637845.624,43
1629637845.69,40
1629637845.724,39
1629637845.79,41
1629637845.824,44
1629637845.89,41
1629637845.924,40
1629637845.99,41
1629637846.024,42
1629637846.09,45
1629637846.124,41
1629637846.19,45
1629637846.224,42
1629637846.29,42
1629637846.324,41
1629637846.39,44
1629637846.424,38
1629637846.49,42
1629637846.524,43
1629637846.59,42
1629637846.624,39
1629637846.69,33
1629637846.724,30
1629637846.79,37
1629637846.824,36
1629637846.89,34
1629637846.924,30
1629637846.99,33
1629637847.024,39
1629637847.09,38
1629637847.124,39
1629637847.19,40
1629637847.224,41
1629637847.29,41
1629637847.324,39
1629637847.39,41
1629637847.423,39
1629637847.49,43
1629637847.523,40
1629637847.59,43
1629637847.623,43
1629637847.69,39
1629637847.723,39
1629637847.79,39
1629637847.823,40
1629637847.89,41
1629637847.923,40
1629637847.99,39
1629637848.023,41
1629637848.09,41
1629637848.123,42
1629637848.19,39
1629637848.223,41
1629637848.29,41
1629637848.323,42
1629637848.39,43
1629637848.423,44
1629637848.49,44
1629637848.523,43
1629637848.59,45
1629637848.623,40
1629637848.69,44
1629637848.723,44
1629637848.79,46
1629637848.823,42
1629637848.89,45
1629637848.923,43
1629637848.99,43
1629637849.023,41
1629637849.09,43
1629637849.123,40
1629637849.19,44
1629637849.223,44
1629637849.29,42
1629637849.323,40
1629637849.39,39
1629637849.423,39
1629637849.49,44
1629637849.523,42
1629637849.59,43
1629637849.623,39
1629637849.69,32
1629637849.723,40
1629637849.79,44
1629637849.823,41
1629637849.89,39
1629637849.923,39
1629637849.99,42
1629637850.023,43
1629637850.09,42
1629637850.123,40
1629637850.19,39
1629637850.223,38
1629637850.29,40
1629637850.323,38
1629637850.39,35
1629637850.423,37
1629637850.49,40
1629637850.523,36
1629637850.59,40
1629637850.623,40
1629637850.69,38
1629637850.723,37
1629637850.79,36
1629637850.823,40
1629637850.89,39
1629637850.923,36
1629637850.99,36
1629637851.023,28
1629637851.09,35
1629637851.123,37
1629637851.19,39
1629637851.223,42
1629637851.29,42
1629637851.323,41
1629637851.39,40
1629637851.423,40
1629637851.49,37
1629637851.523,39
1629637851.59,31
1629637851.623,35
1629637851.69,40
1629637851.723,41
1629637851.79,41
1629637851.823,41
1629637851.89,43
1629637851.923,39
1629637851.99,40
1629637852.023,38
1629637852.09,39
1629637852.123,41
1629637852.19,42
1629637852.223,44
1629637852.29,44
1629637852.323,43
1629637852.39,45
1629637852.423,44
1629637852.49,43
1629637852.523,43
1629637852.59,44
1629637852.623,43
1629637852.69,42
1629637852.723,43
1629637852.79,43
1629637852.823,44
1629637852.89,45
1629637852.923,44
1629637852.99,39
1629637853.023,42
1629637853.09,42
1629637853.123,44
1629637853.189,37
1629637853.223,39
1629637853.289,43
1629637853.323,43
1629637853.389,42
1629637853.423,43
1629637853.489,43
1629637853.523,42
1629637853.589,43
1629637853.623,41
1629637853.689,43
1629637853.723,41
1629637853.789,46
1629637853.823,47
1629637853.889,44
1629637853.923,41
1629637853.989,42
1629637854.023,40
1629637854.089,42
1629637854.123,43
1629637854.189,43
1629637854.223,44
1629637854.289,44
1629637854.323,41
1629637854.389,47
1629637854.423,46
1629637854.489,46
1629637854.523,45
1629637854.589,43
1629637854.623,44
1629637854.689,44
1629637854.723,44
1629637854.789,46
1629637854.823,47
1629637854.889,46
1629637854.923,43
1629637854.989,47
1629637855.023,48
1629637855.089,48
1629637855.123,47
1629637855.189,46
1629637855.223,47
1629637855.289,46
1629637855.323,47
1629637855.389,48
1629637855.423,45
1629637855.489,43
1629637855.523,44
1629637855.589,44
1629637855.623,45
1629637855.689,47
1629637855.722,42
1629637855.789,42
1629637855.822,43
1629637855.889,39
1629637855.922,41
1629637855.989,46
1629637856.022,41
1629637856.089,40
1629637856.122,43
1629637856.189,44
1629637856.222,42
1629637856.289,40
1629637856.322,42
1629637856.389,42
1629637856.422,41
1629637856.489,40
1629637856.522,39
1629637856.589,40
1629637856.622,39
1629637856.689,38
1629637856.722,41
1629637856.789,40
1629637856.822,40
1629637856.889,38
1629637856.922,38
1629637856.989,38
1629637857.022,39
1629637857.089,41
1629637857.122,38
1629637857.189,38
1629637857.222,39
1629637857.289,41
1629637857.322,41
1629637857.389,39
1629637857.422,33
1629637857.489,36
1629637857.522,34
1629637857.589,34
1629637857.622,34
1629637857.689,37
1629637857.722,38
1629637857.789,39
1629637857.822,36
1629637857.889,41
1629637857.922,40
1629637857.989,40
1629637858.022,39
1629637858.088,37
1629637858.122,37
1629637858.188,39
1629637858.222,41
1629637858.288,39
1629637858.322,37
1629637858.388,41
1629637858.422,42
1629637858.488,40
1629637858.522,39
1629637858.588,39
1629637858.622,40
1629637858.688,42
1629637858.722,44
1629637858.788,40
1629637858.822,40
1629637858.888,40
1629637858.921,42
1629637858.988,41
1629637859.021,41
1629637859.088,41
1629637859.121,39
1629637859.188,41
1629637859.221,43
1629637859.288,44
1629637859.321,44
1629637859.388,41
1629637859.421,40
1629637859.488,37
1629637859.521,38
1629637859.588,39
1629637859.621,37
1629637859.688,42
1629637859.721,42
1629637859.788,37
1629637859.821,24
1629637859.888,26
1629637859.921,34
1629637859.988,34
1629637860.021,37
1629637860.088,34
1629637860.121,35
1629637860.188,40
1629637860.221,42
1629637860.288,44
1629637860.321,42
1629637860.388,40
1629637860.421,39
1629637860.488,40
1629637860.521,40
1629637860.588,40
1629637860.621,41
1629637860.688,43
1629637860.721,42
1629637860.788,42
1629637860.821,42
1629637860.888,42
1629637860.921,43
1629637860.988,41
1629637861.021,40
1629637861.088,43
1629637861.121,41
1629637861.188,38
1629637861.221,38
1629637861.288,40
1629637861.321,41
1629637861.388,39
1629637861.421,37
1629637861.488,36
1629637861.521,38
1629637861.588,39
1629637861.621,40
1629637861.688,40
1629637861.721,39
1629637861.788,38
1629637861.821,36
1629637861.888,36
1629637861.921,38
1629637861.988,37
1629637862.021,36
1629637862.088,34
1629637862.121,36
1629637862.188,33
1629637862.221,30
1629637862.288,34
1629637862.321,38
1629637862.388,38
1629637862.421,34
1629637862.488,33
1629637862.521,31
1629637862.588,30
1629637862.621,32
1629637862.688,32
1629637862.721,36
1629637862.788,36
1629637862.821,29
1629637862.888,28
1629637862.921,28
1629637862.988,29
1629637863.021,31
1629637863.088,26
1629637863.121,27
1629637863.188,27
1629637863.221,28
1629637863.288,28
1629637863.321,29
1629637863.388,26
1629637863.421,25
1629637863.488,26
1629637863.521,28
1629637863.588,30
1629637863.621,31
1629637863.688,31
1629637863.721,31
1629637863.788,33
1629637863.821,32
1629637863.888,32
1629637863.921,34
1629637863.988,32
1629637864.021,32
1629637864.088,32
1629637864.121,27
1629637864.188,28
1629637864.221,32
1629637864.288,26
1629637864.321,24
1629637864.388,29
1629637864.421,31
1629637864.488,29
1629637864.521,28
1629637864.588,30
1629637864.621,33
1629637864.688,38
1629637864.721,34
1629637864.788,35
1629637864.821,34
1629637864.888,33
1629637864.921,36
1629637864.988,34
1629637865.021,35
1629637865.088,33
1629637865.121,31
1629637865.188,34
1629637865.221,34
1629637865.288,32
1629637865.321,32
1629637865.388,29
1629637865.421,34
1629637865.488,32
1629637865.521,30
1629637865.588,30
1629637865.621,28
1629637865.687,31
1629637865.721,28
1629637865.787,30
1629637865.821,32
1629637865.887,30
1629637865.921,30
1629637865.987,35
1629637866.021,36
1629637866.087,30
1629637866.121,30
1629637866.187,33
1629637866.221,33
1629637866.287,28
1629637866.321,32
1629637866.387,33
1629637866.421,32
1629637866.487,31
1629637866.521,32
1629637866.587,33
1629637866.621,35
1629637866.687,33
1629637866.721,33
1629637866.787,34
1629637866.821,32
1629637866.887,30
1629637866.921,30
1629637866.987,30
1629637867.021,30
1629637867.087,27
1629637867.121,27
1629637867.187,25
1629637867.221,23
1629637867.287,26
1629637867.321,25
1629637867.387,29
1629637867.421,30
1629637867.487,30
1629637867.521,31
1629637867.587,32
1629637867.621,31
1629637867.687,28
1629637867.721,29
1629637867.787,32
1629637867.821,33
1629637867.887,38
1629637867.921,36
1629637867.987,35
1629637868.021,36
1629637868.087,34
1629637868.12,34
1629637868.187,35
1629637868.22,38
1629637868.287,38
1629637868.32,36
1629637868.387,32
1629637868.42,33
1629637868.487,31
1629637868.52,34
1629637868.587,34
1629637868.62,36
1629637868.687,36
1629637868.72,36
1629637868.787,36
1629637868.82,37
1629637868.887,37
1629637868.92,39
1629637868.987,34
1629637869.02,33
1629637869.087,35
1629637869.12,36
1629637869.187,35
1629637869.22,34
1629637869.287,30
1629637869.32,34
1629637869.387,38
1629637869.42,40
1629637869.487,36
1629637869.52,40
1629637869.587,38
1629637869.62,40
1629637869.687,41
1629637869.72,40
1629637869.787,38
1629637869.82,36
1629637869.887,34
1629637869.92,36
1629637869.987,34
1629637870.02,35
1629637870.087,41
1629637870.12,38
1629637870.187,36
1629637870.22,35
1629637870.287,33
1629637870.32,33
1629637870.387,30
1629637870.42,32
1629637870.487,33
1629637870.52,30
1629637870.587,32
1629637870.62,34
1629637870.687,36
1629637870.72,36
1629637870.787,33
1629637870.82,35
1629637870.887,35
1629637870.92,35
1629637870.987,35
1629637871.02,31
1629637871.087,31
1629637871.12,35
1629637871.187,34
1629637871.22,34
1629637871.287,33
1629637871.32,37
1629637871.387,38
1629637871.42,38
1629637871.487,41
1629637871.52,43
1629637871.587,44
