timestamp,cpu,mem
0.18343,0.0,4.3999999999999995
0.862896,0.0,4.3999999999999995
1.547676,0.0,4.3999999999999995
2.237033,0.0,4.3999999999999995
2.915468,0.0,4.3999999999999995
3.603584,94.1,4.5
4.291498,100.0,4.5
4.979012,88.2,4.5
5.66229,87.5,4.5
6.349178,87.5,4.5
7.029677,87.5,4.5
7.722458,93.8,4.5
8.403821,100.0,4.5
9.088724,93.8,4.5
9.773531,87.5,4.6
10.459851,93.8,4.6
11.142308,87.5,4.6
11.827487,87.5,4.6
12.506749,88.2,4.6
13.197525,82.4,4.6
13.890088,106.2,4.6
14.577376,93.8,4.6
15.260662,93.8,4.6
15.945683,93.8,4.6
16.636157,94.1,4.6
17.31907,94.1,4.6
18.001863,94.1,4.6
18.681357,100.0,4.6
19.371108,106.2,4.6
20.056953,94.1,4.6
20.739218,93.8,4.7
21.428061,100.0,4.7
22.109149,100.0,4.7
22.78956,106.2,4.7
23.467771,100.0,4.8
24.148797,94.1,4.8
24.831714,88.2,4.8
25.513683,93.8,4.8
26.194675,93.8,4.8
26.875395,93.8,4.8
27.556441,94.1,4.8
28.240271,94.1,4.8
28.931015,100.0,4.8
29.608532,100.0,4.8
30.287026,93.8,4.8
30.964182,100.0,4.8999999999999995
31.650671,94.1,4.8999999999999995
32.331259,100.0,4.8999999999999995
33.011385,100.0,4.8999999999999995
33.700415,112.5,4.8999999999999995
34.39011,106.2,4.8999999999999995
35.073343,93.8,4.8999999999999995
35.756711,100.0,4.8999999999999995
36.433389,100.0,4.8999999999999995
37.116702,100.0,4.8999999999999995
37.80612,100.0,4.8999999999999995
38.487085,88.2,4.8999999999999995
39.171908,100.0,4.8999999999999995
39.855434,100.0,4.8999999999999995
40.545571,100.0,4.8999999999999995
41.226496,106.2,4.8999999999999995
41.915114,106.2,4.8999999999999995
42.60523,94.1,4.8999999999999995
43.290885,100.0,4.8999999999999995
43.971137,100.0,4.8999999999999995
44.653186,100.0,4.8999999999999995
45.334981,100.0,4.8999999999999995
46.024369,94.1,4.8999999999999995
46.706497,106.2,4.8999999999999995
47.388752,94.1,4.8999999999999995
48.076262,100.0,4.8999999999999995
48.759772,94.1,4.8999999999999995
49.44944,106.2,4.8999999999999995
50.133461,93.8,4.8999999999999995
50.813322,100.0,4.8999999999999995
51.494789,100.0,4.8999999999999995
52.180697,88.2,4.8999999999999995
52.862397,100.0,5.0
53.545772,100.0,5.0
54.225461,100.0,5.0
54.908334,100.0,5.0
55.596525,106.2,5.0
56.277285,100.0,5.0
56.966779,94.1,5.0
57.648446,100.0,5.0
58.328995,94.1,5.0
59.014093,100.0,5.0
59.691466,100.0,5.0
60.376321,106.2,5.0
61.061621,94.1,5.0
61.752403,94.1,5.0
62.440503,100.0,5.0
63.121441,93.8,5.0
63.800205,106.2,5.0
64.487063,100.0,5.0
65.169999,94.1,5.0
65.849655,106.2,5.0
66.534538,100.0,5.0
67.217991,88.2,5.0
67.908598,100.0,5.0
68.584634,100.0,5.0
69.268183,100.0,5.0
69.953415,88.2,5.0
70.644074,100.0,5.0
71.324764,100.0,5.0
72.002436,100.0,5.0
72.68995,100.0,5.0
73.377252,100.0,5.0
74.055303,100.0,5.0
74.73837,106.2,5.0
75.420175,94.1,5.0
76.105845,100.0,5.0
76.791611,100.0,5.0
77.46939,100.0,5.0
78.146191,100.0,5.0
78.824307,93.8,5.0
79.512158,100.0,5.0
80.196661,93.8,5.1
80.882443,94.1,5.1
81.565296,106.2,5.1
82.253383,100.0,5.1
82.935707,100.0,5.1
83.617692,100.0,5.1
84.303865,100.0,5.1
84.988935,100.0,5.1
85.674462,100.0,5.1
86.356688,100.0,5.1
87.034134,100.0,5.1
87.717629,94.1,5.1
88.410037,106.2,5.1
89.094407,100.0,5.1
89.784764,94.1,5.1
90.464587,106.2,5.1
91.158497,94.1,5.1
91.848293,100.0,5.1
92.531637,100.0,5.1
93.21381,106.2,5.1
93.90274,88.2,5.1
94.591282,88.2,5.1
95.274872,100.0,5.1
95.959622,94.1,5.1
96.644973,100.0,5.1
97.339098,100.0,5.1
98.019866,100.0,5.1
98.701511,93.8,5.1
99.380693,100.0,5.1
100.070886,100.0,5.1
100.763197,88.2,5.1
101.446974,100.0,5.1
102.133216,94.1,5.1
102.815572,106.2,5.1
103.504665,100.0,5.1
104.185415,100.0,5.1
104.86543,106.2,5.1
105.547702,106.2,5.1
106.230101,100.0,5.1
106.917028,100.0,5.1
107.606566,94.1,5.1
108.286757,94.1,5.1
108.970965,94.1,5.1
109.656146,106.2,5.2
110.344783,100.0,5.2
111.024122,100.0,5.2
111.710106,100.0,5.2
112.404137,100.0,5.2
113.087244,106.2,5.2
113.772626,100.0,5.2
114.451773,100.0,5.2
115.137972,93.8,5.2
115.824818,94.1,5.2
116.509298,100.0,5.2
117.191872,93.8,5.2
117.878418,100.0,5.2
118.562379,100.0,5.2
119.251036,88.2,5.2
119.94265,100.0,5.2
120.624732,100.0,5.2
121.305853,100.0,5.2
121.994169,88.2,5.2
122.682017,94.1,5.2
123.363936,93.8,5.2
124.058199,88.2,5.2
124.748067,94.1,5.2
125.43571,94.1,5.2
126.126164,100.0,5.2
126.803436,93.8,5.2
127.49282,88.2,5.2
128.180017,112.4,5.2
128.86145,100.0,5.2
129.550204,106.2,5.2
130.243152,100.0,5.2
130.932426,106.2,5.2
131.616213,100.0,5.2
132.296724,93.8,5.2
132.987806,100.0,5.2
133.674161,94.1,5.2
134.352043,100.0,5.2
135.034961,100.0,5.2
135.71864,100.0,5.2
136.402246,100.0,5.2
137.084303,106.2,5.2
137.768159,106.2,5.2
138.447154,94.1,5.2
139.130041,88.2,5.2
139.815281,106.2,5.2
140.49682,93.8,5.2
141.176265,100.0,5.2
141.8575,100.0,5.2
142.549466,106.2,5.2
143.231852,93.8,5.2
143.92691,105.9,5.2
144.609293,100.0,5.2
145.297752,93.8,5.2
145.980323,94.1,5.2
146.661753,106.2,5.2
147.342919,106.2,5.2
148.024789,100.0,5.2
148.709189,93.8,5.2
149.386401,106.2,5.2
150.085014,94.1,5.2
150.761649,93.8,5.2
151.453959,100.0,5.2
152.142908,100.0,5.2
152.823405,93.8,5.2
153.50922,100.0,5.2
154.189078,100.0,5.2
154.879805,100.0,5.2
155.555992,100.0,5.2
156.237007,106.2,5.2
156.91923,94.1,5.2
157.601953,93.8,5.2
158.285425,100.0,5.2
158.965886,100.0,5.2
159.649659,93.8,5.2
160.338506,100.0,5.2
161.027949,94.1,5.2
161.710496,88.2,5.2
162.394273,100.0,5.2
163.079517,100.0,5.2
163.776744,100.0,5.2
164.458638,94.1,5.2
165.153041,100.0,5.2
165.838541,100.0,5.2
166.537891,100.0,5.2
167.220464,100.0,5.2
167.90828,106.2,5.2
168.587455,88.2,5.2
169.279129,100.0,5.2
169.95855,100.0,5.2
170.644325,100.0,5.2
171.330934,106.2,5.2
172.016727,106.2,5.2
172.706132,106.2,5.2
173.386768,94.1,5.2
174.068659,100.0,5.2
174.748683,100.0,5.2
175.442392,100.0,5.2
176.122141,100.0,5.2
176.802407,100.0,5.2
177.481701,106.2,5.2
178.17031,93.8,5.2
178.868398,94.1,5.2
179.549769,100.0,5.2
180.233342,100.0,5.2
180.920169,100.0,5.2
181.611903,100.0,5.2
182.290977,93.8,5.2
182.974229,100.0,5.2
183.65475,100.0,5.2
184.345356,88.2,5.2
185.03789,105.9,5.2
185.717099,94.1,5.2
186.39975,94.1,5.2
187.082887,106.2,5.2
187.779337,100.0,5.2
188.462972,93.8,5.2
189.145938,106.2,5.2
189.828914,100.0,5.2
190.513356,94.1,5.2
191.198791,100.0,5.2
191.880592,100.0,5.2
192.566028,100.0,5.2
193.248557,100.0,5.2
193.931101,106.2,5.2
194.611566,100.0,5.2
195.299472,106.2,5.2
195.979947,93.8,5.2
196.659085,93.8,5.1
197.337322,100.0,5.1
198.017012,47.1,5.1
198.699297,0.0,5.1
199.382385,0.0,5.1
200.063018,0.0,5.1
200.746992,0.0,5.1
201.427824,0.0,5.1
