timestamp,tracked_features
1629637697.141,46
1629637697.174,40
1629637697.241,44
1629637697.274,44
1629637697.341,45
1629637697.374,46
1629637697.441,46
1629637697.474,42
1629637697.541,40
1629637697.574,43
1629637697.641,45
1629637697.674,43
1629637697.741,45
1629637697.774,42
1629637697.84,41
1629637697.874,44
1629637697.94,38
1629637697.974,39
1629637698.04,40
1629637698.074,39
1629637698.14,38
1629637698.174,39
1629637698.24,42
1629637698.274,45
1629637698.34,44
1629637698.374,43
1629637698.44,42
1629637698.474,42
1629637698.54,42
1629637698.574,42
1629637698.64,39
1629637698.674,37
1629637698.74,41
1629637698.774,42
1629637698.84,41
1629637698.874,42
1629637698.94,41
1629637698.974,40
1629637699.04,36
1629637699.074,41
1629637699.14,38
1629637699.174,39
1629637699.24,37
1629637699.274,39
1629637699.34,38
1629637699.374,43
1629637699.44,42
1629637699.474,40
1629637699.54,38
1629637699.574,36
1629637699.64,41
1629637699.674,42
1629637699.74,44
1629637699.774,43
1629637699.84,44
1629637699.874,44
1629637699.94,44
1629637699.974,45
1629637700.04,39
1629637700.074,40
1629637700.14,43
1629637700.174,40
1629637700.24,43
1629637700.274,43
1629637700.34,43
1629637700.373,43
1629637700.44,39
1629637700.473,43
1629637700.54,44
1629637700.573,42
1629637700.64,41
1629637700.673,41
1629637700.74,44
1629637700.773,41
1629637700.84,40
1629637700.873,37
1629637700.94,39
1629637700.973,39
1629637701.04,39
1629637701.073,40
1629637701.14,46
1629637701.173,37
1629637701.24,39
1629637701.273,39
1629637701.34,43
1629637701.373,41
1629637701.44,38
1629637701.473,39
1629637701.54,41
1629637701.573,40
1629637701.64,42
1629637701.673,43
1629637701.74,42
1629637701.773,43
1629637701.84,38
1629637701.873,38
1629637701.94,37
1629637701.973,35
1629637702.04,39
1629637702.073,40
1629637702.14,38
1629637702.173,36
1629637702.24,37
1629637702.273,34
1629637702.34,32
1629637702.373,36
1629637702.44,37
1629637702.473,35
1629637702.54,31
1629637702.573,33
1629637702.64,31
1629637702.673,27
1629637702.74,30
1629637702.773,32
1629637702.84,39
1629637702.873,40
1629637702.94,38
1629637702.973,37
1629637703.04,39
1629637703.073,40
1629637703.14,41
1629637703.173,40
1629637703.24,41
1629637703.273,39
1629637703.34,41
1629637703.373,40
1629637703.44,39
1629637703.473,39
1629637703.54,39
1629637703.573,39
1629637703.64,33
1629637703.673,34
1629637703.74,39
1629637703.773,38
1629637703.84,36
1629637703.873,37
1629637703.94,37
1629637703.973,40
1629637704.04,42
1629637704.073,38
1629637704.14,41
1629637704.173,42
1629637704.24,40
1629637704.273,37
1629637704.34,37
1629637704.373,32
1629637704.44,36
1629637704.473,36
1629637704.54,36
1629637704.573,33
1629637704.64,34
1629637704.673,36
1629637704.74,34
1629637704.773,33
1629637704.84,36
1629637704.873,36
1629637704.94,36
1629637704.973,35
1629637705.04,38
1629637705.073,35
1629637705.14,34
1629637705.173,38
1629637705.24,38
1629637705.273,39
1629637705.34,39
1629637705.373,38
1629637705.44,36
1629637705.473,37
1629637705.54,34
1629637705.573,37
1629637705.639,36
1629637705.673,35
1629637705.739,36
1629637705.773,37
1629637705.839,37
1629637705.873,37
1629637705.939,38
1629637705.973,38
1629637706.039,41
1629637706.073,40
1629637706.139,41
1629637706.173,36
1629637706.239,38
1629637706.273,39
1629637706.339,38
1629637706.373,37
1629637706.439,38
1629637706.473,34
1629637706.539,35
1629637706.573,40
1629637706.639,33
1629637706.673,35
1629637706.739,36
1629637706.773,34
1629637706.839,35
1629637706.873,37
1629637706.939,39
1629637706.973,36
1629637707.039,36
1629637707.073,37
1629637707.139,33
1629637707.173,32
1629637707.239,31
1629637707.273,31
1629637707.339,33
1629637707.373,33
1629637707.439,36
1629637707.473,35
1629637707.539,32
1629637707.573,31
1629637707.639,34
1629637707.673,39
1629637707.739,38
1629637707.773,35
1629637707.839,37
1629637707.873,38
1629637707.939,35
1629637707.973,33
1629637708.039,33
1629637708.073,32
1629637708.139,36
1629637708.172,32
1629637708.239,34
1629637708.273,35
1629637708.339,35
1629637708.373,35
1629637708.439,37
1629637708.473,36
1629637708.539,36
1629637708.573,36
1629637708.639,39
1629637708.672,36
1629637708.739,36
1629637708.773,34
1629637708.839,35
1629637708.872,35
1629637708.939,33
1629637708.972,28
1629637709.039,24
1629637709.073,27
1629637709.139,27
1629637709.173,26
1629637709.239,26
1629637709.273,28
1629637709.339,32
1629637709.373,29
1629637709.439,29
1629637709.473,26
1629637709.539,29
1629637709.573,30
1629637709.639,33
1629637709.673,34
1629637709.739,31
1629637709.773,35
1629637709.839,34
1629637709.873,35
1629637709.939,33
1629637709.973,34
1629637710.039,40
1629637710.072,40
1629637710.139,38
1629637710.172,36
1629637710.239,36
1629637710.272,38
1629637710.339,37
1629637710.372,34
1629637710.439,31
1629637710.472,28
1629637710.539,32
1629637710.572,31
1629637710.639,34
1629637710.672,32
1629637710.739,34
1629637710.772,35
1629637710.839,31
1629637710.872,36
1629637710.939,35
1629637710.972,36
1629637711.039,34
1629637711.072,34
1629637711.139,34
1629637711.172,33
1629637711.239,31
1629637711.272,35
1629637711.339,31
1629637711.372,33
1629637711.439,33
1629637711.472,32
1629637711.539,34
1629637711.572,34
1629637711.639,33
1629637711.672,31
1629637711.739,32
1629637711.772,30
1629637711.839,36
1629637711.872,36
1629637711.939,36
1629637711.972,38
1629637712.039,40
1629637712.072,42
1629637712.139,42
1629637712.172,42
1629637712.239,41
1629637712.272,43
1629637712.339,40
1629637712.372,38
1629637712.439,40
1629637712.472,41
1629637712.539,37
1629637712.572,38
1629637712.639,38
1629637712.672,39
1629637712.739,36
1629637712.772,37
1629637712.839,41
1629637712.872,41
1629637712.939,41
1629637712.972,40
1629637713.039,39
1629637713.072,40
1629637713.139,41
1629637713.172,38
1629637713.239,40
1629637713.272,42
1629637713.339,43
1629637713.372,43
1629637713.439,38
1629637713.472,37
1629637713.539,44
1629637713.572,42
1629637713.639,43
1629637713.672,42
1629637713.739,38
1629637713.772,37
1629637713.838,39
1629637713.872,41
1629637713.938,43
1629637713.972,42
1629637714.038,42
1629637714.072,45
1629637714.138,44
1629637714.172,44
1629637714.238,42
1629637714.272,43
1629637714.338,46
1629637714.372,45
1629637714.438,44
1629637714.472,45
1629637714.538,46
1629637714.572,44
1629637714.638,42
1629637714.672,43
1629637714.738,45
1629637714.772,44
1629637714.838,44
1629637714.872,46
1629637714.938,43
1629637714.972,44
1629637715.038,44
1629637715.072,42
1629637715.138,39
1629637715.172,39
1629637715.238,42
1629637715.272,44
1629637715.338,43
1629637715.372,42
1629637715.438,44
1629637715.472,40
1629637715.538,38
1629637715.572,40
1629637715.638,39
1629637715.672,37
1629637715.738,39
1629637715.772,41
1629637715.838,44
1629637715.872,45
1629637715.938,43
1629637715.972,44
1629637716.038,45
1629637716.072,45
1629637716.138,46
1629637716.172,45
1629637716.238,44
1629637716.272,45
1629637716.338,41
1629637716.372,41
1629637716.438,40
1629637716.472,39
1629637716.538,42
1629637716.572,45
1629637716.638,43
1629637716.672,42
1629637716.738,45
1629637716.772,46
1629637716.838,44
1629637716.872,44
1629637716.938,45
1629637716.972,43
1629637717.038,40
1629637717.071,42
1629637717.138,48
1629637717.171,49
1629637717.238,47
1629637717.271,45
1629637717.338,46
1629637717.371,45
1629637717.438,43
1629637717.471,44
1629637717.538,43
1629637717.571,43
1629637717.638,43
1629637717.671,43
1629637717.738,44
1629637717.771,41
1629637717.838,42
1629637717.871,41
1629637717.938,41
1629637717.971,44
1629637718.038,43
1629637718.071,42
1629637718.138,45
1629637718.171,43
1629637718.238,41
1629637718.271,43
1629637718.338,40
1629637718.371,40
1629637718.438,44
1629637718.471,42
1629637718.538,42
1629637718.571,44
1629637718.638,42
1629637718.671,45
1629637718.738,44
1629637718.771,42
1629637718.838,41
1629637718.871,39
1629637718.938,43
1629637718.971,43
1629637719.038,42
1629637719.071,41
1629637719.138,41
1629637719.171,39
1629637719.238,41
1629637719.271,40
1629637719.338,39
1629637719.371,41
1629637719.438,41
1629637719.471,40
1629637719.538,40
1629637719.571,41
1629637719.638,42
1629637719.671,42
1629637719.738,43
1629637719.771,45
1629637719.838,42
1629637719.871,42
1629637719.938,44
1629637719.971,38
1629637720.038,37
1629637720.071,39
1629637720.138,38
1629637720.171,42
1629637720.238,40
1629637720.271,43
1629637720.338,44
1629637720.371,45
1629637720.438,42
1629637720.471,42
1629637720.538,43
1629637720.571,42
1629637720.638,42
1629637720.671,41
1629637720.738,40
1629637720.771,41
1629637720.838,42
1629637720.871,41
1629637720.938,40
1629637720.971,39
1629637721.038,39
1629637721.071,38
1629637721.138,39
1629637721.171,37
1629637721.238,34
1629637721.271,37
1629637721.338,34
1629637721.371,35
1629637721.438,33
1629637721.471,35
1629637721.538,35
1629637721.571,37
1629637721.638,38
1629637721.671,39
1629637721.737,39
1629637721.771,38
1629637721.837,34
1629637721.871,36
1629637721.937,40
1629637721.971,37
1629637722.037,36
1629637722.071,36
1629637722.137,37
1629637722.171,35
1629637722.237,33
1629637722.271,36
1629637722.337,37
1629637722.371,37
1629637722.437,35
1629637722.471,35
1629637722.537,34
1629637722.571,33
1629637722.637,34
1629637722.671,34
1629637722.737,31
1629637722.771,31
1629637722.837,33
1629637722.871,31
1629637722.937,35
1629637722.971,33
1629637723.037,35
1629637723.071,36
1629637723.137,36
1629637723.171,34
1629637723.237,36
1629637723.271,36
1629637723.337,35
1629637723.371,35
1629637723.437,34
1629637723.471,36
1629637723.537,37
1629637723.571,36
1629637723.637,35
1629637723.671,32
1629637723.737,32
1629637723.771,37
1629637723.837,35
1629637723.871,34
1629637723.937,34
1629637723.971,33
1629637724.037,34
1629637724.071,32
1629637724.137,32
1629637724.171,34
1629637724.237,30
1629637724.271,31
1629637724.337,31
1629637724.371,33
1629637724.437,33
1629637724.471,34
1629637724.537,32
1629637724.571,30
1629637724.637,30
1629637724.671,30
1629637724.737,28
1629637724.771,27
1629637724.837,31
1629637724.87,30
1629637724.937,27
1629637724.97,26
1629637725.037,27
1629637725.07,30
1629637725.137,30
1629637725.17,28
1629637725.237,28
1629637725.27,25
1629637725.337,23
1629637725.37,25
1629637725.437,22
1629637725.47,22
1629637725.537,22
1629637725.57,24
1629637725.637,23
1629637725.67,25
1629637725.737,26
1629637725.77,27
1629637725.837,32
1629637725.87,34
1629637725.937,36
1629637725.97,33
1629637726.037,32
1629637726.07,33
1629637726.137,31
1629637726.17,31
1629637726.237,27
1629637726.27,28
1629637726.337,31
1629637726.37,29
1629637726.437,29
1629637726.47,31
1629637726.537,32
1629637726.57,33
1629637726.637,30
1629637726.67,39
1629637726.737,39
1629637726.77,39
1629637726.837,38
1629637726.87,38
1629637726.937,36
1629637726.97,32
1629637727.037,34
1629637727.07,34
1629637727.137,36
1629637727.17,39
1629637727.237,39
1629637727.27,35
1629637727.337,37
1629637727.37,41
1629637727.437,39
1629637727.47,39
1629637727.537,39
1629637727.57,38
1629637727.637,40
1629637727.67,39
1629637727.737,43
1629637727.77,40
1629637727.837,39
1629637727.87,39
1629637727.937,38
1629637727.97,40
1629637728.037,40
1629637728.07,39
1629637728.137,39
1629637728.17,40
1629637728.237,39
1629637728.27,40
1629637728.337,39
1629637728.37,35
1629637728.437,40
1629637728.47,41
1629637728.537,41
1629637728.57,39
1629637728.637,39
1629637728.67,41
1629637728.737,40
1629637728.77,42
1629637728.837,42
1629637728.87,39
1629637728.937,38
1629637728.97,36
1629637729.037,34
1629637729.07,36
1629637729.137,34
1629637729.17,34
1629637729.237,33
1629637729.27,35
1629637729.337,30
1629637729.37,31
1629637729.437,34
1629637729.47,36
1629637729.537,39
1629637729.57,37
1629637729.637,39
1629637729.67,38
1629637729.737,39
1629637729.77,38
1629637729.837,35
1629637729.87,37
1629637729.937,34
1629637729.97,36
1629637730.036,36
1629637730.07,35
1629637730.136,37
1629637730.17,36
1629637730.236,39
1629637730.27,35
1629637730.336,35
1629637730.37,36
1629637730.436,36
1629637730.47,34
1629637730.536,36
1629637730.57,38
1629637730.636,34
1629637730.67,33
1629637730.736,38
1629637730.77,38
1629637730.836,35
1629637730.87,35
1629637730.936,37
1629637730.97,34
1629637731.037,34
1629637731.07,32
1629637731.136,39
1629637731.17,35
1629637731.236,37
1629637731.27,38
1629637731.336,42
1629637731.37,40
1629637731.436,38
1629637731.47,41
1629637731.536,38
1629637731.57,35
1629637731.636,37
1629637731.67,36
1629637731.736,36
1629637731.77,40
1629637731.836,38
1629637731.87,36
1629637731.936,37
1629637731.97,36
1629637732.036,38
1629637732.07,33
1629637732.136,33
1629637732.17,34
1629637732.236,33
1629637732.27,34
1629637732.336,32
1629637732.37,30
1629637732.436,32
1629637732.47,33
1629637732.536,36
1629637732.57,39
1629637732.636,40
1629637732.67,42
1629637732.736,40
1629637732.769,42
1629637732.836,43
1629637732.869,38
1629637732.936,35
1629637732.969,36
1629637733.036,31
1629637733.069,30
1629637733.136,30
1629637733.169,30
1629637733.236,33
1629637733.269,24
1629637733.336,22
1629637733.369,29
1629637733.436,29
1629637733.469,23
1629637733.536,25
1629637733.569,32
1629637733.636,28
1629637733.669,29
1629637733.736,25
1629637733.769,24
1629637733.836,24
1629637733.869,28
1629637733.936,33
1629637733.969,33
1629637734.036,32
1629637734.069,35
1629637734.136,38
1629637734.169,34
1629637734.236,36
1629637734.269,38
1629637734.336,37
1629637734.369,34
1629637734.436,34
1629637734.469,37
1629637734.536,39
1629637734.569,35
1629637734.636,38
1629637734.669,38
1629637734.736,37
1629637734.769,34
1629637734.836,35
1629637734.869,36
1629637734.936,38
1629637734.969,38
1629637735.036,36
1629637735.069,38
1629637735.136,39
1629637735.169,34
1629637735.236,34
1629637735.269,29
1629637735.336,29
1629637735.369,33
1629637735.436,28
1629637735.469,24
1629637735.536,27
1629637735.569,37
1629637735.636,38
1629637735.669,37
1629637735.736,38
1629637735.769,34
1629637735.836,35
1629637735.869,33
1629637735.936,34
1629637735.969,35
1629637736.036,33
1629637736.069,34
1629637736.136,38
1629637736.169,36
1629637736.236,33
1629637736.269,30
1629637736.336,35
1629637736.369,35
1629637736.436,36
1629637736.469,36
1629637736.536,36
1629637736.569,39
1629637736.636,36
1629637736.669,35
1629637736.736,39
1629637736.769,40
1629637736.836,42
1629637736.869,44
1629637736.936,43
1629637736.969,36
1629637737.036,38
1629637737.069,40
1629637737.136,40
1629637737.169,39
1629637737.236,36
1629637737.269,34
1629637737.336,37
1629637737.369,36
1629637737.436,35
1629637737.469,32
1629637737.536,30
1629637737.569,32
1629637737.636,30
1629637737.669,28
1629637737.736,30
1629637737.769,35
1629637737.836,34
1629637737.869,36
1629637737.936,33
1629637737.969,34
1629637738.036,35
1629637738.069,39
1629637738.136,35
1629637738.169,32
1629637738.236,31
1629637738.269,28
1629637738.336,31
1629637738.369,32
1629637738.436,32
1629637738.469,30
1629637738.536,34
1629637738.569,39
1629637738.636,40
1629637738.669,39
1629637738.736,36
1629637738.769,34
1629637738.835,34
1629637738.869,35
1629637738.935,35
1629637738.969,37
1629637739.035,38
1629637739.069,38
1629637739.135,32
1629637739.169,32
1629637739.235,36
1629637739.269,32
1629637739.335,37
1629637739.369,38
1629637739.435,38
1629637739.469,36
1629637739.535,36
1629637739.569,35
1629637739.635,31
1629637739.669,31
1629637739.735,30
1629637739.769,29
1629637739.835,31
1629637739.869,32
1629637739.935,28
1629637739.969,28
1629637740.035,31
1629637740.069,30
1629637740.135,30
1629637740.169,31
1629637740.235,34
1629637740.269,29
1629637740.335,27
1629637740.369,27
1629637740.435,28
1629637740.469,30
1629637740.535,33
1629637740.569,39
1629637740.635,35
1629637740.669,36
1629637740.735,32
1629637740.769,33
1629637740.835,34
1629637740.869,34
1629637740.935,36
1629637740.969,35
1629637741.035,32
1629637741.069,33
1629637741.135,35
1629637741.169,34
1629637741.235,35
1629637741.269,32
1629637741.335,35
1629637741.369,35
1629637741.435,36
1629637741.469,41
1629637741.535,41
1629637741.569,40
1629637741.635,40
1629637741.668,39
1629637741.735,39
1629637741.768,41
1629637741.835,40
1629637741.868,40
1629637741.935,43
1629637741.968,44
1629637742.035,44
1629637742.068,42
1629637742.135,44
1629637742.168,44
1629637742.235,44
1629637742.268,44
1629637742.335,41
1629637742.368,43
1629637742.435,42
1629637742.468,41
1629637742.535,39
1629637742.568,35
1629637742.635,41
1629637742.668,41
1629637742.735,39
1629637742.768,36
1629637742.835,37
1629637742.868,39
1629637742.935,35
1629637742.968,38
1629637743.035,39
1629637743.068,39
1629637743.135,38
1629637743.168,39
1629637743.235,41
1629637743.268,41
1629637743.335,38
1629637743.368,38
1629637743.435,39
1629637743.468,38
1629637743.535,38
1629637743.568,40
1629637743.635,35
1629637743.668,35
1629637743.735,37
1629637743.768,38
1629637743.835,38
1629637743.868,37
1629637743.935,38
1629637743.968,38
1629637744.035,40
1629637744.068,37
1629637744.135,36
1629637744.168,36
1629637744.235,40
1629637744.268,37
1629637744.335,34
1629637744.368,36
1629637744.435,36
1629637744.468,37
1629637744.535,36
1629637744.568,36
1629637744.635,37
1629637744.668,38
1629637744.735,39
1629637744.768,39
1629637744.835,40
1629637744.868,40
1629637744.935,39
1629637744.968,37
1629637745.035,38
1629637745.068,41
1629637745.135,37
1629637745.168,38
1629637745.235,40
1629637745.268,41
1629637745.335,39
1629637745.368,40
1629637745.435,41
1629637745.468,36
1629637745.535,36
1629637745.568,34
1629637745.635,34
1629637745.668,35
1629637745.735,38
1629637745.768,37
1629637745.835,39
1629637745.868,38
1629637745.935,38
1629637745.968,40
1629637746.035,39
1629637746.068,40
1629637746.135,40
1629637746.168,39
1629637746.235,36
1629637746.268,33
1629637746.335,32
1629637746.368,33
1629637746.435,37
1629637746.468,36
1629637746.535,34
1629637746.568,34
1629637746.635,38
1629637746.668,39
1629637746.735,38
1629637746.768,35
1629637746.835,36
1629637746.868,41
1629637746.935,34
1629637746.968,35
1629637747.035,35
1629637747.068,35
1629637747.135,38
1629637747.168,36
1629637747.235,39
1629637747.268,38
1629637747.334,39
1629637747.368,41
1629637747.434,37
1629637747.468,35
1629637747.534,35
1629637747.568,37
1629637747.634,35
1629637747.668,39
1629637747.734,38
1629637747.768,38
1629637747.834,32
1629637747.868,32
1629637747.934,30
1629637747.968,31
1629637748.034,30
1629637748.068,29
1629637748.134,31
1629637748.168,28
1629637748.234,34
1629637748.268,34
1629637748.334,32
1629637748.368,32
1629637748.434,34
1629637748.468,30
1629637748.534,30
1629637748.568,33
1629637748.634,32
1629637748.668,34
1629637748.734,36
1629637748.768,35
1629637748.834,33
1629637748.868,36
1629637748.934,34
1629637748.968,35
1629637749.034,33
1629637749.068,36
1629637749.134,38
1629637749.168,32
1629637749.234,30
1629637749.268,35
1629637749.334,34
1629637749.368,39
1629637749.434,33
1629637749.468,32
1629637749.534,36
1629637749.568,34
1629637749.634,34
1629637749.668,37
1629637749.734,35
1629637749.768,35
1629637749.834,36
1629637749.868,32
1629637749.934,34
1629637749.968,34
1629637750.034,32
1629637750.068,34
1629637750.134,35
1629637750.168,34
1629637750.234,30
1629637750.268,35
1629637750.334,36
1629637750.368,36
1629637750.434,33
1629637750.467,34
1629637750.534,39
1629637750.567,38
1629637750.634,33
1629637750.667,33
1629637750.734,34
1629637750.767,34
1629637750.834,33
1629637750.867,35
1629637750.934,32
1629637750.967,35
1629637751.034,32
1629637751.067,32
1629637751.134,32
1629637751.167,30
1629637751.234,30
1629637751.267,31
1629637751.334,30
1629637751.367,30
1629637751.434,28
1629637751.467,29
1629637751.534,31
1629637751.567,34
1629637751.634,35
1629637751.667,32
1629637751.734,36
1629637751.767,32
1629637751.834,31
1629637751.867,28
1629637751.934,27
1629637751.967,29
1629637752.034,30
1629637752.067,32
1629637752.134,33
1629637752.167,34
1629637752.234,34
1629637752.267,36
1629637752.334,40
1629637752.367,39
1629637752.434,36
1629637752.467,35
1629637752.534,34
1629637752.567,37
1629637752.634,36
1629637752.667,35
1629637752.734,38
1629637752.767,35
1629637752.834,40
1629637752.867,37
1629637752.934,37
1629637752.967,40
1629637753.034,38
1629637753.067,38
1629637753.134,34
1629637753.167,38
1629637753.234,37
1629637753.267,36
1629637753.334,38
1629637753.367,40
1629637753.434,40
1629637753.467,40
1629637753.534,42
1629637753.567,43
1629637753.634,39
1629637753.667,38
1629637753.734,40
1629637753.767,40
1629637753.834,40
1629637753.867,38
1629637753.934,39
1629637753.967,40
1629637754.034,39
1629637754.067,40
1629637754.134,41
1629637754.167,40
1629637754.234,43
1629637754.267,43
1629637754.334,45
1629637754.367,42
1629637754.434,40
1629637754.467,39
1629637754.534,38
1629637754.567,40
1629637754.634,40
1629637754.667,39
1629637754.734,38
1629637754.767,38
1629637754.834,38
1629637754.867,39
1629637754.934,41
1629637754.967,42
1629637755.034,45
1629637755.067,40
1629637755.134,41
1629637755.167,40
1629637755.234,41
1629637755.267,40
1629637755.334,41
1629637755.367,38
1629637755.434,41
1629637755.467,43
1629637755.534,44
1629637755.567,43
1629637755.634,43
1629637755.667,39
1629637755.734,34
1629637755.767,35
1629637755.834,39
1629637755.867,35
1629637755.934,36
1629637755.967,38
1629637756.034,35
1629637756.067,31
1629637756.134,34
1629637756.167,37
1629637756.234,32
1629637756.267,36
1629637756.334,37
1629637756.367,37
1629637756.434,38
1629637756.467,37
1629637756.534,35
1629637756.567,32
1629637756.634,32
1629637756.667,38
1629637756.734,37
1629637756.767,40
1629637756.833,40
1629637756.867,40
1629637756.933,39
1629637756.967,42
1629637757.033,39
1629637757.067,37
1629637757.133,36
1629637757.167,39
1629637757.233,40
1629637757.267,39
1629637757.333,36
1629637757.367,39
1629637757.433,38
1629637757.467,36
1629637757.533,39
1629637757.567,42
1629637757.633,40
1629637757.667,39
1629637757.733,40
1629637757.767,42
1629637757.833,43
1629637757.867,43
1629637757.933,46
1629637757.967,45
1629637758.033,41
1629637758.067,39
1629637758.133,37
1629637758.167,40
1629637758.233,43
1629637758.267,41
1629637758.333,40
1629637758.367,38
1629637758.433,40
1629637758.467,37
1629637758.533,37
1629637758.567,37
1629637758.633,38
1629637758.667,35
1629637758.733,36
1629637758.767,34
1629637758.833,38
1629637758.867,34
1629637758.933,33
1629637758.967,33
1629637759.033,35
1629637759.067,39
1629637759.133,34
1629637759.167,32
1629637759.233,31
1629637759.267,31
1629637759.333,27
1629637759.367,30
1629637759.433,35
1629637759.467,34
1629637759.533,33
1629637759.567,30
1629637759.633,33
1629637759.667,38
1629637759.733,41
1629637759.766,41
1629637759.833,40
1629637759.866,39
1629637759.933,39
1629637759.966,37
1629637760.033,36
1629637760.066,37
1629637760.133,38
1629637760.166,43
1629637760.233,40
1629637760.266,40
1629637760.333,42
1629637760.366,43
1629637760.433,39
1629637760.466,40
1629637760.533,40
1629637760.566,39
1629637760.633,40
1629637760.666,39
1629637760.733,37
1629637760.766,41
1629637760.833,40
1629637760.866,40
1629637760.933,39
1629637760.966,41
1629637761.033,41
1629637761.066,39
1629637761.133,37
1629637761.166,36
1629637761.233,39
1629637761.266,43
1629637761.333,41
1629637761.366,41
1629637761.433,35
1629637761.466,35
1629637761.533,39
1629637761.566,40
1629637761.633,39
1629637761.666,37
1629637761.733,35
1629637761.766,30
1629637761.833,30
1629637761.866,35
1629637761.933,34
1629637761.966,37
1629637762.033,39
1629637762.066,36
1629637762.133,37
1629637762.166,37
1629637762.233,38
1629637762.266,40
1629637762.333,37
1629637762.366,39
1629637762.433,39
1629637762.466,38
1629637762.533,39
1629637762.566,33
1629637762.633,31
1629637762.666,32
1629637762.733,33
1629637762.766,33
1629637762.833,35
1629637762.866,35
1629637762.933,35
1629637762.966,34
1629637763.033,31
1629637763.066,33
1629637763.133,31
1629637763.166,30
1629637763.233,34
1629637763.266,32
1629637763.333,37
1629637763.366,36
1629637763.433,39
1629637763.466,38
1629637763.533,39
1629637763.566,39
1629637763.633,38
1629637763.666,39
1629637763.733,38
1629637763.766,39
1629637763.833,37
1629637763.866,41
1629637763.933,41
1629637763.966,41
1629637764.033,38
1629637764.066,38
1629637764.133,37
1629637764.166,38
1629637764.233,40
1629637764.266,43
1629637764.333,43
1629637764.366,40
1629637764.433,38
1629637764.466,39
1629637764.533,38
1629637764.566,42
1629637764.633,39
1629637764.666,37
1629637764.733,37
1629637764.766,40
1629637764.833,41
1629637764.866,38
1629637764.933,37
1629637764.966,38
1629637765.032,41
1629637765.066,42
1629637765.132,40
1629637765.166,35
1629637765.232,31
1629637765.266,27
1629637765.332,25
1629637765.366,25
1629637765.432,22
1629637765.466,30
1629637765.532,23
1629637765.566,28
1629637765.632,30
1629637765.666,27
1629637765.732,26
1629637765.766,24
1629637765.832,27
1629637765.866,28
1629637765.932,34
1629637765.966,31
1629637766.032,31
1629637766.066,29
1629637766.132,29
1629637766.166,29
1629637766.232,37
1629637766.266,39
1629637766.332,36
1629637766.366,36
1629637766.432,38
1629637766.466,41
1629637766.532,40
1629637766.566,41
1629637766.632,42
1629637766.666,37
1629637766.732,37
1629637766.766,37
1629637766.832,37
1629637766.866,36
1629637766.932,42
1629637766.966,39
1629637767.032,37
1629637767.066,36
1629637767.132,39
1629637767.166,38
1629637767.232,35
1629637767.266,36
1629637767.332,41
1629637767.366,39
1629637767.432,43
1629637767.466,40
1629637767.532,41
1629637767.566,41
1629637767.632,41
1629637767.666,37
1629637767.732,39
1629637767.766,37
1629637767.832,41
1629637767.866,40
1629637767.932,39
1629637767.966,42
1629637768.032,39
1629637768.066,39
1629637768.132,40
1629637768.166,38
1629637768.232,35
1629637768.266,37
1629637768.332,35
1629637768.366,35
1629637768.432,31
1629637768.466,36
1629637768.532,35
1629637768.566,33
1629637768.632,34
1629637768.666,32
1629637768.732,34
1629637768.766,35
1629637768.832,32
1629637768.865,31
1629637768.932,35
1629637768.965,35
1629637769.032,36
1629637769.065,37
1629637769.132,34
1629637769.165,33
1629637769.232,35
1629637769.265,35
1629637769.332,34
1629637769.365,32
1629637769.432,31
1629637769.465,32
1629637769.532,35
1629637769.565,31
1629637769.632,36
1629637769.665,36
1629637769.732,34
1629637769.765,38
1629637769.832,36
1629637769.865,35
1629637769.932,36
1629637769.965,36
1629637770.032,38
1629637770.065,35
1629637770.132,36
1629637770.165,35
1629637770.232,36
1629637770.265,34
1629637770.332,37
1629637770.365,35
1629637770.432,38
1629637770.465,37
1629637770.532,40
1629637770.565,41
1629637770.632,43
1629637770.665,40
1629637770.732,42
1629637770.765,41
1629637770.832,40
1629637770.865,41
1629637770.932,39
1629637770.965,41
1629637771.032,40
1629637771.065,39
1629637771.132,41
1629637771.165,41
1629637771.232,38
1629637771.265,37
1629637771.332,38
1629637771.365,37
1629637771.432,34
1629637771.465,34
1629637771.532,37
1629637771.565,38
1629637771.632,37
1629637771.665,38
1629637771.732,35
1629637771.765,35
1629637771.832,35
1629637771.865,37
1629637771.932,38
1629637771.965,39
1629637772.032,37
1629637772.065,36
1629637772.132,32
1629637772.165,30
1629637772.232,32
1629637772.265,30
1629637772.332,32
1629637772.365,34
1629637772.432,33
1629637772.465,34
1629637772.532,29
1629637772.565,29
1629637772.632,32
1629637772.665,30
1629637772.732,31
1629637772.765,28
1629637772.832,29
1629637772.865,31
1629637772.932,32
1629637772.965,33
1629637773.032,32
1629637773.065,36
1629637773.132,37
1629637773.165,38
1629637773.232,31
1629637773.265,36
1629637773.332,39
1629637773.365,40
1629637773.432,38
1629637773.465,34
1629637773.532,30
1629637773.565,29
1629637773.632,30
1629637773.665,33
1629637773.732,38
1629637773.765,37
1629637773.832,34
1629637773.865,36
1629637773.932,35
1629637773.965,35
1629637774.032,33
1629637774.065,37
1629637774.132,35
1629637774.165,33
1629637774.232,33
1629637774.265,34
1629637774.332,42
1629637774.365,41
1629637774.432,37
1629637774.465,38
1629637774.532,35
1629637774.565,39
1629637774.632,38
1629637774.665,39
1629637774.732,38
1629637774.765,36
1629637774.832,39
1629637774.865,38
1629637774.932,36
1629637774.965,36
1629637775.032,37
1629637775.065,37
1629637775.132,36
1629637775.165,37
1629637775.232,35
1629637775.265,36
1629637775.332,37
1629637775.365,30
1629637775.432,34
1629637775.465,39
1629637775.532,39
1629637775.565,35
1629637775.632,38
1629637775.665,37
1629637775.732,40
1629637775.765,39
1629637775.832,40
1629637775.865,40
1629637775.932,38
1629637775.965,37
1629637776.032,38
1629637776.065,31
1629637776.132,31
1629637776.165,30
1629637776.232,32
1629637776.265,37
1629637776.332,32
1629637776.365,28
1629637776.432,32
1629637776.465,33
1629637776.532,34
1629637776.565,38
1629637776.632,39
1629637776.665,35
1629637776.732,37
1629637776.765,35
1629637776.832,35
1629637776.865,38
1629637776.932,35
1629637776.965,33
1629637777.032,23
1629637777.065,24
1629637777.132,27
1629637777.165,32
1629637777.232,33
1629637777.265,32
1629637777.332,34
1629637777.365,34
1629637777.432,28
1629637777.465,26
1629637777.532,31
1629637777.565,36
1629637777.632,38
1629637777.665,38
1629637777.732,38
1629637777.765,40
1629637777.832,34
1629637777.865,37
1629637777.932,35
1629637777.965,38
1629637778.031,35
1629637778.065,36
1629637778.131,25
1629637778.165,22
1629637778.231,33
1629637778.265,27
1629637778.331,26
1629637778.365,29
1629637778.431,28
1629637778.465,31
1629637778.531,27
1629637778.565,29
1629637778.631,33
1629637778.665,31
1629637778.731,30
1629637778.765,32
1629637778.831,35
1629637778.865,33
1629637778.931,31
1629637778.965,35
1629637779.031,30
1629637779.065,31
1629637779.131,29
1629637779.165,34
1629637779.231,34
1629637779.265,38
1629637779.331,36
1629637779.365,36
1629637779.431,35
1629637779.465,36
1629637779.531,41
1629637779.565,37
1629637779.631,38
1629637779.665,38
1629637779.731,37
1629637779.765,41
1629637779.831,39
1629637779.865,37
1629637779.931,37
1629637779.965,38
1629637780.031,37
1629637780.065,41
1629637780.131,42
1629637780.165,41
1629637780.231,37
1629637780.265,39
1629637780.331,37
1629637780.365,39
1629637780.431,36
1629637780.465,41
1629637780.531,40
1629637780.565,38
1629637780.631,37
1629637780.665,33
1629637780.731,35
1629637780.765,33
1629637780.831,32
1629637780.865,37
1629637780.931,39
1629637780.965,32
1629637781.031,32
1629637781.065,37
1629637781.131,32
1629637781.165,31
1629637781.231,29
1629637781.265,34
1629637781.331,38
1629637781.365,37
1629637781.431,40
1629637781.465,35
1629637781.531,34
1629637781.565,34
1629637781.631,31
1629637781.664,34
1629637781.731,38
1629637781.764,39
1629637781.831,38
1629637781.864,36
1629637781.931,36
1629637781.964,38
1629637782.031,42
1629637782.064,39
1629637782.131,41
1629637782.164,40
1629637782.231,42
1629637782.264,40
1629637782.331,40
1629637782.364,40
1629637782.431,37
1629637782.464,42
1629637782.531,38
1629637782.564,38
1629637782.631,38
1629637782.664,40
1629637782.731,32
1629637782.764,37
1629637782.831,37
1629637782.864,36
1629637782.931,38
1629637782.964,41
1629637783.031,40
1629637783.064,34
1629637783.131,37
1629637783.164,38
1629637783.231,35
1629637783.264,38
1629637783.331,32
1629637783.364,35
1629637783.431,37
1629637783.464,36
1629637783.531,36
1629637783.564,35
1629637783.631,36
1629637783.664,42
1629637783.731,41
1629637783.764,38
1629637783.831,39
1629637783.864,39
1629637783.931,34
1629637783.964,36
1629637784.031,38
1629637784.064,40
1629637784.131,40
1629637784.164,40
1629637784.231,41
1629637784.264,44
1629637784.331,41
1629637784.364,38
1629637784.431,37
1629637784.464,36
1629637784.531,36
1629637784.564,37
1629637784.631,39
1629637784.664,36
1629637784.731,36
1629637784.764,35
1629637784.831,30
1629637784.864,34
1629637784.931,34
1629637784.964,32
1629637785.031,37
1629637785.064,31
1629637785.131,31
1629637785.164,29
1629637785.231,28
1629637785.264,25
1629637785.33,28
1629637785.364,26
1629637785.431,31
1629637785.464,29
1629637785.531,20
1629637785.564,23
1629637785.631,29
1629637785.664,31
1629637785.731,32
1629637785.764,31
1629637785.831,29
1629637785.864,34
1629637785.931,34
1629637785.964,32
1629637786.03,33
1629637786.064,33
1629637786.13,34
1629637786.164,33
1629637786.23,31
1629637786.264,30
1629637786.33,27
1629637786.364,24
1629637786.43,29
1629637786.464,29
1629637786.53,32
1629637786.564,31
1629637786.63,25
1629637786.664,24
1629637786.73,25
1629637786.764,23
1629637786.83,24
1629637786.864,26
1629637786.93,26
1629637786.964,22
1629637787.03,24
1629637787.064,33
1629637787.131,32
1629637787.164,32
1629637787.231,34
1629637787.264,36
1629637787.33,36
1629637787.364,34
1629637787.43,32
1629637787.464,37
1629637787.53,27
1629637787.563,28
1629637787.63,33
1629637787.663,29
1629637787.73,27
1629637787.763,29
1629637787.83,25
1629637787.863,24
1629637787.93,27
1629637787.963,20
1629637788.03,22
1629637788.064,22
1629637788.13,22
1629637788.164,26
1629637788.23,30
1629637788.264,33
1629637788.33,30
1629637788.364,32
1629637788.43,42
1629637788.464,38
1629637788.53,36
1629637788.564,37
1629637788.63,35
1629637788.664,29
1629637788.73,28
1629637788.764,32
1629637788.83,34
1629637788.863,35
1629637788.93,38
1629637788.963,33
1629637789.03,31
1629637789.063,33
1629637789.13,32
1629637789.163,33
1629637789.23,32
1629637789.263,30
1629637789.33,32
1629637789.363,27
1629637789.43,27
1629637789.463,31
1629637789.53,30
1629637789.564,30
1629637789.63,33
1629637789.664,35
1629637789.73,35
1629637789.764,36
1629637789.83,33
1629637789.864,34
1629637789.93,36
1629637789.964,38
1629637790.03,39
1629637790.064,37
1629637790.13,36
1629637790.164,39
1629637790.23,40
1629637790.264,39
1629637790.33,37
1629637790.363,37
1629637790.43,35
1629637790.463,39
1629637790.53,35
1629637790.563,31
1629637790.63,32
1629637790.663,27
1629637790.73,28
1629637790.763,33
1629637790.83,34
1629637790.863,36
1629637790.93,32
1629637790.963,31
1629637791.03,29
1629637791.063,29
1629637791.13,33
1629637791.163,35
1629637791.23,34
1629637791.263,35
1629637791.33,32
1629637791.363,34
1629637791.43,34
1629637791.463,31
1629637791.53,37
1629637791.563,37
1629637791.63,31
1629637791.663,31
1629637791.73,32
1629637791.763,34
1629637791.83,31
1629637791.863,34
1629637791.93,33
1629637791.963,34
1629637792.03,36
1629637792.063,36
1629637792.13,38
1629637792.163,36
1629637792.23,38
1629637792.263,37
1629637792.33,35
1629637792.363,38
1629637792.43,39
1629637792.463,41
1629637792.53,34
1629637792.563,31
1629637792.63,35
1629637792.663,39
1629637792.73,36
1629637792.763,36
1629637792.83,39
1629637792.863,36
1629637792.93,39
1629637792.963,39
1629637793.03,40
1629637793.063,41
1629637793.13,36
1629637793.163,36
1629637793.23,36
1629637793.263,37
1629637793.33,39
1629637793.363,40
1629637793.43,39
1629637793.463,41
1629637793.53,43
1629637793.563,42
1629637793.63,37
1629637793.663,33
1629637793.73,35
1629637793.763,42
1629637793.83,42
1629637793.863,42
1629637793.93,45
1629637793.963,44
1629637794.03,42
1629637794.063,42
1629637794.13,45
1629637794.163,42
1629637794.23,46
1629637794.263,47
1629637794.33,45
1629637794.363,44
1629637794.43,32
1629637794.463,32
1629637794.53,35
1629637794.563,35
1629637794.63,35
1629637794.663,36
1629637794.73,43
1629637794.763,44
1629637794.83,45
1629637794.863,45
1629637794.93,40
1629637794.963,39
1629637795.03,42
1629637795.063,41
1629637795.13,46
1629637795.163,47
1629637795.23,42
1629637795.263,44
1629637795.33,43
1629637795.363,43
1629637795.43,39
1629637795.463,43
1629637795.53,43
1629637795.563,43
1629637795.63,43
1629637795.663,44
1629637795.73,41
1629637795.763,42
1629637795.83,43
1629637795.863,42
1629637795.93,42
1629637795.963,37
1629637796.03,42
1629637796.063,43
1629637796.13,43
1629637796.163,41
1629637796.23,38
1629637796.263,36
1629637796.33,35
1629637796.363,43
1629637796.429,42
1629637796.463,41
1629637796.529,40
1629637796.563,38
1629637796.629,36
1629637796.663,42
1629637796.729,43
1629637796.763,42
1629637796.829,42
1629637796.863,45
1629637796.929,41
1629637796.963,39
1629637797.029,41
1629637797.063,43
1629637797.129,45
1629637797.163,45
1629637797.229,44
1629637797.263,43
1629637797.329,42
1629637797.363,43
1629637797.429,44
1629637797.463,45
1629637797.529,47
1629637797.563,47
1629637797.629,45
1629637797.663,43
1629637797.729,47
1629637797.763,48
1629637797.829,46
1629637797.863,45
1629637797.929,44
1629637797.963,45
1629637798.029,44
1629637798.063,43
1629637798.129,42
1629637798.163,46
1629637798.229,47
1629637798.263,46
1629637798.329,47
1629637798.363,47
1629637798.429,46
1629637798.463,40
1629637798.529,45
1629637798.563,46
1629637798.629,48
1629637798.663,48
1629637798.729,45
1629637798.763,42
1629637798.829,49
1629637798.863,47
1629637798.929,46
1629637798.963,45
1629637799.029,45
1629637799.063,44
1629637799.129,43
1629637799.163,41
1629637799.229,43
1629637799.263,39
1629637799.329,41
1629637799.363,37
1629637799.429,37
1629637799.463,38
1629637799.529,38
1629637799.563,38
1629637799.629,36
1629637799.663,36
1629637799.729,37
1629637799.763,35
1629637799.829,42
1629637799.863,38
1629637799.929,38
1629637799.962,34
1629637800.029,39
1629637800.062,40
1629637800.129,44
1629637800.162,37
1629637800.229,43
1629637800.262,35
1629637800.329,37
1629637800.362,35
1629637800.429,38
1629637800.462,30
1629637800.529,34
1629637800.562,31
1629637800.629,37
1629637800.662,37
1629637800.729,40
1629637800.762,39
1629637800.829,41
1629637800.862,42
1629637800.929,40
1629637800.962,36
1629637801.029,42
1629637801.062,44
1629637801.129,37
1629637801.162,36
1629637801.229,40
1629637801.262,43
1629637801.329,44
1629637801.362,41
1629637801.429,45
1629637801.462,42
1629637801.529,42
1629637801.562,45
1629637801.629,43
1629637801.662,42
1629637801.729,45
1629637801.762,40
1629637801.829,46
1629637801.862,43
1629637801.929,46
1629637801.962,46
1629637802.029,47
1629637802.062,47
1629637802.129,47
1629637802.162,46
1629637802.229,47
1629637802.262,47
1629637802.329,42
1629637802.362,40
1629637802.429,40
1629637802.462,42
1629637802.529,41
1629637802.562,44
1629637802.629,46
1629637802.662,46
1629637802.729,44
1629637802.762,42
1629637802.829,42
1629637802.862,41
1629637802.929,42
1629637802.962,44
1629637803.029,45
1629637803.062,45
1629637803.129,45
1629637803.162,44
1629637803.229,41
1629637803.262,42
1629637803.329,46
1629637803.362,45
1629637803.429,45
1629637803.462,44
1629637803.529,43
1629637803.562,42
1629637803.629,41
1629637803.662,39
1629637803.729,38
1629637803.762,39
1629637803.829,41
1629637803.862,39
1629637803.929,38
1629637803.962,39
1629637804.029,41
1629637804.062,41
1629637804.129,36
1629637804.162,41
1629637804.229,39
1629637804.262,39
1629637804.329,41
1629637804.362,44
1629637804.429,39
1629637804.462,38
1629637804.529,41
1629637804.562,37
1629637804.629,32
1629637804.662,38
1629637804.728,38
1629637804.762,39
1629637804.828,38
1629637804.862,35
1629637804.928,35
1629637804.962,35
1629637805.028,35
1629637805.062,36
1629637805.128,44
1629637805.162,42
1629637805.228,42
1629637805.262,44
1629637805.328,45
1629637805.362,43
1629637805.428,40
1629637805.462,38
1629637805.528,37
1629637805.562,39
1629637805.628,38
1629637805.662,37
1629637805.728,37
1629637805.762,44
1629637805.828,41
1629637805.862,40
1629637805.928,43
1629637805.962,39
1629637806.028,39
1629637806.062,40
1629637806.128,42
1629637806.162,43
1629637806.228,43
1629637806.262,43
1629637806.328,46
1629637806.362,43
1629637806.428,42
1629637806.462,42
1629637806.528,45
1629637806.562,37
1629637806.628,45
1629637806.662,47
1629637806.728,48
1629637806.762,47
1629637806.828,48
1629637806.862,46
1629637806.928,45
1629637806.962,46
1629637807.028,48
1629637807.062,48
1629637807.128,43
1629637807.162,44
1629637807.228,46
1629637807.262,47
1629637807.328,48
1629637807.362,45
1629637807.428,47
1629637807.462,47
1629637807.528,39
1629637807.562,37
1629637807.628,39
1629637807.661,47
1629637807.728,46
1629637807.761,43
1629637807.828,43
1629637807.861,45
1629637807.928,46
1629637807.961,46
1629637808.028,44
1629637808.061,45
1629637808.128,49
1629637808.161,47
1629637808.228,43
1629637808.261,48
1629637808.328,43
1629637808.361,42
1629637808.428,46
1629637808.461,46
1629637808.528,46
1629637808.561,46
1629637808.628,45
1629637808.661,46
1629637808.728,43
1629637808.761,39
1629637808.828,42
1629637808.861,43
1629637808.928,37
1629637808.961,33
1629637809.028,37
1629637809.061,33
1629637809.128,36
1629637809.161,35
1629637809.228,39
1629637809.261,44
1629637809.328,43
1629637809.361,41
1629637809.428,45
1629637809.461,46
1629637809.528,45
1629637809.561,45
1629637809.628,49
1629637809.661,47
1629637809.728,45
1629637809.761,46
1629637809.828,46
1629637809.861,44
1629637809.928,42
1629637809.961,43
1629637810.028,41
1629637810.061,46
1629637810.128,44
1629637810.161,40
1629637810.228,40
1629637810.261,40
1629637810.328,40
1629637810.361,42
1629637810.428,42
1629637810.461,39
1629637810.528,42
1629637810.561,43
1629637810.628,43
1629637810.661,43
1629637810.728,39
1629637810.761,43
1629637810.828,42
1629637810.861,40
1629637810.928,41
1629637810.961,36
1629637811.028,38
1629637811.061,42
1629637811.128,42
1629637811.161,44
1629637811.228,45
1629637811.261,45
1629637811.328,34
1629637811.361,34
1629637811.428,29
1629637811.461,30
1629637811.528,37
1629637811.561,42
1629637811.628,42
1629637811.661,41
1629637811.728,39
1629637811.761,39
1629637811.828,34
1629637811.861,39
1629637811.928,39
1629637811.961,35
1629637812.028,36
1629637812.061,36
1629637812.128,38
1629637812.161,38
1629637812.228,37
1629637812.261,40
1629637812.328,43
1629637812.361,44
1629637812.428,43
1629637812.461,40
1629637812.528,42
1629637812.561,42
1629637812.628,36
1629637812.661,40
1629637812.728,39
1629637812.761,35
1629637812.828,39
1629637812.861,41
1629637812.928,40
1629637812.961,36
1629637813.028,43
1629637813.061,44
1629637813.127,40
1629637813.161,42
1629637813.227,37
1629637813.261,39
1629637813.327,38
1629637813.361,41
1629637813.427,43
1629637813.461,41
1629637813.527,43
1629637813.561,42
1629637813.627,43
1629637813.661,40
1629637813.727,42
1629637813.761,40
1629637813.827,42
1629637813.861,42
1629637813.927,41
1629637813.961,40
1629637814.027,43
1629637814.061,44
1629637814.127,43
1629637814.161,44
1629637814.227,42
1629637814.261,42
1629637814.327,42
1629637814.361,44
1629637814.427,42
1629637814.461,42
1629637814.527,44
1629637814.561,44
1629637814.627,45
1629637814.661,42
1629637814.727,41
1629637814.761,44
1629637814.827,46
1629637814.861,43
1629637814.927,42
1629637814.961,42
1629637815.027,40
1629637815.061,42
1629637815.127,43
1629637815.161,42
1629637815.227,41
1629637815.261,44
1629637815.327,42
1629637815.361,41
1629637815.427,43
1629637815.461,44
1629637815.527,42
1629637815.561,45
1629637815.627,44
1629637815.661,44
1629637815.727,45
1629637815.761,41
1629637815.827,37
1629637815.861,42
1629637815.927,45
1629637815.96,44
1629637816.027,43
1629637816.06,42
1629637816.127,39
1629637816.16,42
1629637816.227,44
1629637816.26,42
1629637816.327,44
1629637816.36,41
1629637816.427,40
1629637816.46,40
1629637816.527,43
1629637816.56,40
1629637816.627,40
1629637816.66,42
1629637816.727,40
1629637816.76,38
1629637816.827,41
1629637816.86,43
1629637816.927,44
1629637816.96,44
1629637817.027,43
1629637817.06,42
1629637817.127,42
1629637817.16,42
1629637817.227,38
1629637817.26,40
1629637817.327,40
1629637817.36,38
1629637817.427,39
1629637817.46,39
1629637817.527,40
1629637817.56,40
1629637817.627,40
1629637817.66,43
1629637817.727,41
1629637817.76,41
1629637817.827,43
1629637817.86,42
1629637817.927,44
1629637817.96,42
1629637818.027,42
1629637818.06,43
1629637818.127,40
1629637818.16,39
1629637818.227,39
1629637818.26,40
1629637818.327,39
1629637818.36,42
1629637818.427,38
1629637818.46,43
1629637818.527,42
1629637818.56,40
1629637818.627,39
1629637818.66,39
1629637818.727,41
1629637818.76,42
1629637818.827,45
1629637818.86,45
1629637818.927,47
1629637818.96,46
1629637819.027,47
1629637819.06,48
1629637819.127,44
1629637819.16,43
1629637819.227,41
1629637819.26,45
1629637819.327,48
1629637819.36,46
1629637819.427,43
1629637819.46,39
1629637819.527,41
1629637819.56,41
1629637819.627,41
1629637819.66,44
1629637819.727,42
1629637819.76,41
1629637819.827,41
1629637819.86,41
1629637819.927,41
1629637819.96,41
1629637820.027,37
1629637820.06,37
1629637820.127,39
1629637820.227,37
1629637820.26,36
1629637820.327,34
1629637820.36,38
1629637820.427,39
1629637820.46,39
1629637820.527,34
1629637820.56,34
1629637820.627,36
1629637820.66,38
1629637820.726,39
1629637820.76,37
1629637820.826,34
1629637820.86,32
1629637820.926,36
1629637820.96,37
1629637821.026,34
1629637821.06,28
1629637821.126,26
1629637821.16,28
1629637821.226,30
1629637821.26,32
1629637821.326,34
1629637821.36,29
1629637821.426,29
1629637821.46,34
1629637821.526,33
1629637821.56,32
1629637821.626,30
1629637821.66,31
1629637821.726,33
1629637821.76,29
1629637821.826,26
1629637821.86,26
1629637821.926,30
1629637821.96,30
1629637822.026,27
1629637822.06,28
1629637822.126,30
1629637822.16,33
1629637822.226,34
1629637822.26,34
1629637822.326,33
1629637822.36,33
1629637822.426,33
1629637822.46,35
1629637822.526,42
1629637822.56,43
1629637822.626,39
1629637822.66,37
1629637822.726,36
1629637822.76,37
1629637822.826,41
1629637822.86,41
1629637822.926,42
1629637822.96,40
1629637823.026,38
1629637823.06,37
1629637823.126,38
1629637823.16,39
1629637823.226,39
1629637823.26,37
1629637823.326,39
1629637823.359,41
1629637823.426,39
1629637823.459,35
1629637823.526,36
1629637823.559,36
1629637823.626,38
1629637823.659,40
1629637823.726,36
1629637823.759,38
1629637823.826,38
1629637823.859,39
1629637823.926,38
1629637823.959,35
1629637824.026,30
1629637824.059,28
1629637824.126,26
1629637824.159,28
1629637824.226,31
1629637824.259,35
1629637824.326,34
1629637824.359,34
1629637824.426,32
1629637824.459,31
1629637824.526,30
1629637824.559,34
1629637824.626,36
1629637824.659,36
1629637824.726,30
1629637824.759,34
1629637824.826,37
1629637824.859,38
1629637824.926,36
1629637824.959,38
1629637825.026,36
1629637825.059,37
1629637825.126,36
1629637825.159,33
1629637825.226,29
1629637825.259,32
1629637825.326,28
1629637825.359,28
1629637825.426,31
1629637825.459,34
1629637825.526,35
1629637825.559,32
1629637825.626,35
1629637825.659,39
1629637825.726,41
1629637825.759,35
1629637825.826,34
1629637825.859,33
1629637825.926,32
1629637825.959,36
1629637826.026,34
1629637826.059,34
1629637826.126,35
1629637826.159,39
1629637826.226,38
1629637826.259,41
1629637826.326,42
1629637826.359,40
1629637826.426,41
1629637826.459,39
1629637826.526,40
1629637826.559,39
1629637826.626,39
1629637826.659,42
1629637826.726,41
1629637826.759,40
1629637826.826,41
1629637826.859,41
1629637826.926,43
1629637826.959,38
1629637827.026,43
1629637827.059,44
1629637827.126,42
1629637827.159,41
1629637827.226,41
1629637827.259,41
1629637827.326,44
1629637827.359,40
1629637827.426,39
1629637827.459,38
1629637827.526,39
1629637827.559,40
1629637827.626,41
1629637827.659,43
1629637827.726,41
1629637827.759,45
1629637827.826,44
1629637827.859,44
1629637827.926,45
1629637827.959,43
1629637828.025,40
1629637828.059,41
1629637828.125,43
1629637828.159,45
1629637828.225,39
1629637828.259,40
1629637828.325,38
1629637828.359,38
1629637828.425,39
1629637828.459,41
1629637828.525,39
1629637828.559,39
1629637828.625,43
1629637828.659,43
1629637828.725,43
1629637828.759,42
1629637828.825,40
1629637828.859,42
1629637828.925,39
1629637828.959,38
1629637829.025,42
1629637829.059,44
1629637829.125,41
1629637829.159,44
1629637829.225,44
1629637829.259,44
1629637829.325,44
1629637829.359,44
1629637829.425,45
1629637829.458,45
1629637829.525,45
1629637829.558,45
1629637829.625,47
1629637829.658,49
1629637829.725,47
1629637829.758,47
1629637829.825,44
1629637829.858,45
1629637829.925,47
1629637829.958,46
1629637830.025,46
1629637830.058,47
1629637830.125,42
1629637830.158,39
1629637830.225,43
1629637830.258,42
1629637830.325,43
1629637830.358,42
1629637830.425,38
1629637830.458,39
1629637830.525,42
1629637830.558,37
1629637830.625,25
1629637830.658,20
1629637830.725,18
1629637830.759,23
1629637830.825,27
1629637830.859,33
1629637830.925,34
1629637830.959,33
1629637831.025,35
1629637831.059,38
1629637831.125,37
1629637831.159,31
1629637831.225,32
1629637831.259,34
1629637831.325,33
1629637831.359,37
1629637831.425,36
1629637831.459,39
1629637831.525,38
1629637831.559,38
1629637831.625,37
1629637831.659,38
1629637831.725,37
1629637831.759,37
1629637831.825,37
1629637831.859,35
1629637831.925,36
1629637831.958,38
1629637832.025,43
1629637832.059,43
1629637832.125,40
1629637832.159,41
1629637832.225,43
1629637832.259,41
1629637832.325,42
1629637832.359,38
1629637832.425,42
1629637832.459,40
1629637832.525,40
1629637832.559,37
1629637832.625,38
1629637832.658,40
1629637832.725,35
1629637832.758,37
1629637832.825,36
1629637832.858,37
1629637832.925,39
1629637832.958,38
1629637833.025,39
1629637833.058,38
1629637833.125,36
1629637833.158,37
1629637833.225,33
1629637833.258,35
1629637833.325,38
1629637833.358,38
1629637833.425,35
1629637833.458,35
1629637833.525,36
1629637833.558,35
1629637833.625,39
1629637833.658,40
1629637833.725,37
1629637833.758,38
1629637833.825,39
1629637833.858,39
1629637833.925,40
1629637833.958,40
1629637834.025,39
1629637834.058,41
1629637834.125,39
1629637834.158,40
1629637834.225,39
1629637834.258,38
1629637834.325,40
1629637834.358,41
1629637834.425,38
1629637834.458,37
1629637834.525,34
1629637834.558,35
1629637834.625,34
1629637834.658,36
1629637834.725,38
1629637834.758,38
1629637834.825,34
1629637834.858,36
1629637834.925,32
1629637834.958,32
1629637835.025,33
1629637835.058,35
1629637835.125,38
1629637835.158,36
1629637835.225,35
1629637835.258,36
1629637835.325,38
1629637835.358,36
1629637835.425,38
1629637835.458,38
1629637835.525,39
1629637835.558,41
1629637835.625,44
1629637835.658,41
1629637835.725,37
1629637835.758,39
1629637835.825,39
1629637835.858,37
1629637835.925,37
1629637835.958,34
1629637836.025,33
1629637836.058,35
1629637836.125,31
1629637836.158,33
1629637836.225,34
1629637836.258,34
1629637836.325,33
1629637836.358,29
1629637836.425,25
1629637836.458,27
1629637836.525,33
1629637836.558,38
1629637836.625,38
1629637836.658,36
1629637836.725,33
1629637836.758,27
1629637836.825,31
1629637836.858,38
1629637836.925,38
1629637836.958,35
1629637837.025,34
1629637837.058,37
1629637837.125,38
1629637837.158,36
1629637837.225,40
1629637837.258,40
1629637837.325,38
1629637837.358,34
1629637837.425,29
1629637837.458,29
1629637837.525,33
1629637837.558,36
1629637837.625,29
1629637837.658,31
1629637837.725,31
1629637837.758,30
1629637837.825,32
1629637837.858,34
1629637837.925,32
1629637837.958,33
1629637838.025,33
1629637838.058,36
1629637838.125,35
1629637838.158,31
1629637838.224,32
1629637838.258,33
1629637838.324,36
1629637838.358,38
1629637838.424,36
1629637838.458,35
1629637838.524,32
1629637838.558,33
1629637838.624,32
1629637838.658,36
1629637838.724,37
1629637838.758,41
1629637838.824,37
1629637838.858,38
1629637838.924,37
1629637838.958,35
1629637839.024,35
1629637839.058,36
1629637839.124,33
1629637839.158,37
1629637839.224,36
1629637839.258,39
1629637839.324,37
1629637839.358,33
1629637839.424,44
1629637839.458,43
1629637839.524,42
1629637839.558,42
1629637839.624,41
1629637839.658,40
1629637839.724,40
1629637839.758,38
1629637839.824,39
1629637839.858,39
1629637839.924,37
1629637839.958,35
1629637840.024,36
1629637840.058,36
1629637840.124,33
1629637840.158,35
1629637840.224,35
1629637840.258,36
1629637840.324,38
1629637840.358,37
1629637840.424,38
1629637840.458,37
1629637840.524,36
1629637840.558,38
1629637840.624,40
1629637840.658,36
1629637840.724,40
1629637840.758,37
1629637840.824,38
1629637840.858,41
1629637840.924,39
1629637840.958,43
1629637841.024,41
1629637841.058,40
1629637841.124,37
1629637841.158,36
1629637841.224,38
1629637841.258,39
1629637841.324,37
1629637841.358,33
1629637841.424,38
1629637841.457,40
1629637841.524,38
1629637841.557,32
1629637841.624,37
1629637841.657,38
1629637841.724,33
1629637841.757,29
1629637841.824,38
1629637841.857,41
1629637841.924,40
1629637841.957,40
1629637842.024,41
1629637842.057,40
1629637842.124,39
1629637842.157,35
1629637842.224,36
1629637842.257,32
1629637842.324,37
1629637842.357,32
1629637842.424,33
1629637842.457,32
1629637842.524,34
1629637842.557,35
1629637842.624,35
1629637842.657,34
1629637842.724,32
1629637842.757,29
1629637842.824,34
1629637842.857,35
1629637842.924,39
1629637842.957,37
1629637843.024,39
1629637843.057,40
1629637843.124,35
1629637843.157,33
1629637843.224,35
1629637843.257,35
1629637843.324,36
1629637843.357,40
1629637843.424,36
1629637843.457,40
1629637843.524,41
1629637843.557,42
1629637843.624,40
1629637843.657,34
1629637843.724,39
1629637843.757,37
1629637843.824,39
1629637843.857,40
1629637843.924,36
1629637843.957,30
1629637844.024,34
1629637844.057,33
1629637844.124,32
1629637844.157,31
1629637844.224,32
1629637844.257,34
1629637844.324,38
1629637844.357,38
1629637844.424,39
1629637844.457,36
1629637844.524,34
1629637844.557,37
1629637844.624,37
1629637844.657,36
1629637844.724,36
1629637844.757,33
1629637844.824,38
1629637844.857,36
1629637844.924,36
1629637844.957,38
1629637845.024,34
1629637845.057,36
1629637845.124,37
1629637845.157,39
1629637845.224,37
1629637845.257,37
1629637845.324,43
1629637845.357,45
1629637845.424,45
1629637845.457,42
1629637845.524,40
1629637845.557,41
1629637845.624,43
1629637845.657,44
1629637845.724,42
1629637845.757,42
1629637845.824,44
1629637845.857,41
1629637845.924,39
1629637845.957,39
1629637846.024,42
1629637846.057,42
1629637846.124,42
1629637846.157,41
1629637846.224,37
1629637846.257,42
1629637846.324,42
1629637846.357,40
1629637846.424,41
1629637846.457,44
1629637846.524,42
1629637846.557,41
1629637846.624,43
1629637846.657,38
1629637846.724,40
1629637846.757,41
1629637846.824,40
1629637846.857,37
1629637846.924,33
1629637846.957,32
1629637847.024,37
1629637847.057,35
1629637847.124,39
1629637847.157,34
1629637847.224,35
1629637847.257,44
1629637847.324,43
1629637847.357,43
1629637847.423,44
1629637847.457,40
1629637847.523,41
1629637847.557,37
1629637847.623,43
1629637847.657,44
1629637847.723,43
1629637847.757,44
1629637847.823,40
1629637847.857,41
1629637847.923,42
1629637847.957,36
1629637848.023,40
1629637848.057,45
1629637848.123,45
1629637848.157,42
1629637848.223,42
1629637848.257,45
1629637848.323,43
1629637848.357,41
1629637848.423,42
1629637848.457,43
1629637848.523,41
1629637848.557,39
1629637848.623,33
1629637848.657,37
1629637848.723,44
1629637848.757,43
1629637848.823,43
1629637848.857,46
1629637848.923,44
1629637848.957,42
1629637849.023,43
1629637849.057,44
1629637849.123,45
1629637849.157,46
1629637849.223,45
1629637849.257,45
1629637849.323,43
1629637849.357,42
1629637849.423,41
1629637849.457,42
1629637849.523,46
1629637849.557,44
1629637849.623,43
1629637849.657,43
1629637849.723,35
1629637849.757,38
1629637849.823,45
1629637849.857,41
1629637849.923,39
1629637849.957,42
1629637850.023,46
1629637850.057,39
1629637850.123,37
1629637850.156,35
1629637850.223,35
1629637850.256,39
1629637850.323,39
1629637850.356,41
1629637850.423,40
1629637850.456,37
1629637850.523,34
1629637850.556,37
1629637850.623,36
1629637850.656,37
1629637850.723,39
1629637850.756,36
1629637850.823,39
1629637850.856,39
1629637850.923,39
1629637850.956,35
1629637851.023,35
1629637851.056,37
1629637851.123,35
1629637851.156,33
1629637851.223,38
1629637851.256,40
1629637851.323,38
1629637851.356,38
1629637851.423,39
1629637851.456,38
1629637851.523,40
1629637851.556,40
1629637851.623,39
1629637851.656,39
1629637851.723,41
1629637851.756,42
1629637851.823,42
1629637851.856,38
1629637851.923,42
1629637851.956,40
1629637852.023,41
1629637852.056,41
1629637852.123,39
1629637852.156,40
1629637852.223,42
1629637852.256,42
1629637852.323,42
1629637852.356,39
1629637852.423,44
1629637852.456,45
1629637852.523,43
1629637852.556,45
1629637852.623,44
1629637852.656,42
1629637852.723,40
1629637852.756,37
1629637852.823,38
1629637852.856,37
1629637852.923,41
1629637852.956,43
1629637853.023,43
1629637853.056,41
1629637853.123,42
1629637853.156,41
1629637853.223,43
1629637853.256,45
1629637853.323,42
1629637853.356,42
1629637853.423,40
1629637853.456,36
1629637853.523,36
1629637853.556,41
1629637853.623,39
1629637853.656,43
1629637853.723,42
1629637853.756,43
1629637853.823,44
1629637853.856,43
1629637853.923,43
1629637853.956,43
1629637854.023,39
1629637854.056,41
1629637854.123,42
1629637854.156,45
1629637854.223,43
1629637854.256,43
1629637854.323,44
1629637854.356,45
1629637854.423,47
1629637854.456,46
1629637854.523,46
1629637854.556,45
1629637854.623,40
1629637854.656,43
1629637854.723,43
1629637854.756,44
1629637854.823,45
1629637854.856,46
1629637854.923,49
1629637854.956,50
1629637855.023,49
1629637855.056,49
1629637855.123,48
1629637855.156,47
1629637855.223,47
1629637855.256,45
1629637855.323,47
1629637855.356,50
1629637855.423,46
1629637855.456,45
1629637855.523,44
1629637855.556,44
1629637855.623,46
1629637855.656,47
1629637855.722,45
1629637855.756,46
1629637855.822,47
1629637855.856,45
1629637855.922,42
1629637855.956,41
1629637856.022,44
1629637856.056,46
1629637856.122,46
1629637856.156,42
1629637856.222,41
1629637856.256,41
1629637856.322,40
1629637856.356,40
1629637856.422,41
1629637856.456,39
1629637856.522,40
1629637856.556,40
1629637856.622,40
1629637856.656,42
1629637856.722,39
1629637856.756,38
1629637856.822,38
1629637856.856,38
1629637856.922,37
1629637856.956,35
1629637857.022,37
1629637857.056,38
1629637857.122,40
1629637857.156,37
1629637857.222,38
1629637857.255,38
1629637857.322,36
1629637857.355,38
1629637857.422,34
1629637857.455,36
1629637857.522,40
1629637857.555,37
1629637857.622,40
1629637857.655,41
1629637857.722,39
1629637857.755,39
1629637857.822,40
1629637857.855,42
1629637857.922,38
1629637857.955,36
1629637858.022,39
1629637858.055,42
1629637858.122,41
1629637858.155,42
1629637858.222,41
1629637858.255,36
1629637858.322,43
1629637858.355,44
1629637858.422,42
1629637858.455,38
1629637858.522,36
1629637858.555,41
1629637858.622,44
1629637858.655,42
1629637858.722,42
1629637858.755,44
1629637858.822,43
1629637858.855,44
1629637858.921,42
1629637858.955,42
1629637859.021,39
1629637859.055,38
1629637859.121,38
1629637859.155,39
1629637859.221,39
1629637859.255,41
1629637859.321,43
1629637859.355,44
1629637859.421,38
1629637859.455,37
1629637859.521,40
1629637859.555,42
1629637859.621,44
1629637859.655,44
1629637859.721,45
1629637859.755,39
1629637859.821,27
1629637859.855,22
1629637859.921,31
1629637859.955,39
1629637860.021,37
1629637860.055,35
1629637860.121,36
1629637860.155,40
1629637860.221,37
1629637860.255,38
1629637860.321,41
1629637860.355,43
1629637860.421,40
1629637860.455,40
1629637860.521,40
1629637860.555,38
1629637860.621,40
1629637860.655,40
1629637860.721,41
1629637860.755,39
1629637860.821,38
1629637860.855,42
1629637860.921,43
1629637860.955,40
1629637861.021,36
1629637861.055,40
1629637861.121,37
1629637861.155,36
1629637861.221,39
1629637861.255,41
1629637861.321,38
1629637861.355,37
1629637861.421,36
1629637861.455,37
1629637861.521,39
1629637861.555,39
1629637861.621,37
1629637861.655,36
1629637861.721,37
1629637861.754,40
1629637861.821,40
1629637861.854,42
1629637861.921,41
1629637861.954,39
1629637862.021,34
1629637862.054,34
1629637862.121,35
1629637862.154,32
1629637862.221,27
1629637862.255,29
1629637862.321,32
1629637862.354,35
1629637862.421,32
1629637862.454,31
1629637862.521,30
1629637862.554,31
1629637862.621,33
1629637862.654,34
1629637862.721,33
1629637862.754,36
1629637862.821,31
1629637862.854,33
1629637862.921,33
1629637862.954,34
1629637863.021,34
1629637863.054,31
1629637863.121,25
1629637863.154,28
1629637863.221,30
1629637863.254,32
1629637863.321,29
1629637863.354,27
1629637863.421,28
1629637863.454,28
1629637863.521,28
1629637863.554,30
1629637863.621,30
1629637863.654,29
1629637863.721,29
1629637863.754,29
1629637863.821,31
1629637863.854,37
1629637863.921,34
1629637863.954,34
1629637864.021,30
1629637864.054,32
1629637864.121,31
1629637864.154,29
1629637864.221,31
1629637864.254,30
1629637864.321,31
1629637864.354,32
1629637864.421,27
1629637864.454,26
1629637864.521,27
1629637864.554,30
1629637864.621,34
1629637864.654,32
1629637864.721,33
1629637864.754,34
1629637864.821,33
1629637864.854,31
1629637864.921,34
1629637864.954,37
1629637865.021,36
1629637865.054,36
1629637865.121,34
1629637865.154,31
1629637865.221,30
1629637865.254,29
1629637865.321,34
1629637865.354,32
1629637865.421,32
1629637865.454,28
1629637865.521,26
1629637865.554,27
1629637865.621,27
1629637865.654,28
1629637865.721,28
1629637865.754,24
1629637865.821,26
1629637865.854,27
1629637865.921,31
1629637865.954,31
1629637866.021,30
1629637866.054,27
1629637866.121,29
1629637866.154,32
1629637866.221,27
1629637866.254,29
1629637866.321,26
1629637866.354,28
1629637866.421,30
1629637866.454,32
1629637866.521,31
1629637866.554,28
1629637866.621,28
1629637866.654,29
1629637866.721,31
1629637866.754,28
1629637866.821,28
1629637866.854,29
1629637866.921,29
1629637866.954,26
1629637867.021,25
1629637867.054,28
1629637867.121,26
1629637867.154,20
1629637867.221,25
1629637867.254,24
1629637867.321,26
1629637867.354,28
1629637867.421,34
1629637867.454,35
1629637867.521,32
1629637867.554,28
1629637867.621,30
1629637867.654,27
1629637867.721,26
1629637867.754,33
1629637867.821,34
1629637867.854,34
1629637867.921,32
1629637867.954,35
1629637868.021,35
1629637868.054,34
1629637868.12,34
1629637868.154,37
1629637868.22,36
1629637868.254,38
1629637868.32,37
1629637868.354,37
1629637868.42,41
1629637868.454,38
1629637868.52,38
1629637868.554,38
1629637868.62,32
1629637868.654,32
1629637868.72,35
1629637868.754,34
1629637868.82,37
1629637868.854,38
1629637868.92,39
1629637868.954,41
1629637869.02,38
1629637869.054,35
1629637869.12,37
1629637869.154,34
1629637869.22,37
1629637869.254,36
1629637869.32,35
1629637869.354,36
1629637869.42,38
1629637869.454,37
1629637869.52,36
1629637869.554,35
1629637869.62,35
1629637869.654,36
1629637869.72,35
1629637869.754,35
1629637869.82,38
1629637869.854,39
1629637869.92,37
1629637869.954,39
1629637870.02,39
1629637870.054,38
1629637870.12,38
1629637870.153,36
1629637870.22,37
1629637870.253,36
1629637870.32,34
1629637870.353,35
1629637870.42,37
1629637870.453,35
1629637870.52,34
1629637870.553,31
1629637870.62,37
1629637870.653,38
1629637870.72,36
1629637870.753,33
1629637870.82,36
1629637870.853,42
1629637870.92,42
1629637870.953,37
1629637871.02,37
1629637871.053,35
1629637871.12,37
1629637871.153,33
1629637871.22,35
1629637871.253,35
1629637871.32,35
1629637871.353,36
1629637871.42,37
1629637871.453,40
1629637871.52,42
1629637871.553,41
1629637871.62,39
1629637871.653,39
1629637871.72,38
1629637871.753,36
1629637871.82,35
1629637871.853,39
1629637871.92,39
1629637871.953,41
1629637872.02,41
1629637872.053,41
1629637872.12,39
1629637872.153,41
1629637872.22,38
1629637872.253,38
1629637872.32,41
1629637872.353,41
1629637872.42,45
1629637872.453,44
1629637872.52,43
1629637872.553,44
1629637872.62,43
1629637872.653,45
1629637872.72,45
1629637872.753,42
1629637872.82,42
1629637872.853,43
1629637872.92,45
1629637872.953,44
1629637873.02,44
1629637873.053,43
1629637873.12,41
1629637873.153,39
1629637873.22,40
1629637873.253,43
1629637873.32,44
1629637873.353,43
1629637873.42,42
1629637873.453,44
1629637873.52,44
1629637873.553,41
1629637873.62,41
1629637873.653,44
1629637873.72,46
1629637873.753,47
1629637873.82,49
1629637873.853,48
1629637873.92,45
1629637873.953,41
1629637874.02,41
1629637874.053,45
1629637874.12,45
1629637874.153,42
1629637874.22,43
1629637874.253,42
1629637874.32,45
1629637874.353,44
1629637874.42,42
1629637874.453,41
1629637874.52,42
1629637874.553,41
1629637874.62,43
1629637874.653,41
1629637874.72,42
1629637874.753,40
1629637874.82,42
1629637874.853,41
1629637874.92,38
1629637874.953,40
1629637875.02,42
1629637875.053,41
1629637875.12,42
1629637875.153,43
1629637875.22,44
1629637875.253,44
1629637875.32,41
1629637875.353,44
1629637875.42,48
1629637875.453,47
1629637875.52,43
1629637875.553,41
1629637875.62,42
1629637875.653,41
1629637875.72,38
1629637875.753,40
1629637875.82,40
1629637875.853,42
1629637875.92,40
1629637875.953,36
1629637876.02,39
1629637876.053,42
1629637876.12,41
1629637876.153,43
1629637876.219,42
1629637876.253,41
1629637876.319,43
1629637876.353,44
1629637876.419,44
1629637876.453,41
1629637876.519,42
1629637876.553,40
1629637876.619,41
1629637876.653,42
1629637876.719,41
1629637876.753,40
1629637876.819,43
1629637876.853,42
1629637876.919,46
1629637876.953,48
1629637877.019,47
1629637877.053,46
1629637877.119,44
1629637877.153,43
1629637877.219,44
1629637877.253,43
1629637877.319,44
1629637877.353,42
1629637877.419,43
1629637877.453,40
