#timestamp x y z qx qy qz qw
1629637690.382 0.0 0.0 0.0 0.0 0.0 0.0 1.0
1629637692.372 -0.12832610722398385 -0.34406665712594986 -0.469892410554408 0.0 0.0 0.0 1.0
1629637693.384 -0.2358844405389391 -0.5547612579539418 -0.8944219240569282 0.0 0.0 0.0 1.0
1629637695.382 -0.7544210432097316 -0.6738229021430016 -0.6634910808999877 0.0 0.0 0.0 1.0
1629637697.368 -3.264565650257282 1.2558098891749978 -0.8209988602085616 0.0 0.0 0.0 1.0
1629637698.38 -5.832455470517743 3.4973251037299633 -0.5179518922837616 0.0 0.0 0.0 1.0
1629637699.382 -9.119312283175532 6.455469682812691 -0.9319049915832807 0.0 0.0 0.0 1.0
1629637701.383 -18.057611124473624 14.222596930339932 -0.6032535300458051 0.0 0.0 0.0 1.0
1629637702.38 -22.854118027724326 18.814726843498647 -0.7875094206087994 0.0 0.0 0.0 1.0
1629637704.378 -32.1892369982088 28.876257302239537 0.1394901149369332 0.0 0.0 0.0 1.0
1629637705.383 -36.47482682252303 34.4664159771055 0.4867080611673913 0.0 0.0 0.0 1.0
1629637706.385 -40.146092805836815 40.620038715191185 0.9315607277145972 0.0 0.0 0.0 1.0
1629637707.388 -42.58486523368629 47.46666806284338 0.16690864681525852 0.0 0.0 0.0 1.0
1629637709.373 -44.22444299759809 61.97358723171055 0.03442040702009308 0.0 0.0 0.0 1.0
1629637710.365 -44.371314127522055 69.09479285776615 0.629325472087757 0.0 0.0 0.0 1.0
1629637712.382 -45.73557808494661 82.02014022879303 0.9452424867133971 0.0 0.0 0.0 1.0
1629637713.385 -46.78738133754814 87.76759403012693 0.6782976488395605 0.0 0.0 0.0 1.0
1629637715.385 -49.168609941902105 97.37296146992594 0.4191432617618318 0.0 0.0 0.0 1.0
1629637716.398 -50.18413097335724 100.49458599369973 0.6024768136831966 0.0 0.0 0.0 1.0
1629637718.379 -51.45040544861695 106.95544219762087 0.7077066042812135 0.0 0.0 0.0 1.0
1629637719.375 -50.67145898769377 110.42157879006118 0.7619657120112038 0.0 0.0 0.0 1.0
1629637721.379 -44.1357924315962 117.24407424777746 0.34545648267064166 0.0 0.0 0.0 1.0
1629637722.376 -38.638662358163856 120.4908489221707 1.4068753702872954 0.0 0.0 0.0 1.0
1629637723.379 -32.578700330108404 124.55730525776744 1.4541386579018933 0.0 0.0 0.0 1.0
1629637725.358 -18.948350339429453 133.2590914182365 2.945305888979121 0.0 0.0 0.0 1.0
1629637726.393 -11.24969972576946 137.19270346779376 3.0190326884670355 0.0 0.0 0.0 1.0
1629637728.378 5.002397837408353 144.83198776002973 3.8950710182824935 0.0 0.0 0.0 1.0
1629637729.385 13.327012724010274 149.08427177276462 3.6261266661485934 0.0 0.0 0.0 1.0
1629637731.379 30.133272340113763 158.27765517495573 5.102149327120912 0.0 0.0 0.0 1.0
1629637732.375 38.63710229698336 163.5746265426278 5.096433789832503 0.0 0.0 0.0 1.0
1629637734.376 56.440579989692196 174.06340310629457 5.345535898590356 0.0 0.0 0.0 1.0
1629637736.375 74.33097749750596 184.66294533386827 6.5854516595377675 0.0 0.0 0.0 1.0
1629637737.381 83.42101968731731 190.30114237591624 5.515865661202099 0.0 0.0 0.0 1.0
1629637738.381 92.78204586182255 195.75962143111974 5.949402246827049 0.0 0.0 0.0 1.0
1629637740.387 111.67746124690166 206.80903429351747 6.298649924170178 0.0 0.0 0.0 1.0
1629637742.39 131.22823043516837 218.63312531914562 7.164111196506184 0.0 0.0 0.0 1.0
1629637744.375 150.74212221353082 230.93592385482043 7.946074364080772 0.0 0.0 0.0 1.0
1629637745.38 160.65045402001124 236.891694733873 8.353886945764287 0.0 0.0 0.0 1.0
1629637747.38 178.6876929749851 248.73673921637237 9.065574894537548 0.0 0.0 0.0 1.0
1629637749.383 192.00389364094008 261.3906465033069 10.653338701590854 0.0 0.0 0.0 1.0
1629637751.389 201.51553521456663 272.8338520620018 11.620657555210187 0.0 0.0 0.0 1.0
1629637753.363 208.83434728480643 281.8211699379608 12.469381767162332 0.0 0.0 0.0 1.0
1629637754.36 213.23168866941705 284.4076988948509 12.611720861601498 0.0 0.0 0.0 1.0
1629637755.39 217.9947801362141 285.01158513501287 13.795522097374487 0.0 0.0 0.0 1.0
1629637757.381 226.55455342913046 281.41933227330446 13.477699058406472 0.0 0.0 0.0 1.0
1629637758.413 231.66433624213096 278.08263508044183 13.659957906703852 0.0 0.0 0.0 1.0
1629637760.361 245.20435988070676 269.56361349951476 13.717293344532067 0.0 0.0 0.0 1.0
1629637762.386 261.3257873029215 259.88233753852546 13.592134406518596 0.0 0.0 0.0 1.0
1629637764.371 279.80967861850513 249.05134734045714 13.02520535313181 0.0 0.0 0.0 1.0
1629637765.388 289.54477641696576 243.41580871120095 12.493997743816408 0.0 0.0 0.0 1.0
1629637767.378 308.29401580570266 232.53874795604497 13.168972724594454 0.0 0.0 0.0 1.0
1629637769.363 323.69547891407274 221.28243976458907 13.75589228860514 0.0 0.0 0.0 1.0
1629637770.377 329.5831016108277 214.9704421274364 13.621203366422236 0.0 0.0 0.0 1.0
1629637772.388 337.4560310624656 200.35746137425303 13.876138155305199 0.0 0.0 0.0 1.0
1629637773.389 339.994663929916 191.38544640596956 13.496557431997047 0.0 0.0 0.0 1.0
1629637775.376 345.2925234679715 171.5820829384029 14.198225063378516 0.0 0.0 0.0 1.0
1629637776.404 348.4421545616351 161.60492164082825 13.497599603370588 0.0 0.0 0.0 1.0
1629637778.388 354.59259026049403 142.25231921114028 14.275848890761154 0.0 0.0 0.0 1.0
1629637780.363 360.2951165630948 122.39078912883997 15.34956343482537 0.0 0.0 0.0 1.0
1629637781.38 362.2834523811471 111.40856907982379 14.847616450580631 0.0 0.0 0.0 1.0
1629637783.38 363.49263799004257 89.52837948687375 14.90697085303043 0.0 0.0 0.0 1.0
1629637784.371 362.1874747797847 78.37785027641803 14.770945526711216 0.0 0.0 0.0 1.0
1629637785.382 359.953580807487 67.32219662331045 13.941219385420425 0.0 0.0 0.0 1.0
1629637786.375 357.9567378218635 55.96465934347361 13.909459253547624 0.0 0.0 0.0 1.0
1629637788.382 354.63027821388096 32.74472515936941 12.679866013858856 0.0 0.0 0.0 1.0
1629637790.372 351.6613846552791 12.537516763433814 12.109954287086282 0.0 0.0 0.0 1.0
1629637791.362 350.56053965108003 4.3116804687306285 11.771181785633217 0.0 0.0 0.0 1.0
1629637792.387 350.02125850575976 -2.2377712838351727 11.979766032214968 0.0 0.0 0.0 1.0
1629637793.404 350.0730505986721 -6.64375841524452 11.650900998356775 0.0 0.0 0.0 1.0
1629637795.374 350.4718880620785 -9.705766624771059 10.619710973609642 0.0 0.0 0.0 1.0
1629637796.371 350.622261660581 -11.119643802754581 11.965648418305335 0.0 0.0 0.0 1.0
1629637798.382 350.81760123046115 -14.870139935985208 10.77230704048381 0.0 0.0 0.0 1.0
1629637799.377 350.4717760728672 -17.070782572962344 9.990777532649673 0.0 0.0 0.0 1.0
1629637801.385 346.183089972008 -21.338062941096723 10.254246793703544 0.0 0.0 0.0 1.0
1629637802.373 341.8943994920701 -22.456850445829332 10.10690471630457 0.0 0.0 0.0 1.0
1629637804.371 331.8262308347621 -24.251089246943593 10.623487478511834 0.0 0.0 0.0 1.0
1629637805.386 326.5227101276978 -25.241061209701 9.684272216631342 0.0 0.0 0.0 1.0
1629637806.377 321.84350194979925 -26.179352410137653 9.137880575941097 0.0 0.0 0.0 1.0
1629637807.378 318.7792037614272 -26.827477430924773 9.685041878409834 0.0 0.0 0.0 1.0
1629637808.38 317.75046987028327 -26.798713568598032 10.11518241002031 0.0 0.0 0.0 1.0
1629637810.387 312.4107244653278 -28.266832769848406 9.636693092501417 0.0 0.0 0.0 1.0
1629637811.384 308.2466600553016 -29.620012566447258 9.519395350502577 0.0 0.0 0.0 1.0
1629637812.38 303.19834214879666 -31.190095732919872 8.704356289250654 0.0 0.0 0.0 1.0
1629637814.373 291.2393443653127 -34.90809129457921 9.159884280943857 0.0 0.0 0.0 1.0
1629637815.386 284.8538325375994 -36.93694820255041 9.040208920657307 0.0 0.0 0.0 1.0
1629637816.374 279.16183236730285 -38.46954984217882 8.734111037322975 0.0 0.0 0.0 1.0
1629637817.405 274.81463835650356 -39.387648697942495 8.246413875081316 0.0 0.0 0.0 1.0
1629637818.373 272.1892036140198 -39.916146747767925 8.621900783360473 0.0 0.0 0.0 1.0
1629637820.379 262.54177494806936 -42.34705462586135 8.075292231532131 0.0 0.0 0.0 1.0
1629637821.382 256.6526662167744 -42.50995433330536 7.737801553759965 0.0 0.0 0.0 1.0
1629637823.377 246.16651017975528 -41.11949408613145 7.021656200798873 0.0 0.0 0.0 1.0
1629637824.501 241.64283677499043 -40.55676371231675 8.156466074035905 0.0 0.0 0.0 1.0
1629637826.371 234.45933592057554 -39.665631653741 7.900172843414282 0.0 0.0 0.0 1.0
1629637828.374 225.59877567912918 -38.3967000991106 7.753772821375975 0.0 0.0 0.0 1.0
1629637830.372 218.4508122811676 -35.04705476295203 7.000942140203023 0.0 0.0 0.0 1.0
1629637831.379 215.5482119792723 -34.27208836842328 7.041212350828459 0.0 0.0 0.0 1.0
1629637833.369 207.19262054591672 -36.06581673119217 7.098176262231675 0.0 0.0 0.0 1.0
1629637835.376 197.1225017454126 -41.28638237621635 6.839182835973105 0.0 0.0 0.0 1.0
1629637836.376 191.80401896091644 -43.57778121624142 6.7611282149011345 0.0 0.0 0.0 1.0
1629637837.367 186.40368280280381 -46.213541206903756 5.964712675207181 0.0 0.0 0.0 1.0
1629637839.388 175.41027985262917 -51.5171930603683 5.160298939246587 0.0 0.0 0.0 1.0
1629637840.381 171.16338521277066 -53.359243765473366 5.101963862886464 0.0 0.0 0.0 1.0
1629637842.372 164.80610051436815 -56.15577203873545 4.697790213957688 0.0 0.0 0.0 1.0
1629637843.38 159.28844673518324 -58.44586718082428 4.08036451614575 0.0 0.0 0.0 1.0
1629637845.37 145.6391653365572 -63.832674546167254 3.3030127867623946 0.0 0.0 0.0 1.0
1629637847.401 134.5747126667411 -68.81314305774868 2.928166146702324 0.0 0.0 0.0 1.0
1629637848.406 131.39120718312915 -70.45054912660271 3.030088728634013 0.0 0.0 0.0 1.0
1629637850.383 120.09269330167444 -75.69650270603597 2.1219588228278354 0.0 0.0 0.0 1.0
1629637851.375 115.65119751222664 -77.85990059189498 2.505441961401033 0.0 0.0 0.0 1.0
1629637852.396 112.37488948483951 -79.47445164900273 2.0829136245934734 0.0 0.0 0.0 1.0
1629637854.398 106.65364570153179 -82.45296332519501 2.488605638567279 0.0 0.0 0.0 1.0
1629637856.382 102.15811126388144 -84.76063440740108 2.860669732023595 0.0 0.0 0.0 1.0
1629637857.4 98.74764626135584 -85.55104048550129 2.1557266839852787 0.0 0.0 0.0 1.0
1629637859.377 90.37575080030365 -80.5134595837444 0.8390075092429186 0.0 0.0 0.0 1.0
1629637860.381 85.6930234740139 -75.74416160490364 0.5028586931453418 0.0 0.0 0.0 1.0
1629637861.378 80.43667197361356 -71.4050893522799 0.9875097383852562 0.0 0.0 0.0 1.0
1629637862.383 75.11309847480152 -67.19908699858934 1.0998412207222543 0.0 0.0 0.0 1.0
1629637863.376 70.07876375247724 -63.43994123581797 1.2322639365985566 0.0 0.0 0.0 1.0
1629637865.372 57.56767952314112 -54.815746267326176 1.2133536684407176 0.0 0.0 0.0 1.0
1629637866.366 49.06923502101563 -48.82049775309861 1.9929097490471577 0.0 0.0 0.0 1.0
1629637868.375 32.749356566462666 -34.776080462150276 1.498322148726956 0.0 0.0 0.0 1.0
1629637869.365 25.86968024430098 -27.90110265556723 2.075948805270315 0.0 0.0 0.0 1.0
1629637871.376 13.78502670652233 -15.941892748698592 2.831562233041197 0.0 0.0 0.0 1.0
1629637873.368 4.6014544509816915 -7.071825013495982 3.467205810488963 0.0 0.0 0.0 1.0
1629637874.379 1.5723930491949432 -4.282218438573182 3.378015276407723 0.0 0.0 0.0 1.0
1629637876.366 -1.6684358677011915 -1.3911261269822717 3.8031813209623806 0.0 0.0 0.0 1.0
1629637877.379 -3.1726150010945275 0.06480248644948006 3.6926949839329097 0.0 0.0 0.0 1.0
