timestamp,cpu,ram_mb
0.208699,0.0,0.6757637651882296
0.917244,0.0,41.979382569236435
1.732826,0.0,144.4571997930122
2.550707,0.0,144.4571997930122
3.365034,0.0,144.4571997930122
4.182465,0.0,144.4571997930122
4.991673,0.0,144.4571997930122
5.802081,0.0,144.4571997930122
6.611729,0.0,144.4571997930122
7.429052,0.0,144.4571997930122
8.240915,0.0,144.4571997930122
9.057168,0.0,144.4571997930122
9.871373,0.0,144.4571997930122
10.689813,59.9,153.45696693170396
11.500531,39.9,153.85539412273982
12.318325,69.8,154.37100578172735
13.130738,49.9,154.62881161122112
13.950541,39.9,154.66396695160665
14.765404,49.8,154.92177278110043
15.580815,59.9,155.32019997213624
16.395659,69.8,155.22254624884317
17.211576,79.7,155.58581809949348
18.03023,159.6,167.33551408611888
18.855587,129.8,163.71060787747913
19.674102,119.80000000000001,163.02703181442746
20.492277,99.8,162.91765964433918
21.308949,129.8,163.10906094199365
22.12904,109.80000000000001,167.79253351113056
22.946755,99.69999999999999,163.4098344097364
23.765146,119.69999999999999,162.88250430395368
24.583503,109.8,163.06999945267643
25.399131,119.80000000000001,163.08953019733502
26.213136,109.69999999999999,162.92937809113437
27.024465,109.80000000000001,167.58941376668093
27.838898,119.69999999999999,163.3981159629412
28.65529,99.8,167.52300923484162
29.476508,99.8,162.88250430395368
30.2918,99.8,163.0660933037447
31.103557,129.8,163.01140721870055
31.922037,109.8,167.94096717053608
32.735719,129.8,163.26140075033086
33.550425,129.7,164.5738667913901
34.365268,119.8,162.33564345351235
35.180956,129.7,162.9567211336564
35.993781,99.8,163.1910900695599
36.806658,119.80000000000001,163.38639751614605
37.623635,119.69999999999999,161.99971464538405
38.438734,119.8,163.40202211187292
39.255958,109.8,167.46832314979747
40.073148,89.8,163.05046870801777
40.886788,99.8,163.1481224313109
41.705162,99.8,162.75360138920678
42.522696,119.69999999999999,167.85503189403818
43.337279,99.8,163.42936515439501
44.150939,119.80000000000001,167.56988302202228
44.968868,139.60000000000002,163.1989023674233
45.782672,109.80000000000001,162.8864104528854
46.596427,99.8,163.09343634626674
47.410189,99.4,162.92547194220262
48.226403,99.8,161.15598647613174
49.038704,119.80000000000001,163.32389913323846
49.855777,119.80000000000001,167.6480060006568
50.668582,109.80000000000001,162.90203504861228
51.480011,109.80000000000001,163.0075010697688
52.291532,119.30000000000001,163.08953019733502
53.107042,129.8,163.0075010697688
53.923431,129.7,161.08958194429243
54.733634,99.8,163.32389913323846
55.553279,119.80000000000001,166.62850112947686
56.36534,109.80000000000001,162.92547194220262
57.177399,129.7,162.85125511249987
57.991556,129.8,163.15593472917433
58.804853,119.7,163.08171789947158
59.625286,119.8,167.5816014688175
60.436377,149.8,163.40592826080467
61.255669,109.6,167.48004159659266
62.067137,119.80000000000001,162.82000592104606
62.881919,119.8,163.26140075033086
63.695357,139.7,163.03875026122262
64.512212,119.6,163.06218715481296
65.327465,129.8,163.21452696315018
66.142546,129.7,163.4762389415757
66.959296,129.8,162.948908835793
67.778314,119.69999999999999,163.08562404840333
68.590433,119.69999999999999,163.01531336763227
69.41078,109.69999999999999,163.39030366507777
70.224067,109.80000000000001,163.39030366507777
71.03465,109.8,163.3942098140095
71.850416,129.8,167.51910308590988
72.66453,119.8,163.08953019733502
73.485184,139.8,162.83172436784125
74.296972,119.80000000000001,162.92547194220262
75.116058,139.7,167.74175357501818
75.926323,99.8,163.3121806864433
76.741133,129.7,163.1637470270378
77.557967,119.80000000000001,161.25754634835653
78.377856,139.7,162.90594119754402
79.192387,139.6,162.74188294241162
80.005129,139.6,162.94109653792952
80.818733,109.80000000000001,163.23405770780877
81.634132,129.7,163.245776154604
82.450797,109.80000000000001,167.47222929872922
83.263438,119.80000000000001,163.25358845246745
84.081449,119.80000000000001,163.12468553772055
84.893507,109.80000000000001,162.86687970822675
85.71089,109.8,166.56990889550102
86.526069,129.7,163.3473360268288
87.339272,119.80000000000001,163.46452049478054
88.156828,119.80000000000001,162.8551612614316
88.969013,89.8,163.1129670909254
89.785257,89.8,163.30046223964814
90.602435,109.80000000000001,162.82000592104606
91.419387,129.7,167.90581183015058
92.232688,119.8,163.21843311208193
93.0481,119.69999999999999,167.4370739583437
93.860733,119.80000000000001,162.96062728258815
94.680246,109.6,163.0660933037447
95.493492,129.8,163.15984087810608
96.314766,119.5,167.53082153270506
97.132382,109.8,163.3746790693509
97.950346,109.80000000000001,167.71050438356437
98.763091,119.80000000000001,163.0035949208371
99.581226,119.69999999999999,163.02703181442746
100.394643,119.69999999999999,163.02703181442746
101.20897,129.7,163.75357551572807
102.024639,139.8,163.47233279264395
102.838774,118.0,163.40202211187292
103.65479,119.80000000000001,161.53878907144065
104.470653,119.80000000000001,163.01531336763227
105.287885,119.69999999999999,163.132497835584
106.102055,129.5,163.132497835584
106.92098,129.7,163.51920657982467
107.732909,109.69999999999999,163.5270188776881
108.548133,119.69999999999999,167.5816014688175
109.361619,99.8,163.08171789947158
110.179409,129.7,163.1168732398571
110.993359,109.80000000000001,163.24187000567227
111.816255,119.80000000000001,167.90581183015058
112.628464,89.8,163.3121806864433
113.441306,119.80000000000001,164.95276323776733
114.253917,119.8,163.02703181442746
115.065998,109.8,163.01531336763227
115.885648,109.8,163.1168732398571
116.694973,109.80000000000001,163.132497835584
117.510766,109.8,167.69487978783746
118.323221,89.8,163.43717745225848
119.141101,129.7,163.542643473415
119.954966,119.8,163.1793716227647
120.777264,109.69999999999999,163.0973424951985
121.586652,119.80000000000001,162.8864104528854
122.399662,109.69999999999999,163.3278052821702
123.214707,119.80000000000001,167.74175357501818
124.02775,139.7,163.3317114311019
124.846632,139.7,167.81987655365262
125.658789,79.8,162.9684395804516
126.478249,109.69999999999999,162.87078585715847
127.289014,109.8,163.05046870801777
128.104172,99.8,163.84341694115776
128.917213,109.80000000000001,163.1637470270378
129.729885,119.80000000000001,163.29264994178467
130.543595,109.8,167.51910308590988
131.354708,119.80000000000001,163.0973424951985
132.175038,109.8,163.3121806864433
132.987002,119.80000000000001,163.1715593249012
133.807672,139.7,164.1676273024908
134.632865,119.3,163.63639104777639
135.449632,109.69999999999999,167.44488625620716
136.263139,139.60000000000002,163.1207793887888
137.07656,119.80000000000001,163.38249136721433
137.894103,99.69999999999999,162.97234572938333
138.710415,119.8,167.88237493656018
139.522325,149.7,163.08953019733502
140.337319,129.8,167.0894267034203
141.152692,109.8,163.20280851635502
141.969864,129.8,163.30827453751155
142.786387,119.6,162.79266287852403
143.601847,109.6,163.10906094199365
144.420975,109.69999999999999,163.41764670759983
145.235132,109.8,164.02700594094875
146.050357,119.69999999999999,163.05437485694955
146.869019,109.80000000000001,163.2301515588771
147.681703,109.8,162.97625187831505
148.494583,119.69999999999999,163.3942098140095
149.316059,139.7,161.03489585924825
150.131616,109.8,163.50358198409776
150.951542,129.8,163.1715593249012
151.76824,119.80000000000001,163.08953019733502
152.582812,129.7,162.86687970822675
153.396466,119.1,162.9684395804516
154.21316,119.80000000000001,161.05052045497519
155.024667,109.8,163.5621742180736
155.835029,119.69999999999999,163.58170496273223
156.650366,129.7,162.97234572938333
157.469389,119.69999999999999,163.26530689926258
158.283993,109.69999999999999,163.1832777716964
159.104219,89.8,167.23786036282578
159.918814,129.7,163.3317114311019
160.732908,129.8,163.23796385674055
161.551527,119.6,161.3317631780593
162.365795,119.7,163.07390560160817
163.185174,129.8,162.90984734647571
163.995336,109.80000000000001,163.10124864413018
164.812286,119.69999999999999,163.07781175053984
165.623031,99.8,163.39030366507777
166.435353,99.80000000000001,164.94885708883558
167.251378,109.8,162.8082874742509
168.069968,109.8,163.1832777716964
168.883697,109.80000000000001,162.94500268686124
169.699819,119.69999999999999,164.74964349331768
170.518538,109.8,163.5270188776881
171.339903,139.3,167.75737817074506
172.164122,119.6,162.83172436784125
172.985672,129.8,162.93719038899778
173.824015,139.7,163.48795738837086
174.639146,119.9,167.47222929872922
175.450987,109.80000000000001,163.07781175053984
176.26652,119.80000000000001,163.2301515588771
177.083883,109.8,163.1793716227647
177.899455,119.80000000000001,163.132497835584
178.716485,129.7,163.51920657982467
179.529537,129.7,163.09343634626674
180.346161,119.69999999999999,162.9879703251102
181.162596,129.7,163.10515479306193
181.974382,119.69999999999999,163.31608683537502
182.789732,149.7,163.05437485694955
183.608439,129.7,163.50748813302945
184.425306,119.69999999999999,163.23796385674055
185.244317,119.69999999999999,160.6599055618028
186.054022,119.80000000000001,163.3434298778971
186.871434,119.80000000000001,163.01531336763227
187.684756,119.80000000000001,163.2106208142185
188.499569,129.7,166.72615485276998
189.317565,119.80000000000001,163.73795092000123
190.133488,118.5,165.56602862004797
190.949424,119.80000000000001,163.2301515588771
191.763606,109.8,163.08953019733502
192.580364,119.69999999999999,163.35905447362396
193.394702,119.80000000000001,163.30436838857983
194.210077,129.6,163.01140721870055
195.026526,99.8,163.40202211187292
195.842275,119.80000000000001,167.62847525599818
196.653439,119.80000000000001,163.1403101334474
197.469363,129.8,162.9996887719054
198.283741,119.8,163.09343634626674
199.098532,0.0,162.81219362318265
199.916098,0.0,162.81219362318265
200.728128,0.0,162.81219362318265
201.543981,0.0,162.81219362318265
202.361309,0.0,162.81219362318265
