timestamp,cpu,mem
0.183375,112.5,0.8999999999999999
0.871953,131.2,0.8999999999999999
1.565018,125.0,0.8999999999999999
2.246613,100.0,0.8999999999999999
2.946679,125.0,0.8999999999999999
3.636979,125.0,0.8999999999999999
4.321922,112.5,0.8999999999999999
5.017998,105.9,0.8999999999999999
5.710826,125.0,0.8999999999999999
6.399985,117.6,0.8999999999999999
7.099433,117.6,0.8999999999999999
7.802344,117.6,0.8999999999999999
8.490626,82.4,0.8999999999999999
9.185636,112.5,0.8999999999999999
9.872403,94.1,0.8999999999999999
10.568097,117.7,0.8999999999999999
11.256998,100.0,0.8999999999999999
11.947792,88.2,0.8999999999999999
12.639358,76.5,0.8999999999999999
13.332481,81.2,0.8999999999999999
14.024539,82.4,0.8999999999999999
14.715774,88.2,0.8999999999999999
15.405176,111.8,0.8999999999999999
16.09203,117.6,0.8999999999999999
16.78669,112.5,0.8999999999999999
17.482178,129.4,0.8999999999999999
18.17142,112.5,0.8999999999999999
18.863209,123.5,0.8999999999999999
19.554167,123.5,0.8999999999999999
20.241736,111.8,0.8999999999999999
20.950122,105.9,0.8999999999999999
21.642824,111.8,0.8999999999999999
22.338637,111.8,0.8999999999999999
23.027073,131.2,0.8999999999999999
23.727606,105.9,0.8999999999999999
24.418177,117.6,0.8999999999999999
25.096328,111.8,0.8999999999999999
25.787193,117.6,0.8999999999999999
26.484267,125.0,0.8999999999999999
27.182637,117.6,0.8999999999999999
27.875582,117.6,0.8999999999999999
28.571402,125.0,0.8999999999999999
29.264555,131.2,0.8999999999999999
29.954367,111.8,0.8999999999999999
30.646227,123.5,0.8999999999999999
31.34874,123.5,0.8999999999999999
32.049258,123.5,0.8999999999999999
32.746596,111.8,0.8999999999999999
33.430055,111.8,0.8999999999999999
34.122759,118.8,0.8999999999999999
34.819552,111.1,0.8999999999999999
35.520694,125.0,0.8999999999999999
36.211228,105.9,0.8999999999999999
36.900036,117.6,0.8999999999999999
37.589536,118.8,0.8999999999999999
38.275184,118.8,0.8999999999999999
38.967464,131.2,0.8999999999999999
39.654922,118.8,0.8999999999999999
40.34474,123.5,0.8999999999999999
41.030917,123.5,0.8999999999999999
41.721099,118.8,0.8999999999999999
42.415171,111.8,0.8999999999999999
43.106788,117.6,0.8999999999999999
43.78846,118.8,0.8999999999999999
44.486411,117.6,0.8999999999999999
45.178882,118.8,0.8999999999999999
45.860544,131.2,0.8999999999999999
46.55677,118.8,0.8999999999999999
47.250716,117.6,0.8999999999999999
47.958497,117.6,0.8999999999999999
48.646933,118.8,0.8999999999999999
49.345534,111.1,0.8999999999999999
50.045266,125.0,0.8999999999999999
50.743839,125.0,0.8999999999999999
51.430366,111.8,0.8999999999999999
52.126534,105.9,0.8999999999999999
52.816704,117.6,0.8999999999999999
53.51289,123.5,0.8999999999999999
54.20421,123.5,0.8999999999999999
54.897002,111.8,0.8999999999999999
55.593726,105.6,0.8999999999999999
56.285039,100.0,0.8999999999999999
56.977844,111.8,0.8999999999999999
57.669832,117.7,0.8999999999999999
58.359937,131.2,0.8999999999999999
59.051128,112.5,0.8999999999999999
59.743897,117.6,0.8999999999999999
60.430952,123.5,0.8999999999999999
61.1301,111.8,0.8999999999999999
61.820167,131.2,0.8999999999999999
62.519604,123.5,0.8999999999999999
63.215575,131.2,0.8999999999999999
63.910375,123.5,0.8999999999999999
64.605635,105.9,0.8999999999999999
65.286221,131.2,0.8999999999999999
65.977493,125.0,0.8999999999999999
66.677724,125.0,0.8999999999999999
67.373136,125.0,0.8999999999999999
68.06177,118.8,0.8999999999999999
68.743299,118.8,0.8999999999999999
69.433854,123.5,0.8999999999999999
70.122876,117.6,0.8999999999999999
70.820705,117.6,0.8999999999999999
71.518361,111.8,0.8999999999999999
72.215678,111.8,0.8999999999999999
72.911968,118.8,0.8999999999999999
73.60351,111.8,0.8999999999999999
74.298941,123.5,0.8999999999999999
74.993958,117.6,0.8999999999999999
75.690045,117.6,0.8999999999999999
76.390923,123.5,0.8999999999999999
77.085786,106.2,0.8999999999999999
77.783582,117.6,0.8999999999999999
78.480583,117.6,0.8999999999999999
79.171333,111.8,0.8999999999999999
79.871396,111.8,0.8999999999999999
80.576254,117.6,0.8999999999999999
81.26114,123.5,0.8999999999999999
81.957106,123.5,0.8999999999999999
82.650397,125.0,0.8999999999999999
83.357732,123.5,0.8999999999999999
84.044376,118.8,0.8999999999999999
84.749713,123.5,0.8999999999999999
85.441929,112.5,0.8999999999999999
86.138843,111.8,0.8999999999999999
86.834343,111.8,0.8999999999999999
87.548838,117.6,0.8999999999999999
88.232499,118.8,0.8999999999999999
88.922504,105.9,0.8999999999999999
89.612912,118.8,0.8999999999999999
90.304121,111.8,0.8999999999999999
90.992585,112.5,0.8999999999999999
91.689476,105.9,0.8999999999999999
92.384483,111.8,0.8999999999999999
93.065937,112.5,0.8999999999999999
93.759167,117.6,0.8999999999999999
94.461473,94.4,0.8999999999999999
95.171152,135.3,0.8999999999999999
95.864192,106.2,0.8999999999999999
96.551856,76.5,0.8999999999999999
97.242086,76.5,0.8999999999999999
97.9255,93.8,0.8999999999999999
98.618106,100.0,0.8999999999999999
99.318432,137.5,0.8999999999999999
100.009404,118.8,0.8999999999999999
100.701483,117.6,0.8999999999999999
101.392658,131.2,0.8999999999999999
102.084471,111.8,0.8999999999999999
102.778228,111.8,0.8999999999999999
103.464455,125.0,0.8999999999999999
104.148561,118.8,0.8999999999999999
104.834015,125.0,0.8999999999999999
105.522157,125.0,0.8999999999999999
106.208112,118.8,0.8999999999999999
106.895301,131.2,0.8999999999999999
107.58591,111.8,0.8999999999999999
108.273896,111.8,0.8999999999999999
108.963077,131.2,0.8999999999999999
109.652985,137.5,0.8999999999999999
110.342868,111.8,0.8999999999999999
111.034428,100.0,0.8999999999999999
111.735101,111.8,0.8999999999999999
112.44632,117.6,0.8999999999999999
113.153823,88.9,0.8999999999999999
113.853803,94.1,0.8999999999999999
114.55013,105.9,0.8999999999999999
115.248109,100.0,0.8999999999999999
115.938714,87.5,0.8999999999999999
116.632703,93.8,0.8999999999999999
117.329286,105.9,0.8999999999999999
118.027437,94.1,0.8999999999999999
118.742047,111.8,0.8999999999999999
119.433498,94.1,0.8999999999999999
120.138626,105.9,0.8999999999999999
120.845819,100.0,0.8999999999999999
121.554025,105.9,0.8999999999999999
122.252891,111.8,0.8999999999999999
122.957895,100.0,0.8999999999999999
123.659597,111.8,0.8999999999999999
124.364655,88.2,0.8999999999999999
125.067754,100.0,0.8999999999999999
125.763025,93.8,0.8999999999999999
126.473202,105.9,0.8999999999999999
127.170431,88.2,0.8999999999999999
127.87106,105.9,0.8999999999999999
128.581418,94.4,0.8999999999999999
129.291889,105.9,0.8999999999999999
129.988042,105.9,0.8999999999999999
130.68478,118.8,0.8999999999999999
131.389207,123.5,0.8999999999999999
132.095092,94.1,0.8999999999999999
132.797188,117.6,0.8999999999999999
133.5004,94.4,0.8999999999999999
134.202573,106.2,0.8999999999999999
134.907343,117.6,0.8999999999999999
135.601867,111.8,0.8999999999999999
136.296738,125.0,0.8999999999999999
136.989118,106.2,0.8999999999999999
137.672738,112.5,0.8999999999999999
138.37533,111.8,0.8999999999999999
139.076431,88.2,0.8999999999999999
139.767406,111.8,0.8999999999999999
140.460299,105.9,0.8999999999999999
141.174196,117.6,0.8999999999999999
141.876139,76.5,0.8999999999999999
142.571968,105.6,0.8999999999999999
143.275658,94.1,0.8999999999999999
143.978149,111.8,0.8999999999999999
144.670501,106.2,0.8999999999999999
145.368754,100.0,0.8999999999999999
146.075873,112.5,0.8999999999999999
146.773933,112.5,0.8999999999999999
147.473487,88.9,0.8999999999999999
148.161504,105.9,0.8999999999999999
148.862762,105.9,0.8999999999999999
149.581378,88.9,0.8999999999999999
150.277921,111.8,0.8999999999999999
150.982438,111.1,0.8999999999999999
151.676804,118.8,0.8999999999999999
152.363717,129.4,0.8999999999999999
153.052769,123.5,0.8999999999999999
153.754645,129.4,0.8999999999999999
154.441797,105.9,0.8999999999999999
155.137607,123.5,0.8999999999999999
155.831348,125.0,0.8999999999999999
156.523059,131.2,0.8999999999999999
157.211786,125.0,0.8999999999999999
157.907296,131.2,0.8999999999999999
158.600612,105.9,0.8999999999999999
159.290136,131.2,0.8999999999999999
159.981239,118.8,0.8999999999999999
160.667261,131.2,0.8999999999999999
161.348822,123.5,0.8999999999999999
162.030843,131.2,0.8999999999999999
162.732204,123.5,0.8999999999999999
163.421539,117.6,0.8999999999999999
164.111748,117.6,0.8999999999999999
164.797197,125.0,0.8999999999999999
165.481684,111.8,0.8999999999999999
166.17987,100.0,0.8999999999999999
166.865051,68.8,0.8999999999999999
167.555612,70.6,0.8999999999999999
168.242024,100.0,0.8999999999999999
168.928332,112.5,0.8999999999999999
169.615403,118.8,0.8999999999999999
170.30026,117.6,0.8999999999999999
171.002219,117.6,0.8999999999999999
171.699594,94.5,0.8999999999999999
172.389312,118.8,0.8999999999999999
173.089814,105.9,0.8999999999999999
173.776873,118.8,0.8999999999999999
174.461677,123.5,0.8999999999999999
175.14819,118.8,0.8999999999999999
175.861521,106.2,0.8999999999999999
176.54572,112.5,0.8999999999999999
177.240655,105.9,0.8999999999999999
177.948919,94.4,0.8999999999999999
178.633258,93.8,0.8999999999999999
179.339598,70.6,0.8999999999999999
180.026117,100.0,0.8999999999999999
180.718536,118.8,0.8999999999999999
181.41215,125.0,0.8999999999999999
182.09728,100.0,0.8999999999999999
182.786354,123.5,0.8999999999999999
183.477815,105.9,0.8999999999999999
184.168812,131.2,0.8999999999999999
184.854693,125.0,0.8999999999999999
185.541987,105.9,0.8999999999999999
186.236795,137.5,0.8999999999999999
186.923185,123.5,0.8999999999999999
187.619523,100.0,0.8999999999999999
188.318607,112.5,0.8999999999999999
189.013875,129.4,0.8999999999999999
189.708666,117.6,0.8999999999999999
190.395799,75.0,0.8999999999999999
191.093708,93.8,0.8999999999999999
191.792949,111.8,0.8999999999999999
192.4832,105.9,0.8999999999999999
193.179296,117.6,0.8999999999999999
193.869778,137.5,0.8999999999999999
194.563477,106.2,0.8999999999999999
195.255193,117.6,0.8999999999999999
195.951112,129.4,0.8999999999999999
196.642627,123.5,0.8999999999999999
197.339819,137.5,0.8999999999999999
198.035366,143.7,0.8999999999999999
198.731684,123.5,0.8999999999999999
199.416378,118.8,0.8999999999999999
200.101474,82.4,0.8999999999999999
200.788148,81.2,0.8999999999999999
201.474091,87.5,0.8999999999999999
202.165135,75.0,0.8999999999999999
202.847226,106.2,0.8999999999999999
203.547525,117.6,0.8999999999999999
204.233759,125.0,0.8999999999999999
204.922018,117.6,0.8999999999999999
205.622112,137.39999999999998,0.8999999999999999
206.312324,123.5,0.8999999999999999
206.997092,129.4,0.8999999999999999
207.685865,111.8,0.8999999999999999
208.383751,111.8,0.8999999999999999
209.075903,111.8,0.8999999999999999
209.768135,131.2,0.8999999999999999
210.464626,131.2,0.8999999999999999
211.150849,105.9,0.8999999999999999
211.838694,87.5,0.8999999999999999
212.518128,56.2,0.8999999999999999
213.208015,87.5,0.8999999999999999
213.897388,93.8,0.8999999999999999
214.597958,117.6,0.8999999999999999
215.289973,131.2,0.8999999999999999
215.985301,125.0,0.8999999999999999
216.671022,117.6,0.8999999999999999
217.367699,117.6,0.8999999999999999
218.059897,112.5,0.8999999999999999
218.752415,117.6,0.8999999999999999
219.440755,131.2,0.8999999999999999
220.139888,123.5,0.8999999999999999
220.831661,118.8,0.8999999999999999
221.523525,82.4,0.8999999999999999
222.21473,100.0,0.8999999999999999
222.898006,117.6,0.8999999999999999
223.596412,112.5,0.8999999999999999
224.280638,94.1,0.8999999999999999
224.965735,118.8,0.8999999999999999
225.662887,94.4,0.8999999999999999
226.358004,117.6,0.8999999999999999
227.047564,125.0,0.8999999999999999
227.746118,111.1,0.8999999999999999
228.432386,131.2,0.8999999999999999
229.118429,118.8,0.8999999999999999
229.804549,125.0,0.8999999999999999
230.504441,100.0,0.8999999999999999
231.188579,106.2,0.8999999999999999
231.878455,112.5,0.8999999999999999
232.564861,118.8,0.8999999999999999
233.253596,111.8,0.8999999999999999
233.939495,100.0,0.8999999999999999
234.622285,106.2,0.8999999999999999
235.303719,118.8,0.8999999999999999
235.986388,112.5,0.8999999999999999
236.674439,111.8,0.8999999999999999
237.368239,129.4,0.8999999999999999
238.056823,118.8,0.8999999999999999
238.738664,117.6,0.8999999999999999
239.428989,118.8,0.8999999999999999
240.118146,118.8,0.8999999999999999
240.799952,125.0,0.8999999999999999
241.486077,112.5,0.8999999999999999
242.179955,105.9,0.8999999999999999
242.868757,81.2,0.8999999999999999
243.556588,87.5,0.8999999999999999
244.247748,111.8,0.8999999999999999
244.930869,118.8,0.8999999999999999
245.631626,100.0,0.8999999999999999
246.320987,125.0,0.8999999999999999
247.013808,117.6,0.8999999999999999
247.693643,112.5,0.8999999999999999
248.384547,111.8,0.8999999999999999
249.076295,105.9,0.8999999999999999
249.762456,111.8,0.8999999999999999
250.451624,129.4,0.8999999999999999
251.142201,123.5,0.8999999999999999
251.832311,105.9,0.8999999999999999
252.525292,118.8,0.8999999999999999
253.221475,129.4,0.8999999999999999
253.909421,70.6,0.8999999999999999
254.596338,0.0,0.8999999999999999
255.280203,0.0,0.8999999999999999
255.965334,0.0,0.8999999999999999
256.651959,0.0,0.8999999999999999
257.335838,6.2,0.8999999999999999
258.021231,0.0,0.8999999999999999
258.710619,0.0,0.8999999999999999
259.393954,0.0,0.8999999999999999
260.077912,0.0,0.8999999999999999
260.762585,0.0,0.8999999999999999
261.446489,0.0,0.8999999999999999
262.131282,0.0,0.8999999999999999
262.816237,0.0,0.8999999999999999
263.496534,0.0,0.8999999999999999
264.182438,0.0,0.8999999999999999
264.861722,0.0,0.8999999999999999
265.54834,0.0,0.8999999999999999
266.233229,0.0,0.8999999999999999
266.915358,0.0,0.8999999999999999
267.604199,0.0,0.8999999999999999
268.288693,0.0,0.8999999999999999
268.978414,0.0,0.8999999999999999
269.664727,6.2,0.8999999999999999
270.350759,0.0,0.8999999999999999
271.036299,0.0,0.8999999999999999
271.716222,0.0,0.8999999999999999
272.407555,0.0,0.8999999999999999
273.086719,0.0,0.8999999999999999
273.7699,0.0,0.8999999999999999
274.457031,0.0,0.8999999999999999
275.136648,0.0,0.8999999999999999
275.826454,0.0,0.8999999999999999
276.509567,0.0,0.8999999999999999
277.190647,0.0,0.8999999999999999
